G04 #@! TF.GenerationSoftware,KiCad,Pcbnew,(5.0.1)-3*
G04 #@! TF.CreationDate,2019-02-14T18:09:48-03:00*
G04 #@! TF.ProjectId,SensoresPCB,53656E736F7265735043422E6B696361,rev?*
G04 #@! TF.SameCoordinates,Original*
G04 #@! TF.FileFunction,Copper,L2,Bot,Signal*
G04 #@! TF.FilePolarity,Positive*
%FSLAX46Y46*%
G04 Gerber Fmt 4.6, Leading zero omitted, Abs format (unit mm)*
G04 Created by KiCad (PCBNEW (5.0.1)-3) date 14-02-2019 18:09:48*
%MOMM*%
%LPD*%
G01*
G04 APERTURE LIST*
G04 #@! TA.AperFunction,NonConductor*
%ADD10C,0.150000*%
G04 #@! TD*
G04 #@! TA.AperFunction,ComponentPad*
%ADD11C,1.400000*%
G04 #@! TD*
G04 #@! TA.AperFunction,ComponentPad*
%ADD12O,1.400000X1.400000*%
G04 #@! TD*
G04 #@! TA.AperFunction,ComponentPad*
%ADD13R,1.700000X1.700000*%
G04 #@! TD*
G04 #@! TA.AperFunction,ComponentPad*
%ADD14O,1.700000X1.700000*%
G04 #@! TD*
G04 #@! TA.AperFunction,ComponentPad*
%ADD15C,2.000000*%
G04 #@! TD*
G04 #@! TA.AperFunction,ComponentPad*
%ADD16C,1.600000*%
G04 #@! TD*
G04 #@! TA.AperFunction,ComponentPad*
%ADD17R,1.600000X1.600000*%
G04 #@! TD*
G04 #@! TA.AperFunction,ComponentPad*
%ADD18R,1.800000X1.800000*%
G04 #@! TD*
G04 #@! TA.AperFunction,ComponentPad*
%ADD19O,1.800000X1.800000*%
G04 #@! TD*
G04 #@! TA.AperFunction,ComponentPad*
%ADD20C,1.800000*%
G04 #@! TD*
G04 #@! TA.AperFunction,ComponentPad*
%ADD21O,1.524000X2.199640*%
G04 #@! TD*
G04 #@! TA.AperFunction,ComponentPad*
%ADD22O,1.524000X2.197100*%
G04 #@! TD*
G04 #@! TA.AperFunction,ComponentPad*
%ADD23O,1.998980X1.539240*%
G04 #@! TD*
G04 #@! TA.AperFunction,ComponentPad*
%ADD24O,1.998980X1.536700*%
G04 #@! TD*
G04 #@! TA.AperFunction,Conductor*
%ADD25C,2.000000*%
G04 #@! TD*
G04 #@! TA.AperFunction,Conductor*
%ADD26C,0.500000*%
G04 #@! TD*
G04 APERTURE END LIST*
D10*
X244043200Y-85471000D02*
X152501600Y-85293200D01*
X244094000Y-31953200D02*
X244043200Y-85471000D01*
X152654000Y-32004000D02*
X244094000Y-31953200D01*
X152501600Y-85293200D02*
X152654000Y-32004000D01*
D11*
G04 #@! TO.P,R2,1*
G04 #@! TO.N,UvLed0a*
X206400400Y-69748400D03*
D12*
G04 #@! TO.P,R2,2*
G04 #@! TO.N,PinLed0*
X206400400Y-77368400D03*
G04 #@! TD*
D11*
G04 #@! TO.P,R3,1*
G04 #@! TO.N,5va*
X221665800Y-64922400D03*
D12*
G04 #@! TO.P,R3,2*
G04 #@! TO.N,PinTh0*
X221665800Y-72542400D03*
G04 #@! TD*
D13*
G04 #@! TO.P,Therm0,1*
G04 #@! TO.N,PinTh0*
X215925400Y-69646800D03*
D14*
G04 #@! TO.P,Therm0,2*
G04 #@! TO.N,T0b*
X215925400Y-67106800D03*
G04 #@! TD*
D15*
G04 #@! TO.P,SW1,1*
G04 #@! TO.N,sw*
X227632400Y-56540400D03*
G04 #@! TO.P,SW1,2*
G04 #@! TO.N,T0b*
X227632400Y-61040400D03*
G04 #@! TO.P,SW1,1*
G04 #@! TO.N,sw*
X221132400Y-56540400D03*
G04 #@! TO.P,SW1,2*
G04 #@! TO.N,T0b*
X221132400Y-61040400D03*
G04 #@! TD*
D16*
G04 #@! TO.P,C1,2*
G04 #@! TO.N,GND*
X159502000Y-68427600D03*
D17*
G04 #@! TO.P,C1,1*
G04 #@! TO.N,12v*
X155702000Y-68427600D03*
G04 #@! TD*
D14*
G04 #@! TO.P,J5,7*
G04 #@! TO.N,N/C*
X184912000Y-56565800D03*
G04 #@! TO.P,J5,6*
X184912000Y-54025800D03*
G04 #@! TO.P,J5,5*
X184912000Y-51485800D03*
G04 #@! TO.P,J5,4*
X184912000Y-48945800D03*
G04 #@! TO.P,J5,3*
G04 #@! TO.N,5v0*
X184912000Y-46405800D03*
G04 #@! TO.P,J5,2*
G04 #@! TO.N,N/C*
X184912000Y-43865800D03*
D13*
G04 #@! TO.P,J5,1*
G04 #@! TO.N,sGnd*
X184912000Y-41325800D03*
G04 #@! TD*
D17*
G04 #@! TO.P,C2,1*
G04 #@! TO.N,5vCap*
X155107988Y-47176516D03*
D16*
G04 #@! TO.P,C2,2*
G04 #@! TO.N,uCgnd*
X158907988Y-47176516D03*
G04 #@! TD*
D11*
G04 #@! TO.P,R9,1*
G04 #@! TO.N,UvLed1a*
X209854800Y-69850000D03*
D12*
G04 #@! TO.P,R9,2*
G04 #@! TO.N,PinLed1*
X209854800Y-77470000D03*
G04 #@! TD*
D14*
G04 #@! TO.P,Led0,2*
G04 #@! TO.N,T0b*
X202260200Y-65125600D03*
D13*
G04 #@! TO.P,Led0,1*
G04 #@! TO.N,UvLed0a*
X202260200Y-67665600D03*
G04 #@! TD*
G04 #@! TO.P,Therm1,1*
G04 #@! TO.N,PinTh1*
X215976200Y-77089000D03*
D14*
G04 #@! TO.P,Therm1,2*
G04 #@! TO.N,T0b*
X215976200Y-74549000D03*
G04 #@! TD*
D11*
G04 #@! TO.P,R1,1*
G04 #@! TO.N,Net-(Q1-Pad1)*
X172643800Y-60299600D03*
D12*
G04 #@! TO.P,R1,2*
G04 #@! TO.N,pinPWM0*
X172643800Y-52679600D03*
G04 #@! TD*
D18*
G04 #@! TO.P,Q1,1*
G04 #@! TO.N,Net-(Q1-Pad1)*
X168009829Y-65768459D03*
D19*
G04 #@! TO.P,Q1,2*
G04 #@! TO.N,H0b*
X168009829Y-68308459D03*
G04 #@! TO.P,Q1,3*
G04 #@! TO.N,GND*
X168009829Y-70848459D03*
G04 #@! TD*
D13*
G04 #@! TO.P,Heater1,1*
G04 #@! TO.N,12v*
X195326000Y-66014600D03*
D14*
G04 #@! TO.P,Heater1,2*
G04 #@! TO.N,H1b*
X195326000Y-68554600D03*
G04 #@! TD*
D12*
G04 #@! TO.P,R4,2*
G04 #@! TO.N,Net-(Q1-Pad1)*
X172643800Y-63144400D03*
D11*
G04 #@! TO.P,R4,1*
G04 #@! TO.N,GND*
X172643800Y-70764400D03*
G04 #@! TD*
D13*
G04 #@! TO.P,J2,1*
G04 #@! TO.N,GND*
X158412878Y-75859013D03*
D14*
G04 #@! TO.P,J2,2*
G04 #@! TO.N,12v*
X155872878Y-75859013D03*
G04 #@! TD*
G04 #@! TO.P,J6,2*
G04 #@! TO.N,5vCap*
X156225588Y-55253716D03*
D13*
G04 #@! TO.P,J6,1*
G04 #@! TO.N,uCgnd*
X158765588Y-55253716D03*
G04 #@! TD*
D14*
G04 #@! TO.P,J3,7*
G04 #@! TO.N,N/C*
X164998400Y-56642000D03*
G04 #@! TO.P,J3,6*
X164998400Y-54102000D03*
G04 #@! TO.P,J3,5*
G04 #@! TO.N,sda0*
X164998400Y-51562000D03*
G04 #@! TO.P,J3,4*
G04 #@! TO.N,scl0*
X164998400Y-49022000D03*
G04 #@! TO.P,J3,3*
G04 #@! TO.N,uCgnd*
X164998400Y-46482000D03*
G04 #@! TO.P,J3,2*
G04 #@! TO.N,N/C*
X164998400Y-43942000D03*
D13*
G04 #@! TO.P,J3,1*
G04 #@! TO.N,5vCap*
X164998400Y-41402000D03*
G04 #@! TD*
D20*
G04 #@! TO.P,D1,2*
G04 #@! TO.N,Net-(D1-Pad2)*
X225450400Y-50241200D03*
D18*
G04 #@! TO.P,D1,1*
G04 #@! TO.N,T0b*
X222910400Y-50241200D03*
G04 #@! TD*
D14*
G04 #@! TO.P,Heater0,2*
G04 #@! TO.N,H0b*
X178308000Y-68503800D03*
D13*
G04 #@! TO.P,Heater0,1*
G04 #@! TO.N,12v*
X178308000Y-65963800D03*
G04 #@! TD*
G04 #@! TO.P,J4,1*
G04 #@! TO.N,5v0*
X193834479Y-41283047D03*
D14*
G04 #@! TO.P,J4,2*
G04 #@! TO.N,N/C*
X193834479Y-43823047D03*
G04 #@! TO.P,J4,3*
G04 #@! TO.N,sGnd*
X193834479Y-46363047D03*
G04 #@! TO.P,J4,4*
G04 #@! TO.N,scl1*
X193834479Y-48903047D03*
G04 #@! TO.P,J4,5*
G04 #@! TO.N,sda1*
X193834479Y-51443047D03*
G04 #@! TO.P,J4,6*
G04 #@! TO.N,N/C*
X193834479Y-53983047D03*
G04 #@! TO.P,J4,7*
X193834479Y-56523047D03*
G04 #@! TD*
G04 #@! TO.P,J7,7*
G04 #@! TO.N,N/C*
X213773479Y-56472247D03*
G04 #@! TO.P,J7,6*
X213773479Y-53932247D03*
G04 #@! TO.P,J7,5*
X213773479Y-51392247D03*
G04 #@! TO.P,J7,4*
X213773479Y-48852247D03*
G04 #@! TO.P,J7,3*
G04 #@! TO.N,5va*
X213773479Y-46312247D03*
G04 #@! TO.P,J7,2*
G04 #@! TO.N,N/C*
X213773479Y-43772247D03*
D13*
G04 #@! TO.P,J7,1*
G04 #@! TO.N,T0b*
X213773479Y-41232247D03*
G04 #@! TD*
D19*
G04 #@! TO.P,Q2,3*
G04 #@! TO.N,GND*
X185318400Y-71094600D03*
G04 #@! TO.P,Q2,2*
G04 #@! TO.N,H1b*
X185318400Y-68554600D03*
D18*
G04 #@! TO.P,Q2,1*
G04 #@! TO.N,Net-(Q2-Pad1)*
X185318400Y-66014600D03*
G04 #@! TD*
D12*
G04 #@! TO.P,R5,2*
G04 #@! TO.N,ledStat*
X229108000Y-44170600D03*
D11*
G04 #@! TO.P,R5,1*
G04 #@! TO.N,Net-(D1-Pad2)*
X229108000Y-51790600D03*
G04 #@! TD*
D12*
G04 #@! TO.P,R6,2*
G04 #@! TO.N,pinPWM1*
X178181000Y-52679600D03*
D11*
G04 #@! TO.P,R6,1*
G04 #@! TO.N,Net-(Q2-Pad1)*
X178181000Y-60299600D03*
G04 #@! TD*
G04 #@! TO.P,R7,1*
G04 #@! TO.N,GND*
X190068200Y-73609200D03*
D12*
G04 #@! TO.P,R7,2*
G04 #@! TO.N,Net-(Q2-Pad1)*
X190068200Y-65989200D03*
G04 #@! TD*
G04 #@! TO.P,R8,2*
G04 #@! TO.N,PinTh1*
X225628200Y-77089000D03*
D11*
G04 #@! TO.P,R8,1*
G04 #@! TO.N,5va*
X225628200Y-69469000D03*
G04 #@! TD*
D13*
G04 #@! TO.P,Led1,1*
G04 #@! TO.N,UvLed1a*
X202260200Y-76428600D03*
D14*
G04 #@! TO.P,Led1,2*
G04 #@! TO.N,T0b*
X202260200Y-73888600D03*
G04 #@! TD*
G04 #@! TO.P,Serial1,2*
G04 #@! TO.N,Rx*
X221970600Y-39471600D03*
D13*
G04 #@! TO.P,Serial1,1*
G04 #@! TO.N,Tx*
X219430600Y-39471600D03*
G04 #@! TD*
D14*
G04 #@! TO.P,J8,2*
G04 #@! TO.N,12vin*
X184708800Y-78181200D03*
D13*
G04 #@! TO.P,J8,1*
G04 #@! TO.N,GND*
X182168800Y-78181200D03*
G04 #@! TD*
D14*
G04 #@! TO.P,J9,6*
G04 #@! TO.N,SS*
X240207800Y-77698600D03*
G04 #@! TO.P,J9,5*
G04 #@! TO.N,SCK*
X240207800Y-75158600D03*
G04 #@! TO.P,J9,4*
G04 #@! TO.N,MOSI*
X240207800Y-72618600D03*
G04 #@! TO.P,J9,3*
G04 #@! TO.N,MISO*
X240207800Y-70078600D03*
G04 #@! TO.P,J9,2*
G04 #@! TO.N,5va*
X240207800Y-67538600D03*
D13*
G04 #@! TO.P,J9,1*
G04 #@! TO.N,T0b*
X240207800Y-64998600D03*
G04 #@! TD*
D21*
G04 #@! TO.P,J1,1*
G04 #@! TO.N,N/C*
X166954200Y-82778600D03*
G04 #@! TO.P,J1,2*
X169494200Y-82778600D03*
G04 #@! TO.P,J1,3*
X172034200Y-82778600D03*
G04 #@! TO.P,J1,4*
X174574200Y-82778600D03*
G04 #@! TO.P,J1,5*
X177114200Y-82778600D03*
G04 #@! TO.P,J1,6*
X179654200Y-82778600D03*
G04 #@! TO.P,J1,7*
G04 #@! TO.N,GND*
X182194200Y-82778600D03*
G04 #@! TO.P,J1,8*
G04 #@! TO.N,12vin*
X184734200Y-82778600D03*
G04 #@! TO.P,J1,9*
G04 #@! TO.N,N/C*
X189814200Y-82778600D03*
G04 #@! TO.P,J1,10*
X192354200Y-82778600D03*
G04 #@! TO.P,J1,11*
X194894200Y-82778600D03*
G04 #@! TO.P,J1,12*
X197434200Y-82778600D03*
G04 #@! TO.P,J1,13*
X199974200Y-82778600D03*
G04 #@! TO.P,J1,14*
G04 #@! TO.N,PinLed0*
X202514200Y-82778600D03*
G04 #@! TO.P,J1,15*
G04 #@! TO.N,N/C*
X205054200Y-82778600D03*
G04 #@! TO.P,J1,16*
G04 #@! TO.N,PinLed1*
X207594200Y-82778600D03*
G04 #@! TO.P,J1,17*
G04 #@! TO.N,PinTh0*
X212674200Y-82778600D03*
G04 #@! TO.P,J1,18*
G04 #@! TO.N,N/C*
X215214200Y-82778600D03*
G04 #@! TO.P,J1,19*
G04 #@! TO.N,PinTh1*
X217754200Y-82778600D03*
D22*
G04 #@! TO.P,J1,20*
G04 #@! TO.N,N/C*
X220294200Y-82778600D03*
G04 #@! TO.P,J1,21*
X222834200Y-82778600D03*
G04 #@! TO.P,J1,22*
X225374200Y-82778600D03*
G04 #@! TO.P,J1,23*
X227914200Y-82778600D03*
G04 #@! TO.P,J1,24*
X230454200Y-82778600D03*
D23*
G04 #@! TO.P,J1,25*
G04 #@! TO.N,T0b*
X232745280Y-77698600D03*
G04 #@! TO.P,J1,26*
G04 #@! TO.N,SCK*
X232745280Y-75158600D03*
G04 #@! TO.P,J1,27*
G04 #@! TO.N,MISO*
X232745280Y-72618600D03*
G04 #@! TO.P,J1,40*
G04 #@! TO.N,sw*
X232745280Y-39598600D03*
G04 #@! TO.P,J1,41*
G04 #@! TO.N,ledStat*
X232745280Y-37058600D03*
G04 #@! TO.P,J1,42*
G04 #@! TO.N,5va*
X232745280Y-34518600D03*
D24*
G04 #@! TO.P,J1,43*
G04 #@! TO.N,T0b*
X235780580Y-77698600D03*
G04 #@! TO.P,J1,44*
G04 #@! TO.N,SS*
X235780580Y-75158600D03*
G04 #@! TO.P,J1,45*
G04 #@! TO.N,MOSI*
X235780580Y-72618600D03*
G04 #@! TO.P,J1,60*
G04 #@! TO.N,5va*
X235780580Y-34518600D03*
D22*
G04 #@! TO.P,J1,61*
G04 #@! TO.N,N/C*
X225374200Y-34518600D03*
G04 #@! TO.P,J1,62*
X222834200Y-34518600D03*
G04 #@! TO.P,J1,63*
G04 #@! TO.N,Rx*
X220294200Y-34518600D03*
G04 #@! TO.P,J1,64*
G04 #@! TO.N,Tx*
X217754200Y-34518600D03*
G04 #@! TO.P,J1,65*
G04 #@! TO.N,N/C*
X215214200Y-34518600D03*
G04 #@! TO.P,J1,66*
X212674200Y-34518600D03*
G04 #@! TO.P,J1,67*
G04 #@! TO.N,sda1*
X210134200Y-34518600D03*
G04 #@! TO.P,J1,68*
G04 #@! TO.N,scl1*
X207594200Y-34518600D03*
G04 #@! TO.P,J1,69*
G04 #@! TO.N,N/C*
X202514200Y-34518600D03*
G04 #@! TO.P,J1,70*
X199974200Y-34518600D03*
G04 #@! TO.P,J1,71*
X197434200Y-34518600D03*
G04 #@! TO.P,J1,72*
X194894200Y-34518600D03*
G04 #@! TO.P,J1,73*
X192354200Y-34518600D03*
G04 #@! TO.P,J1,74*
X189814200Y-34518600D03*
G04 #@! TO.P,J1,75*
X187274200Y-34518600D03*
G04 #@! TO.P,J1,76*
X184734200Y-34518600D03*
G04 #@! TO.P,J1,77*
G04 #@! TO.N,pinPWM1*
X180670200Y-34518600D03*
G04 #@! TO.P,J1,78*
G04 #@! TO.N,pinPWM0*
X178130200Y-34518600D03*
G04 #@! TO.P,J1,79*
G04 #@! TO.N,N/C*
X175590200Y-34518600D03*
G04 #@! TO.P,J1,80*
G04 #@! TO.N,sda0*
X173050200Y-34518600D03*
G04 #@! TO.P,J1,81*
G04 #@! TO.N,scl0*
X170510200Y-34518600D03*
G04 #@! TO.P,J1,82*
G04 #@! TO.N,N/C*
X167970200Y-34518600D03*
G04 #@! TO.P,J1,83*
X165430200Y-34518600D03*
G04 #@! TO.P,J1,84*
X162890200Y-34518600D03*
G04 #@! TO.P,J1,85*
X160350200Y-34518600D03*
G04 #@! TO.P,J1,86*
X157810200Y-34518600D03*
G04 #@! TD*
D25*
G04 #@! TO.N,T0b*
X222910400Y-53141200D02*
X224536000Y-54766800D01*
X222910400Y-50241200D02*
X222910400Y-53141200D01*
X224536000Y-57944000D02*
X227632400Y-61040400D01*
X224536000Y-54766800D02*
X224536000Y-57944000D01*
X235534200Y-77698600D02*
X233492408Y-77698600D01*
X232269933Y-77698600D02*
X232193733Y-77622400D01*
X232994200Y-77698600D02*
X232269933Y-77698600D01*
X232193733Y-77622400D02*
X230936800Y-77622400D01*
X228590208Y-75275808D02*
X228955600Y-75641200D01*
X228590208Y-61998208D02*
X228590208Y-75275808D01*
X227632400Y-61040400D02*
X228590208Y-61998208D01*
X230936800Y-77622400D02*
X228955600Y-75641200D01*
X227863400Y-74549000D02*
X228955600Y-75641200D01*
X215976200Y-74549000D02*
X227863400Y-74549000D01*
X226788882Y-74549000D02*
X227863400Y-74549000D01*
X219346682Y-67106800D02*
X226788882Y-74549000D01*
X215925400Y-67106800D02*
X219346682Y-67106800D01*
X213279477Y-41232247D02*
X213236724Y-41275000D01*
X213773479Y-41232247D02*
X213279477Y-41232247D01*
X213236724Y-41275000D02*
X211683600Y-41275000D01*
X211683600Y-41275000D02*
X210591400Y-42367200D01*
X210591400Y-58351518D02*
X219346682Y-67106800D01*
X210591400Y-42367200D02*
X210591400Y-58351518D01*
X201058119Y-65125600D02*
X202260200Y-65125600D01*
X200060190Y-66123529D02*
X201058119Y-65125600D01*
X200060190Y-71688590D02*
X200060190Y-66123529D01*
X202260200Y-73888600D02*
X200060190Y-71688590D01*
X209034282Y-58351518D02*
X210591400Y-58351518D01*
X202260200Y-65125600D02*
X209034282Y-58351518D01*
G04 #@! TO.N,12v*
X155872878Y-68598478D02*
X155702000Y-68427600D01*
X155872878Y-75859013D02*
X155872878Y-68598478D01*
X193832600Y-61671200D02*
X195326000Y-63164600D01*
X184048400Y-61671200D02*
X193832600Y-61671200D01*
X155702000Y-68427600D02*
X155702000Y-65627600D01*
X155702000Y-65627600D02*
X160445800Y-60883800D01*
X160445800Y-60883800D02*
X167767000Y-60883800D01*
X167767000Y-60883800D02*
X171627800Y-57023000D01*
X195326000Y-63164600D02*
X195326000Y-66014600D01*
X179400200Y-57023000D02*
X184048400Y-61671200D01*
X175590200Y-57099200D02*
X175514000Y-57023000D01*
X175590200Y-63246000D02*
X175590200Y-57099200D01*
X178308000Y-65963800D02*
X175590200Y-63246000D01*
X171627800Y-57023000D02*
X175514000Y-57023000D01*
X175514000Y-57023000D02*
X179400200Y-57023000D01*
G04 #@! TO.N,Net-(Q1-Pad1)*
X172643800Y-60299600D02*
X172643800Y-63144400D01*
X170019741Y-65768459D02*
X172643800Y-63144400D01*
X168009829Y-65768459D02*
X170019741Y-65768459D01*
G04 #@! TO.N,Net-(D1-Pad2)*
X227558600Y-50241200D02*
X229108000Y-51790600D01*
X225450400Y-50241200D02*
X227558600Y-50241200D01*
G04 #@! TO.N,H0b*
X168009829Y-68308459D02*
X178112659Y-68308459D01*
G04 #@! TO.N,H1b*
X185318400Y-68554600D02*
X195326000Y-68554600D01*
G04 #@! TO.N,PinTh0*
X218775400Y-69646800D02*
X221477590Y-72348990D01*
X215925400Y-69646800D02*
X218775400Y-69646800D01*
X212674200Y-72898000D02*
X215925400Y-69646800D01*
X212674200Y-82778600D02*
X212674200Y-72898000D01*
G04 #@! TO.N,PinTh1*
X215976200Y-77089000D02*
X225374200Y-77089000D01*
X217754200Y-78867000D02*
X215976200Y-77089000D01*
X217754200Y-82778600D02*
X217754200Y-78867000D01*
X225628200Y-77089000D02*
X225374200Y-77089000D01*
G04 #@! TO.N,PinLed1*
X207594200Y-79730600D02*
X209854800Y-77470000D01*
X207594200Y-82778600D02*
X207594200Y-79730600D01*
G04 #@! TO.N,T0b*
X234357408Y-61998208D02*
X228590208Y-61998208D01*
X237357800Y-64998600D02*
X234357408Y-61998208D01*
X240207800Y-64998600D02*
X237357800Y-64998600D01*
G04 #@! TO.N,pinPWM1*
X180670200Y-50190400D02*
X178181000Y-52679600D01*
X180670200Y-34518600D02*
X180670200Y-50190400D01*
G04 #@! TO.N,ledStat*
X232269933Y-37058600D02*
X232244533Y-37033200D01*
X232994200Y-37058600D02*
X232269933Y-37058600D01*
X232244533Y-37033200D02*
X231419400Y-37033200D01*
X229108000Y-39344600D02*
X229108000Y-44170600D01*
X231419400Y-37033200D02*
X229108000Y-39344600D01*
G04 #@! TO.N,sw*
X229334200Y-54838600D02*
X227632400Y-56540400D01*
X232994200Y-51015682D02*
X232994200Y-39598600D01*
X229334200Y-54675682D02*
X232994200Y-51015682D01*
X229334200Y-54838600D02*
X229334200Y-54675682D01*
G04 #@! TO.N,scl1*
X207594200Y-37617150D02*
X207594200Y-34518600D01*
X196308303Y-48903047D02*
X207594200Y-37617150D01*
X193834479Y-48903047D02*
X196308303Y-48903047D01*
G04 #@! TO.N,sda1*
X210134200Y-37617150D02*
X210134200Y-34518600D01*
X210134200Y-38188432D02*
X210134200Y-37617150D01*
X196879585Y-51443047D02*
X210134200Y-38188432D01*
X193834479Y-51443047D02*
X196879585Y-51443047D01*
G04 #@! TO.N,Rx*
X221970600Y-39471600D02*
X221970600Y-37515800D01*
X220294200Y-35839400D02*
X221970600Y-37515800D01*
X220294200Y-34518600D02*
X220294200Y-35839400D01*
G04 #@! TO.N,Tx*
X217754200Y-37795200D02*
X219430600Y-39471600D01*
X217754200Y-34518600D02*
X217754200Y-37795200D01*
G04 #@! TO.N,PinLed0*
X202514200Y-81254600D02*
X206400400Y-77368400D01*
X202514200Y-82778600D02*
X202514200Y-81254600D01*
G04 #@! TO.N,pinPWM0*
X178130200Y-47193200D02*
X172643800Y-52679600D01*
X178130200Y-34518600D02*
X178130200Y-47193200D01*
G04 #@! TO.N,sda0*
X173050200Y-37617150D02*
X173050200Y-34518600D01*
X173050200Y-46532366D02*
X173050200Y-37617150D01*
X168020566Y-51562000D02*
X173050200Y-46532366D01*
X164998400Y-51562000D02*
X168020566Y-51562000D01*
G04 #@! TO.N,scl0*
X164973000Y-48996600D02*
X164998400Y-49022000D01*
X170510200Y-37617150D02*
X170510200Y-34518600D01*
X170510200Y-45961083D02*
X170510200Y-37617150D01*
X167449283Y-49022000D02*
X170510200Y-45961083D01*
X164998400Y-49022000D02*
X167449283Y-49022000D01*
G04 #@! TO.N,UvLed0a*
X202260200Y-67665600D02*
X202387200Y-67665600D01*
X204317600Y-67665600D02*
X206400400Y-69748400D01*
X202260200Y-67665600D02*
X204317600Y-67665600D01*
G04 #@! TO.N,UvLed1a*
X203276200Y-76428600D02*
X209854800Y-69850000D01*
X202260200Y-76428600D02*
X203276200Y-76428600D01*
G04 #@! TO.N,Net-(Q2-Pad1)*
X190042800Y-66014600D02*
X190068200Y-65989200D01*
X185318400Y-66014600D02*
X190042800Y-66014600D01*
X183896000Y-66014600D02*
X185318400Y-66014600D01*
X178181000Y-60299600D02*
X183896000Y-66014600D01*
G04 #@! TO.N,GND*
X187553600Y-71094600D02*
X190068200Y-73609200D01*
X185318400Y-71094600D02*
X187553600Y-71094600D01*
X185318400Y-71094600D02*
X186591192Y-71094600D01*
X158412878Y-69516722D02*
X159502000Y-68427600D01*
X158412878Y-75859013D02*
X158412878Y-69516722D01*
X168009829Y-70848459D02*
X171838859Y-70848459D01*
X171922918Y-70764400D02*
X171838859Y-70848459D01*
X172643800Y-70764400D02*
X171922918Y-70764400D01*
X159502000Y-68427600D02*
X163398200Y-68427600D01*
X165819059Y-70848459D02*
X168009829Y-70848459D01*
X163398200Y-68427600D02*
X165819059Y-70848459D01*
X184988200Y-70764400D02*
X185318400Y-71094600D01*
X182194200Y-78206600D02*
X182168800Y-78181200D01*
X182194200Y-82778600D02*
X182194200Y-78206600D01*
X181737000Y-74899400D02*
X181737000Y-70764400D01*
X182168800Y-75331200D02*
X181737000Y-74899400D01*
X182168800Y-78181200D02*
X182168800Y-75331200D01*
X172643800Y-70764400D02*
X181737000Y-70764400D01*
X181737000Y-70764400D02*
X184988200Y-70764400D01*
G04 #@! TO.N,12vin*
X184708800Y-82753200D02*
X184734200Y-82778600D01*
X184708800Y-78181200D02*
X184708800Y-82753200D01*
G04 #@! TO.N,uCgnd*
X158765588Y-47318916D02*
X158907988Y-47176516D01*
X158765588Y-55253716D02*
X158765588Y-47318916D01*
X159707987Y-46376517D02*
X162055883Y-46376517D01*
X158907988Y-47176516D02*
X159707987Y-46376517D01*
X162161366Y-46482000D02*
X164677992Y-46482000D01*
X162055883Y-46376517D02*
X162161366Y-46482000D01*
G04 #@! TO.N,5va*
X214975560Y-46312247D02*
X214992913Y-46329600D01*
X213773479Y-46312247D02*
X214975560Y-46312247D01*
X216154000Y-46329600D02*
X217957400Y-48133000D01*
X214992913Y-46329600D02*
X216154000Y-46329600D01*
X217957400Y-61264800D02*
X217932000Y-61290200D01*
X217957400Y-48133000D02*
X217957400Y-61264800D01*
X217932000Y-61290200D02*
X217982800Y-61290200D01*
X221665800Y-64922400D02*
X226034600Y-69291200D01*
X225806000Y-69291200D02*
X225628200Y-69469000D01*
X226034600Y-69291200D02*
X225806000Y-69291200D01*
X217932000Y-62178549D02*
X217932000Y-61290200D01*
X220675851Y-64922400D02*
X217932000Y-62178549D01*
X221665800Y-64922400D02*
X220675851Y-64922400D01*
X235534200Y-34518600D02*
X234944780Y-34518600D01*
X232994200Y-34518600D02*
X235534200Y-34518600D01*
X217957400Y-48133000D02*
X218236800Y-48133000D01*
X218236800Y-48133000D02*
X225983800Y-40386000D01*
X225983800Y-40386000D02*
X225983800Y-38531800D01*
X229997000Y-34518600D02*
X232994200Y-34518600D01*
X225983800Y-38531800D02*
X229997000Y-34518600D01*
X235534200Y-34518600D02*
X235534200Y-55422800D01*
X241409881Y-67538600D02*
X240207800Y-67538600D01*
X242407810Y-66540671D02*
X241409881Y-67538600D01*
X242407810Y-62296410D02*
X242407810Y-66540671D01*
X235534200Y-55422800D02*
X242407810Y-62296410D01*
G04 #@! TO.N,5v0*
X188217724Y-46405800D02*
X189763400Y-44860124D01*
X184912000Y-46405800D02*
X188217724Y-46405800D01*
X189763400Y-44860124D02*
X189763400Y-42494200D01*
X190974553Y-41283047D02*
X193834479Y-41283047D01*
X189763400Y-42494200D02*
X190974553Y-41283047D01*
G04 #@! TO.N,sGnd*
X187762000Y-41325800D02*
X190505200Y-38582600D01*
X184912000Y-41325800D02*
X187762000Y-41325800D01*
X195036560Y-46363047D02*
X193834479Y-46363047D01*
X196034489Y-45365118D02*
X195036560Y-46363047D01*
X196034489Y-39623055D02*
X196034489Y-45365118D01*
X194994034Y-38582600D02*
X196034489Y-39623055D01*
X190505200Y-38582600D02*
X194994034Y-38582600D01*
G04 #@! TO.N,5vCap*
X156225588Y-48294116D02*
X155107988Y-47176516D01*
X156225588Y-55253716D02*
X156225588Y-48294116D01*
X160882504Y-41402000D02*
X164998400Y-41402000D01*
X155107988Y-47176516D02*
X160882504Y-41402000D01*
D26*
G04 #@! TO.N,SCK*
X239357801Y-74308601D02*
X240207800Y-75158600D01*
X238886160Y-73836960D02*
X239357801Y-74308601D01*
X234315840Y-73836960D02*
X238886160Y-73836960D01*
X232994200Y-75158600D02*
X234315840Y-73836960D01*
G04 #@! TO.N,MISO*
X232994200Y-72618600D02*
X232994200Y-72263000D01*
X235178600Y-70078600D02*
X240207800Y-70078600D01*
X232994200Y-72263000D02*
X235178600Y-70078600D01*
G04 #@! TO.N,MOSI*
X235534200Y-72618600D02*
X240207800Y-72618600D01*
G04 #@! TO.N,SS*
X235534200Y-75158600D02*
X236397800Y-75158600D01*
X238937800Y-77698600D02*
X240207800Y-77698600D01*
X236397800Y-75158600D02*
X238937800Y-77698600D01*
G04 #@! TD*
M02*
