(kicad_pcb (version 20171130) (host pcbnew "(5.0.1)-3")

  (general
    (thickness 1.6)
    (drawings 4)
    (tracks 100)
    (zones 0)
    (modules 20)
    (nets 16)
  )

  (page A4)
  (layers
    (0 F.Cu signal)
    (31 B.Cu signal)
    (32 B.Adhes user)
    (33 F.Adhes user)
    (34 B.Paste user)
    (35 F.Paste user)
    (36 B.SilkS user)
    (37 F.SilkS user)
    (38 B.Mask user)
    (39 F.Mask user)
    (40 Dwgs.User user)
    (41 Cmts.User user)
    (42 Eco1.User user)
    (43 Eco2.User user)
    (44 Edge.Cuts user)
    (45 Margin user)
    (46 B.CrtYd user)
    (47 F.CrtYd user)
    (48 B.Fab user)
    (49 F.Fab user)
  )

  (setup
    (last_trace_width 2)
    (trace_clearance 0.2)
    (zone_clearance 0.508)
    (zone_45_only no)
    (trace_min 0.2)
    (segment_width 0.2)
    (edge_width 0.15)
    (via_size 0.6)
    (via_drill 0.4)
    (via_min_size 0.4)
    (via_min_drill 0.3)
    (uvia_size 0.3)
    (uvia_drill 0.1)
    (uvias_allowed no)
    (uvia_min_size 0.2)
    (uvia_min_drill 0.1)
    (pcb_text_width 0.3)
    (pcb_text_size 1.5 1.5)
    (mod_edge_width 0.15)
    (mod_text_size 1 1)
    (mod_text_width 0.15)
    (pad_size 1.524 1.524)
    (pad_drill 0.762)
    (pad_to_mask_clearance 0.2)
    (solder_mask_min_width 0.25)
    (aux_axis_origin 0 0)
    (visible_elements 7FFFFFFF)
    (pcbplotparams
      (layerselection 0x00000_fffffffe)
      (usegerberextensions false)
      (usegerberattributes false)
      (usegerberadvancedattributes false)
      (creategerberjobfile false)
      (excludeedgelayer false)
      (linewidth 0.100000)
      (plotframeref false)
      (viasonmask false)
      (mode 1)
      (useauxorigin false)
      (hpglpennumber 1)
      (hpglpenspeed 20)
      (hpglpendiameter 15.000000)
      (psnegative false)
      (psa4output false)
      (plotreference false)
      (plotvalue false)
      (plotinvisibletext false)
      (padsonsilk true)
      (subtractmaskfromsilk false)
      (outputformat 1)
      (mirror false)
      (drillshape 0)
      (scaleselection 1)
      (outputdirectory ""))
  )

  (net 0 "")
  (net 1 T0b)
  (net 2 12v)
  (net 3 5v)
  (net 4 S3)
  (net 5 S2)
  (net 6 out)
  (net 7 T0a)
  (net 8 Hb)
  (net 9 UvLedA)
  (net 10 S1)
  (net 11 S0)
  (net 12 "Net-(Q1-Pad1)")
  (net 13 OE)
  (net 14 pwm0)
  (net 15 "Net-(J5-Pad3)")

  (net_class Default "Esta es la clase de red por defecto."
    (clearance 0.2)
    (trace_width 2)
    (via_dia 0.6)
    (via_drill 0.4)
    (uvia_dia 0.3)
    (uvia_drill 0.1)
    (add_net 12v)
    (add_net 5v)
    (add_net Hb)
    (add_net "Net-(J5-Pad3)")
    (add_net "Net-(Q1-Pad1)")
    (add_net OE)
    (add_net S0)
    (add_net S1)
    (add_net S2)
    (add_net S3)
    (add_net T0a)
    (add_net T0b)
    (add_net UvLedA)
    (add_net out)
    (add_net pwm0)
  )

  (module Capacitors_THT:CP_Radial_D8.0mm_P3.80mm (layer F.Cu) (tedit 597BC7C2) (tstamp 5C36CF35)
    (at 128.143 50.4444 180)
    (descr "CP, Radial series, Radial, pin pitch=3.80mm, , diameter=8mm, Electrolytic Capacitor")
    (tags "CP Radial series Radial pin pitch 3.80mm  diameter 8mm Electrolytic Capacitor")
    (path /5C37439A)
    (fp_text reference C2 (at 1.9 -5.31 180) (layer F.SilkS)
      (effects (font (size 1 1) (thickness 0.15)))
    )
    (fp_text value CP (at 1.9 5.31 180) (layer F.Fab)
      (effects (font (size 1 1) (thickness 0.15)))
    )
    (fp_circle (center 1.9 0) (end 5.9 0) (layer F.Fab) (width 0.1))
    (fp_circle (center 1.9 0) (end 5.99 0) (layer F.SilkS) (width 0.12))
    (fp_line (start -2.2 0) (end -1 0) (layer F.Fab) (width 0.1))
    (fp_line (start -1.6 -0.65) (end -1.6 0.65) (layer F.Fab) (width 0.1))
    (fp_line (start 1.9 -4.05) (end 1.9 4.05) (layer F.SilkS) (width 0.12))
    (fp_line (start 1.94 -4.05) (end 1.94 4.05) (layer F.SilkS) (width 0.12))
    (fp_line (start 1.98 -4.05) (end 1.98 4.05) (layer F.SilkS) (width 0.12))
    (fp_line (start 2.02 -4.049) (end 2.02 4.049) (layer F.SilkS) (width 0.12))
    (fp_line (start 2.06 -4.047) (end 2.06 4.047) (layer F.SilkS) (width 0.12))
    (fp_line (start 2.1 -4.046) (end 2.1 4.046) (layer F.SilkS) (width 0.12))
    (fp_line (start 2.14 -4.043) (end 2.14 4.043) (layer F.SilkS) (width 0.12))
    (fp_line (start 2.18 -4.041) (end 2.18 4.041) (layer F.SilkS) (width 0.12))
    (fp_line (start 2.22 -4.038) (end 2.22 4.038) (layer F.SilkS) (width 0.12))
    (fp_line (start 2.26 -4.035) (end 2.26 4.035) (layer F.SilkS) (width 0.12))
    (fp_line (start 2.3 -4.031) (end 2.3 4.031) (layer F.SilkS) (width 0.12))
    (fp_line (start 2.34 -4.027) (end 2.34 4.027) (layer F.SilkS) (width 0.12))
    (fp_line (start 2.38 -4.022) (end 2.38 4.022) (layer F.SilkS) (width 0.12))
    (fp_line (start 2.42 -4.017) (end 2.42 4.017) (layer F.SilkS) (width 0.12))
    (fp_line (start 2.46 -4.012) (end 2.46 4.012) (layer F.SilkS) (width 0.12))
    (fp_line (start 2.5 -4.006) (end 2.5 4.006) (layer F.SilkS) (width 0.12))
    (fp_line (start 2.54 -4) (end 2.54 4) (layer F.SilkS) (width 0.12))
    (fp_line (start 2.58 -3.994) (end 2.58 3.994) (layer F.SilkS) (width 0.12))
    (fp_line (start 2.621 -3.987) (end 2.621 3.987) (layer F.SilkS) (width 0.12))
    (fp_line (start 2.661 -3.979) (end 2.661 3.979) (layer F.SilkS) (width 0.12))
    (fp_line (start 2.701 -3.971) (end 2.701 3.971) (layer F.SilkS) (width 0.12))
    (fp_line (start 2.741 -3.963) (end 2.741 3.963) (layer F.SilkS) (width 0.12))
    (fp_line (start 2.781 -3.955) (end 2.781 3.955) (layer F.SilkS) (width 0.12))
    (fp_line (start 2.821 -3.946) (end 2.821 -0.98) (layer F.SilkS) (width 0.12))
    (fp_line (start 2.821 0.98) (end 2.821 3.946) (layer F.SilkS) (width 0.12))
    (fp_line (start 2.861 -3.936) (end 2.861 -0.98) (layer F.SilkS) (width 0.12))
    (fp_line (start 2.861 0.98) (end 2.861 3.936) (layer F.SilkS) (width 0.12))
    (fp_line (start 2.901 -3.926) (end 2.901 -0.98) (layer F.SilkS) (width 0.12))
    (fp_line (start 2.901 0.98) (end 2.901 3.926) (layer F.SilkS) (width 0.12))
    (fp_line (start 2.941 -3.916) (end 2.941 -0.98) (layer F.SilkS) (width 0.12))
    (fp_line (start 2.941 0.98) (end 2.941 3.916) (layer F.SilkS) (width 0.12))
    (fp_line (start 2.981 -3.905) (end 2.981 -0.98) (layer F.SilkS) (width 0.12))
    (fp_line (start 2.981 0.98) (end 2.981 3.905) (layer F.SilkS) (width 0.12))
    (fp_line (start 3.021 -3.894) (end 3.021 -0.98) (layer F.SilkS) (width 0.12))
    (fp_line (start 3.021 0.98) (end 3.021 3.894) (layer F.SilkS) (width 0.12))
    (fp_line (start 3.061 -3.883) (end 3.061 -0.98) (layer F.SilkS) (width 0.12))
    (fp_line (start 3.061 0.98) (end 3.061 3.883) (layer F.SilkS) (width 0.12))
    (fp_line (start 3.101 -3.87) (end 3.101 -0.98) (layer F.SilkS) (width 0.12))
    (fp_line (start 3.101 0.98) (end 3.101 3.87) (layer F.SilkS) (width 0.12))
    (fp_line (start 3.141 -3.858) (end 3.141 -0.98) (layer F.SilkS) (width 0.12))
    (fp_line (start 3.141 0.98) (end 3.141 3.858) (layer F.SilkS) (width 0.12))
    (fp_line (start 3.181 -3.845) (end 3.181 -0.98) (layer F.SilkS) (width 0.12))
    (fp_line (start 3.181 0.98) (end 3.181 3.845) (layer F.SilkS) (width 0.12))
    (fp_line (start 3.221 -3.832) (end 3.221 -0.98) (layer F.SilkS) (width 0.12))
    (fp_line (start 3.221 0.98) (end 3.221 3.832) (layer F.SilkS) (width 0.12))
    (fp_line (start 3.261 -3.818) (end 3.261 -0.98) (layer F.SilkS) (width 0.12))
    (fp_line (start 3.261 0.98) (end 3.261 3.818) (layer F.SilkS) (width 0.12))
    (fp_line (start 3.301 -3.803) (end 3.301 -0.98) (layer F.SilkS) (width 0.12))
    (fp_line (start 3.301 0.98) (end 3.301 3.803) (layer F.SilkS) (width 0.12))
    (fp_line (start 3.341 -3.789) (end 3.341 -0.98) (layer F.SilkS) (width 0.12))
    (fp_line (start 3.341 0.98) (end 3.341 3.789) (layer F.SilkS) (width 0.12))
    (fp_line (start 3.381 -3.773) (end 3.381 -0.98) (layer F.SilkS) (width 0.12))
    (fp_line (start 3.381 0.98) (end 3.381 3.773) (layer F.SilkS) (width 0.12))
    (fp_line (start 3.421 -3.758) (end 3.421 -0.98) (layer F.SilkS) (width 0.12))
    (fp_line (start 3.421 0.98) (end 3.421 3.758) (layer F.SilkS) (width 0.12))
    (fp_line (start 3.461 -3.741) (end 3.461 -0.98) (layer F.SilkS) (width 0.12))
    (fp_line (start 3.461 0.98) (end 3.461 3.741) (layer F.SilkS) (width 0.12))
    (fp_line (start 3.501 -3.725) (end 3.501 -0.98) (layer F.SilkS) (width 0.12))
    (fp_line (start 3.501 0.98) (end 3.501 3.725) (layer F.SilkS) (width 0.12))
    (fp_line (start 3.541 -3.707) (end 3.541 -0.98) (layer F.SilkS) (width 0.12))
    (fp_line (start 3.541 0.98) (end 3.541 3.707) (layer F.SilkS) (width 0.12))
    (fp_line (start 3.581 -3.69) (end 3.581 -0.98) (layer F.SilkS) (width 0.12))
    (fp_line (start 3.581 0.98) (end 3.581 3.69) (layer F.SilkS) (width 0.12))
    (fp_line (start 3.621 -3.671) (end 3.621 -0.98) (layer F.SilkS) (width 0.12))
    (fp_line (start 3.621 0.98) (end 3.621 3.671) (layer F.SilkS) (width 0.12))
    (fp_line (start 3.661 -3.652) (end 3.661 -0.98) (layer F.SilkS) (width 0.12))
    (fp_line (start 3.661 0.98) (end 3.661 3.652) (layer F.SilkS) (width 0.12))
    (fp_line (start 3.701 -3.633) (end 3.701 -0.98) (layer F.SilkS) (width 0.12))
    (fp_line (start 3.701 0.98) (end 3.701 3.633) (layer F.SilkS) (width 0.12))
    (fp_line (start 3.741 -3.613) (end 3.741 -0.98) (layer F.SilkS) (width 0.12))
    (fp_line (start 3.741 0.98) (end 3.741 3.613) (layer F.SilkS) (width 0.12))
    (fp_line (start 3.781 -3.593) (end 3.781 -0.98) (layer F.SilkS) (width 0.12))
    (fp_line (start 3.781 0.98) (end 3.781 3.593) (layer F.SilkS) (width 0.12))
    (fp_line (start 3.821 -3.572) (end 3.821 -0.98) (layer F.SilkS) (width 0.12))
    (fp_line (start 3.821 0.98) (end 3.821 3.572) (layer F.SilkS) (width 0.12))
    (fp_line (start 3.861 -3.55) (end 3.861 -0.98) (layer F.SilkS) (width 0.12))
    (fp_line (start 3.861 0.98) (end 3.861 3.55) (layer F.SilkS) (width 0.12))
    (fp_line (start 3.901 -3.528) (end 3.901 -0.98) (layer F.SilkS) (width 0.12))
    (fp_line (start 3.901 0.98) (end 3.901 3.528) (layer F.SilkS) (width 0.12))
    (fp_line (start 3.941 -3.505) (end 3.941 -0.98) (layer F.SilkS) (width 0.12))
    (fp_line (start 3.941 0.98) (end 3.941 3.505) (layer F.SilkS) (width 0.12))
    (fp_line (start 3.981 -3.482) (end 3.981 -0.98) (layer F.SilkS) (width 0.12))
    (fp_line (start 3.981 0.98) (end 3.981 3.482) (layer F.SilkS) (width 0.12))
    (fp_line (start 4.021 -3.458) (end 4.021 -0.98) (layer F.SilkS) (width 0.12))
    (fp_line (start 4.021 0.98) (end 4.021 3.458) (layer F.SilkS) (width 0.12))
    (fp_line (start 4.061 -3.434) (end 4.061 -0.98) (layer F.SilkS) (width 0.12))
    (fp_line (start 4.061 0.98) (end 4.061 3.434) (layer F.SilkS) (width 0.12))
    (fp_line (start 4.101 -3.408) (end 4.101 -0.98) (layer F.SilkS) (width 0.12))
    (fp_line (start 4.101 0.98) (end 4.101 3.408) (layer F.SilkS) (width 0.12))
    (fp_line (start 4.141 -3.383) (end 4.141 -0.98) (layer F.SilkS) (width 0.12))
    (fp_line (start 4.141 0.98) (end 4.141 3.383) (layer F.SilkS) (width 0.12))
    (fp_line (start 4.181 -3.356) (end 4.181 -0.98) (layer F.SilkS) (width 0.12))
    (fp_line (start 4.181 0.98) (end 4.181 3.356) (layer F.SilkS) (width 0.12))
    (fp_line (start 4.221 -3.329) (end 4.221 -0.98) (layer F.SilkS) (width 0.12))
    (fp_line (start 4.221 0.98) (end 4.221 3.329) (layer F.SilkS) (width 0.12))
    (fp_line (start 4.261 -3.301) (end 4.261 -0.98) (layer F.SilkS) (width 0.12))
    (fp_line (start 4.261 0.98) (end 4.261 3.301) (layer F.SilkS) (width 0.12))
    (fp_line (start 4.301 -3.272) (end 4.301 -0.98) (layer F.SilkS) (width 0.12))
    (fp_line (start 4.301 0.98) (end 4.301 3.272) (layer F.SilkS) (width 0.12))
    (fp_line (start 4.341 -3.243) (end 4.341 -0.98) (layer F.SilkS) (width 0.12))
    (fp_line (start 4.341 0.98) (end 4.341 3.243) (layer F.SilkS) (width 0.12))
    (fp_line (start 4.381 -3.213) (end 4.381 -0.98) (layer F.SilkS) (width 0.12))
    (fp_line (start 4.381 0.98) (end 4.381 3.213) (layer F.SilkS) (width 0.12))
    (fp_line (start 4.421 -3.182) (end 4.421 -0.98) (layer F.SilkS) (width 0.12))
    (fp_line (start 4.421 0.98) (end 4.421 3.182) (layer F.SilkS) (width 0.12))
    (fp_line (start 4.461 -3.15) (end 4.461 -0.98) (layer F.SilkS) (width 0.12))
    (fp_line (start 4.461 0.98) (end 4.461 3.15) (layer F.SilkS) (width 0.12))
    (fp_line (start 4.501 -3.118) (end 4.501 -0.98) (layer F.SilkS) (width 0.12))
    (fp_line (start 4.501 0.98) (end 4.501 3.118) (layer F.SilkS) (width 0.12))
    (fp_line (start 4.541 -3.084) (end 4.541 -0.98) (layer F.SilkS) (width 0.12))
    (fp_line (start 4.541 0.98) (end 4.541 3.084) (layer F.SilkS) (width 0.12))
    (fp_line (start 4.581 -3.05) (end 4.581 -0.98) (layer F.SilkS) (width 0.12))
    (fp_line (start 4.581 0.98) (end 4.581 3.05) (layer F.SilkS) (width 0.12))
    (fp_line (start 4.621 -3.015) (end 4.621 -0.98) (layer F.SilkS) (width 0.12))
    (fp_line (start 4.621 0.98) (end 4.621 3.015) (layer F.SilkS) (width 0.12))
    (fp_line (start 4.661 -2.979) (end 4.661 -0.98) (layer F.SilkS) (width 0.12))
    (fp_line (start 4.661 0.98) (end 4.661 2.979) (layer F.SilkS) (width 0.12))
    (fp_line (start 4.701 -2.942) (end 4.701 -0.98) (layer F.SilkS) (width 0.12))
    (fp_line (start 4.701 0.98) (end 4.701 2.942) (layer F.SilkS) (width 0.12))
    (fp_line (start 4.741 -2.904) (end 4.741 -0.98) (layer F.SilkS) (width 0.12))
    (fp_line (start 4.741 0.98) (end 4.741 2.904) (layer F.SilkS) (width 0.12))
    (fp_line (start 4.781 -2.865) (end 4.781 2.865) (layer F.SilkS) (width 0.12))
    (fp_line (start 4.821 -2.824) (end 4.821 2.824) (layer F.SilkS) (width 0.12))
    (fp_line (start 4.861 -2.783) (end 4.861 2.783) (layer F.SilkS) (width 0.12))
    (fp_line (start 4.901 -2.74) (end 4.901 2.74) (layer F.SilkS) (width 0.12))
    (fp_line (start 4.941 -2.697) (end 4.941 2.697) (layer F.SilkS) (width 0.12))
    (fp_line (start 4.981 -2.652) (end 4.981 2.652) (layer F.SilkS) (width 0.12))
    (fp_line (start 5.021 -2.605) (end 5.021 2.605) (layer F.SilkS) (width 0.12))
    (fp_line (start 5.061 -2.557) (end 5.061 2.557) (layer F.SilkS) (width 0.12))
    (fp_line (start 5.101 -2.508) (end 5.101 2.508) (layer F.SilkS) (width 0.12))
    (fp_line (start 5.141 -2.457) (end 5.141 2.457) (layer F.SilkS) (width 0.12))
    (fp_line (start 5.181 -2.404) (end 5.181 2.404) (layer F.SilkS) (width 0.12))
    (fp_line (start 5.221 -2.349) (end 5.221 2.349) (layer F.SilkS) (width 0.12))
    (fp_line (start 5.261 -2.293) (end 5.261 2.293) (layer F.SilkS) (width 0.12))
    (fp_line (start 5.301 -2.234) (end 5.301 2.234) (layer F.SilkS) (width 0.12))
    (fp_line (start 5.341 -2.173) (end 5.341 2.173) (layer F.SilkS) (width 0.12))
    (fp_line (start 5.381 -2.109) (end 5.381 2.109) (layer F.SilkS) (width 0.12))
    (fp_line (start 5.421 -2.043) (end 5.421 2.043) (layer F.SilkS) (width 0.12))
    (fp_line (start 5.461 -1.974) (end 5.461 1.974) (layer F.SilkS) (width 0.12))
    (fp_line (start 5.501 -1.902) (end 5.501 1.902) (layer F.SilkS) (width 0.12))
    (fp_line (start 5.541 -1.826) (end 5.541 1.826) (layer F.SilkS) (width 0.12))
    (fp_line (start 5.581 -1.745) (end 5.581 1.745) (layer F.SilkS) (width 0.12))
    (fp_line (start 5.621 -1.66) (end 5.621 1.66) (layer F.SilkS) (width 0.12))
    (fp_line (start 5.661 -1.57) (end 5.661 1.57) (layer F.SilkS) (width 0.12))
    (fp_line (start 5.701 -1.473) (end 5.701 1.473) (layer F.SilkS) (width 0.12))
    (fp_line (start 5.741 -1.369) (end 5.741 1.369) (layer F.SilkS) (width 0.12))
    (fp_line (start 5.781 -1.254) (end 5.781 1.254) (layer F.SilkS) (width 0.12))
    (fp_line (start 5.821 -1.127) (end 5.821 1.127) (layer F.SilkS) (width 0.12))
    (fp_line (start 5.861 -0.983) (end 5.861 0.983) (layer F.SilkS) (width 0.12))
    (fp_line (start 5.901 -0.814) (end 5.901 0.814) (layer F.SilkS) (width 0.12))
    (fp_line (start 5.941 -0.598) (end 5.941 0.598) (layer F.SilkS) (width 0.12))
    (fp_line (start 5.981 -0.246) (end 5.981 0.246) (layer F.SilkS) (width 0.12))
    (fp_line (start -2.2 0) (end -1 0) (layer F.SilkS) (width 0.12))
    (fp_line (start -1.6 -0.65) (end -1.6 0.65) (layer F.SilkS) (width 0.12))
    (fp_line (start -2.45 -4.35) (end -2.45 4.35) (layer F.CrtYd) (width 0.05))
    (fp_line (start -2.45 4.35) (end 6.25 4.35) (layer F.CrtYd) (width 0.05))
    (fp_line (start 6.25 4.35) (end 6.25 -4.35) (layer F.CrtYd) (width 0.05))
    (fp_line (start 6.25 -4.35) (end -2.45 -4.35) (layer F.CrtYd) (width 0.05))
    (fp_text user %R (at 1.9 0 180) (layer F.Fab)
      (effects (font (size 1 1) (thickness 0.15)))
    )
    (pad 1 thru_hole rect (at 0 0 180) (size 1.6 1.6) (drill 0.8) (layers *.Cu *.Mask)
      (net 3 5v))
    (pad 2 thru_hole circle (at 3.8 0 180) (size 1.6 1.6) (drill 0.8) (layers *.Cu *.Mask)
      (net 1 T0b))
    (model ${KISYS3DMOD}/Capacitors_THT.3dshapes/CP_Radial_D8.0mm_P3.80mm.wrl
      (at (xyz 0 0 0))
      (scale (xyz 1 1 1))
      (rotate (xyz 0 0 0))
    )
  )

  (module Resistors_THT:R_Axial_DIN0204_L3.6mm_D1.6mm_P7.62mm_Horizontal (layer F.Cu) (tedit 5874F706) (tstamp 5BE4A4D5)
    (at 104.3178 27.1526)
    (descr "Resistor, Axial_DIN0204 series, Axial, Horizontal, pin pitch=7.62mm, 0.16666666666666666W = 1/6W, length*diameter=3.6*1.6mm^2, http://cdn-reichelt.de/documents/datenblatt/B400/1_4W%23YAG.pdf")
    (tags "Resistor Axial_DIN0204 series Axial Horizontal pin pitch 7.62mm 0.16666666666666666W = 1/6W length 3.6mm diameter 1.6mm")
    (path /5BE4D7B2)
    (fp_text reference R2 (at 3.81 -1.86) (layer F.SilkS)
      (effects (font (size 1 1) (thickness 0.15)))
    )
    (fp_text value 560 (at 3.81 1.86) (layer F.Fab)
      (effects (font (size 1 1) (thickness 0.15)))
    )
    (fp_line (start 2.01 -0.8) (end 2.01 0.8) (layer F.Fab) (width 0.1))
    (fp_line (start 2.01 0.8) (end 5.61 0.8) (layer F.Fab) (width 0.1))
    (fp_line (start 5.61 0.8) (end 5.61 -0.8) (layer F.Fab) (width 0.1))
    (fp_line (start 5.61 -0.8) (end 2.01 -0.8) (layer F.Fab) (width 0.1))
    (fp_line (start 0 0) (end 2.01 0) (layer F.Fab) (width 0.1))
    (fp_line (start 7.62 0) (end 5.61 0) (layer F.Fab) (width 0.1))
    (fp_line (start 1.95 -0.86) (end 1.95 0.86) (layer F.SilkS) (width 0.12))
    (fp_line (start 1.95 0.86) (end 5.67 0.86) (layer F.SilkS) (width 0.12))
    (fp_line (start 5.67 0.86) (end 5.67 -0.86) (layer F.SilkS) (width 0.12))
    (fp_line (start 5.67 -0.86) (end 1.95 -0.86) (layer F.SilkS) (width 0.12))
    (fp_line (start 0.88 0) (end 1.95 0) (layer F.SilkS) (width 0.12))
    (fp_line (start 6.74 0) (end 5.67 0) (layer F.SilkS) (width 0.12))
    (fp_line (start -0.95 -1.15) (end -0.95 1.15) (layer F.CrtYd) (width 0.05))
    (fp_line (start -0.95 1.15) (end 8.6 1.15) (layer F.CrtYd) (width 0.05))
    (fp_line (start 8.6 1.15) (end 8.6 -1.15) (layer F.CrtYd) (width 0.05))
    (fp_line (start 8.6 -1.15) (end -0.95 -1.15) (layer F.CrtYd) (width 0.05))
    (pad 1 thru_hole circle (at 0 0) (size 1.4 1.4) (drill 0.7) (layers *.Cu *.Mask)
      (net 9 UvLedA))
    (pad 2 thru_hole oval (at 7.62 0) (size 1.4 1.4) (drill 0.7) (layers *.Cu *.Mask)
      (net 15 "Net-(J5-Pad3)"))
    (model ${KISYS3DMOD}/Resistors_THT.3dshapes/R_Axial_DIN0204_L3.6mm_D1.6mm_P7.62mm_Horizontal.wrl
      (at (xyz 0 0 0))
      (scale (xyz 0.393701 0.393701 0.393701))
      (rotate (xyz 0 0 0))
    )
  )

  (module Resistors_THT:R_Axial_DIN0204_L3.6mm_D1.6mm_P7.62mm_Horizontal (layer F.Cu) (tedit 5874F706) (tstamp 5BE4A4DB)
    (at 124.6124 27.178 180)
    (descr "Resistor, Axial_DIN0204 series, Axial, Horizontal, pin pitch=7.62mm, 0.16666666666666666W = 1/6W, length*diameter=3.6*1.6mm^2, http://cdn-reichelt.de/documents/datenblatt/B400/1_4W%23YAG.pdf")
    (tags "Resistor Axial_DIN0204 series Axial Horizontal pin pitch 7.62mm 0.16666666666666666W = 1/6W length 3.6mm diameter 1.6mm")
    (path /5BE4D45D)
    (fp_text reference R3 (at 3.81 -1.86 180) (layer F.SilkS)
      (effects (font (size 1 1) (thickness 0.15)))
    )
    (fp_text value 100k (at 3.81 1.86 180) (layer F.Fab)
      (effects (font (size 1 1) (thickness 0.15)))
    )
    (fp_line (start 2.01 -0.8) (end 2.01 0.8) (layer F.Fab) (width 0.1))
    (fp_line (start 2.01 0.8) (end 5.61 0.8) (layer F.Fab) (width 0.1))
    (fp_line (start 5.61 0.8) (end 5.61 -0.8) (layer F.Fab) (width 0.1))
    (fp_line (start 5.61 -0.8) (end 2.01 -0.8) (layer F.Fab) (width 0.1))
    (fp_line (start 0 0) (end 2.01 0) (layer F.Fab) (width 0.1))
    (fp_line (start 7.62 0) (end 5.61 0) (layer F.Fab) (width 0.1))
    (fp_line (start 1.95 -0.86) (end 1.95 0.86) (layer F.SilkS) (width 0.12))
    (fp_line (start 1.95 0.86) (end 5.67 0.86) (layer F.SilkS) (width 0.12))
    (fp_line (start 5.67 0.86) (end 5.67 -0.86) (layer F.SilkS) (width 0.12))
    (fp_line (start 5.67 -0.86) (end 1.95 -0.86) (layer F.SilkS) (width 0.12))
    (fp_line (start 0.88 0) (end 1.95 0) (layer F.SilkS) (width 0.12))
    (fp_line (start 6.74 0) (end 5.67 0) (layer F.SilkS) (width 0.12))
    (fp_line (start -0.95 -1.15) (end -0.95 1.15) (layer F.CrtYd) (width 0.05))
    (fp_line (start -0.95 1.15) (end 8.6 1.15) (layer F.CrtYd) (width 0.05))
    (fp_line (start 8.6 1.15) (end 8.6 -1.15) (layer F.CrtYd) (width 0.05))
    (fp_line (start 8.6 -1.15) (end -0.95 -1.15) (layer F.CrtYd) (width 0.05))
    (pad 1 thru_hole circle (at 0 0 180) (size 1.4 1.4) (drill 0.7) (layers *.Cu *.Mask)
      (net 3 5v))
    (pad 2 thru_hole oval (at 7.62 0 180) (size 1.4 1.4) (drill 0.7) (layers *.Cu *.Mask)
      (net 7 T0a))
    (model ${KISYS3DMOD}/Resistors_THT.3dshapes/R_Axial_DIN0204_L3.6mm_D1.6mm_P7.62mm_Horizontal.wrl
      (at (xyz 0 0 0))
      (scale (xyz 0.393701 0.393701 0.393701))
      (rotate (xyz 0 0 0))
    )
  )

  (module Pin_Headers:Pin_Header_Straight_1x02_Pitch2.54mm (layer F.Cu) (tedit 59650532) (tstamp 5BF44E8D)
    (at 107.2896 33.7566 90)
    (descr "Through hole straight pin header, 1x02, 2.54mm pitch, single row")
    (tags "Through hole pin header THT 1x02 2.54mm single row")
    (path /5BE498DC)
    (fp_text reference Led1 (at 0 -2.33 90) (layer F.SilkS)
      (effects (font (size 1 1) (thickness 0.15)))
    )
    (fp_text value Conn_01x02 (at -0.254 5.7912 90) (layer F.Fab)
      (effects (font (size 1 1) (thickness 0.15)))
    )
    (fp_text user %R (at 0 1.27) (layer F.Fab)
      (effects (font (size 1 1) (thickness 0.15)))
    )
    (fp_line (start 1.8 -1.8) (end -1.8 -1.8) (layer F.CrtYd) (width 0.05))
    (fp_line (start 1.8 4.35) (end 1.8 -1.8) (layer F.CrtYd) (width 0.05))
    (fp_line (start -1.8 4.35) (end 1.8 4.35) (layer F.CrtYd) (width 0.05))
    (fp_line (start -1.8 -1.8) (end -1.8 4.35) (layer F.CrtYd) (width 0.05))
    (fp_line (start -1.33 -1.33) (end 0 -1.33) (layer F.SilkS) (width 0.12))
    (fp_line (start -1.33 0) (end -1.33 -1.33) (layer F.SilkS) (width 0.12))
    (fp_line (start -1.33 1.27) (end 1.33 1.27) (layer F.SilkS) (width 0.12))
    (fp_line (start 1.33 1.27) (end 1.33 3.87) (layer F.SilkS) (width 0.12))
    (fp_line (start -1.33 1.27) (end -1.33 3.87) (layer F.SilkS) (width 0.12))
    (fp_line (start -1.33 3.87) (end 1.33 3.87) (layer F.SilkS) (width 0.12))
    (fp_line (start -1.27 -0.635) (end -0.635 -1.27) (layer F.Fab) (width 0.1))
    (fp_line (start -1.27 3.81) (end -1.27 -0.635) (layer F.Fab) (width 0.1))
    (fp_line (start 1.27 3.81) (end -1.27 3.81) (layer F.Fab) (width 0.1))
    (fp_line (start 1.27 -1.27) (end 1.27 3.81) (layer F.Fab) (width 0.1))
    (fp_line (start -0.635 -1.27) (end 1.27 -1.27) (layer F.Fab) (width 0.1))
    (pad 2 thru_hole oval (at 0 2.54 90) (size 1.7 1.7) (drill 1) (layers *.Cu *.Mask)
      (net 1 T0b))
    (pad 1 thru_hole rect (at 0 0 90) (size 1.7 1.7) (drill 1) (layers *.Cu *.Mask)
      (net 9 UvLedA))
    (model ${KISYS3DMOD}/Pin_Headers.3dshapes/Pin_Header_Straight_1x02_Pitch2.54mm.wrl
      (at (xyz 0 0 0))
      (scale (xyz 1 1 1))
      (rotate (xyz 0 0 0))
    )
  )

  (module Pin_Headers:Pin_Header_Straight_1x02_Pitch2.54mm (layer F.Cu) (tedit 59650532) (tstamp 5BF45556)
    (at 119.4816 33.7058 90)
    (descr "Through hole straight pin header, 1x02, 2.54mm pitch, single row")
    (tags "Through hole pin header THT 1x02 2.54mm single row")
    (path /5BE4967B)
    (fp_text reference Therm1 (at 0 -2.33 90) (layer F.SilkS)
      (effects (font (size 1 1) (thickness 0.15)))
    )
    (fp_text value Conn_01x02 (at 0 4.87 90) (layer F.Fab)
      (effects (font (size 1 1) (thickness 0.15)))
    )
    (fp_line (start -0.635 -1.27) (end 1.27 -1.27) (layer F.Fab) (width 0.1))
    (fp_line (start 1.27 -1.27) (end 1.27 3.81) (layer F.Fab) (width 0.1))
    (fp_line (start 1.27 3.81) (end -1.27 3.81) (layer F.Fab) (width 0.1))
    (fp_line (start -1.27 3.81) (end -1.27 -0.635) (layer F.Fab) (width 0.1))
    (fp_line (start -1.27 -0.635) (end -0.635 -1.27) (layer F.Fab) (width 0.1))
    (fp_line (start -1.33 3.87) (end 1.33 3.87) (layer F.SilkS) (width 0.12))
    (fp_line (start -1.33 1.27) (end -1.33 3.87) (layer F.SilkS) (width 0.12))
    (fp_line (start 1.33 1.27) (end 1.33 3.87) (layer F.SilkS) (width 0.12))
    (fp_line (start -1.33 1.27) (end 1.33 1.27) (layer F.SilkS) (width 0.12))
    (fp_line (start -1.33 0) (end -1.33 -1.33) (layer F.SilkS) (width 0.12))
    (fp_line (start -1.33 -1.33) (end 0 -1.33) (layer F.SilkS) (width 0.12))
    (fp_line (start -1.8 -1.8) (end -1.8 4.35) (layer F.CrtYd) (width 0.05))
    (fp_line (start -1.8 4.35) (end 1.8 4.35) (layer F.CrtYd) (width 0.05))
    (fp_line (start 1.8 4.35) (end 1.8 -1.8) (layer F.CrtYd) (width 0.05))
    (fp_line (start 1.8 -1.8) (end -1.8 -1.8) (layer F.CrtYd) (width 0.05))
    (fp_text user %R (at 0 1.27 180) (layer F.Fab)
      (effects (font (size 1 1) (thickness 0.15)))
    )
    (pad 1 thru_hole rect (at 0 0 90) (size 1.7 1.7) (drill 1) (layers *.Cu *.Mask)
      (net 7 T0a))
    (pad 2 thru_hole oval (at 0 2.54 90) (size 1.7 1.7) (drill 1) (layers *.Cu *.Mask)
      (net 1 T0b))
    (model ${KISYS3DMOD}/Pin_Headers.3dshapes/Pin_Header_Straight_1x02_Pitch2.54mm.wrl
      (at (xyz 0 0 0))
      (scale (xyz 1 1 1))
      (rotate (xyz 0 0 0))
    )
  )

  (module Connectors:JACK_ALIM (layer F.Cu) (tedit 587FEAEC) (tstamp 5BE4A48B)
    (at 84.2772 23.9522)
    (descr "module 1 pin (ou trou mecanique de percage)")
    (tags "CONN JACK")
    (path /5BE49FC7)
    (fp_text reference J1 (at -5.84 -5.59) (layer F.SilkS)
      (effects (font (size 1 1) (thickness 0.15)))
    )
    (fp_text value Jack-DC (at -11.18 5.59) (layer F.Fab)
      (effects (font (size 1 1) (thickness 0.15)))
    )
    (fp_line (start -10.15 -4.4) (end -10.15 4.4) (layer F.SilkS) (width 0.12))
    (fp_line (start -6.35 4.4) (end -14.05 4.4) (layer F.SilkS) (width 0.12))
    (fp_line (start -14.05 4.4) (end -14.05 -4.4) (layer F.SilkS) (width 0.12))
    (fp_line (start -14.05 -4.4) (end -13.85 -4.4) (layer F.SilkS) (width 0.12))
    (fp_line (start -0.45 2.55) (end -0.45 4.4) (layer F.SilkS) (width 0.12))
    (fp_line (start -0.45 4.4) (end -1.3 4.4) (layer F.SilkS) (width 0.12))
    (fp_line (start -13.95 -4.4) (end -0.45 -4.4) (layer F.SilkS) (width 0.12))
    (fp_line (start -0.45 -4.4) (end -0.45 -2.55) (layer F.SilkS) (width 0.12))
    (fp_line (start -13.21 -4.32) (end -13.97 -4.32) (layer F.Fab) (width 0.1))
    (fp_line (start -13.97 -4.32) (end -13.97 4.32) (layer F.Fab) (width 0.1))
    (fp_line (start -13.97 4.32) (end -13.21 4.32) (layer F.Fab) (width 0.1))
    (fp_line (start -10.16 -4.32) (end -10.16 4.32) (layer F.Fab) (width 0.1))
    (fp_line (start -0.51 -4.32) (end -0.51 4.32) (layer F.Fab) (width 0.1))
    (fp_line (start -13.21 4.32) (end -0.51 4.32) (layer F.Fab) (width 0.1))
    (fp_line (start -13.21 -4.32) (end -0.51 -4.32) (layer F.Fab) (width 0.1))
    (fp_line (start -14.22 -4.57) (end 2.65 -4.57) (layer F.CrtYd) (width 0.05))
    (fp_line (start -14.22 -4.57) (end -14.22 7.73) (layer F.CrtYd) (width 0.05))
    (fp_line (start 2.65 7.73) (end 2.65 -4.57) (layer F.CrtYd) (width 0.05))
    (fp_line (start 2.65 7.73) (end -14.22 7.73) (layer F.CrtYd) (width 0.05))
    (pad 2 thru_hole circle (at -6.1 0) (size 4.8 4.8) (drill oval 1.02 2.54) (layers *.Cu *.Mask)
      (net 1 T0b))
    (pad 1 thru_hole rect (at 0 0) (size 4.8 4.8) (drill oval 1.02 2.54) (layers *.Cu *.Mask)
      (net 2 12v))
    (pad 3 thru_hole circle (at -3.81 5.08) (size 4.8 4.8) (drill oval 2.54 1.02) (layers *.Cu *.Mask)
      (net 1 T0b))
    (model ${KISYS3DMOD}/Connectors.3dshapes/JACK_ALIM.wrl
      (offset (xyz -6.095999908447266 0 0))
      (scale (xyz 0.8 0.8 0.8))
      (rotate (xyz 0 0 0))
    )
  )

  (module Pin_Headers:Pin_Header_Straight_1x04_Pitch2.54mm (layer F.Cu) (tedit 59650532) (tstamp 5BE4A49A)
    (at 83.8454 56.8706 180)
    (descr "Through hole straight pin header, 1x04, 2.54mm pitch, single row")
    (tags "Through hole pin header THT 1x04 2.54mm single row")
    (path /5BE49349)
    (fp_text reference J3 (at 0 -2.33 180) (layer F.SilkS)
      (effects (font (size 1 1) (thickness 0.15)))
    )
    (fp_text value Conn_01x04 (at 0 9.95 180) (layer F.Fab)
      (effects (font (size 1 1) (thickness 0.15)))
    )
    (fp_line (start -0.635 -1.27) (end 1.27 -1.27) (layer F.Fab) (width 0.1))
    (fp_line (start 1.27 -1.27) (end 1.27 8.89) (layer F.Fab) (width 0.1))
    (fp_line (start 1.27 8.89) (end -1.27 8.89) (layer F.Fab) (width 0.1))
    (fp_line (start -1.27 8.89) (end -1.27 -0.635) (layer F.Fab) (width 0.1))
    (fp_line (start -1.27 -0.635) (end -0.635 -1.27) (layer F.Fab) (width 0.1))
    (fp_line (start -1.33 8.95) (end 1.33 8.95) (layer F.SilkS) (width 0.12))
    (fp_line (start -1.33 1.27) (end -1.33 8.95) (layer F.SilkS) (width 0.12))
    (fp_line (start 1.33 1.27) (end 1.33 8.95) (layer F.SilkS) (width 0.12))
    (fp_line (start -1.33 1.27) (end 1.33 1.27) (layer F.SilkS) (width 0.12))
    (fp_line (start -1.33 0) (end -1.33 -1.33) (layer F.SilkS) (width 0.12))
    (fp_line (start -1.33 -1.33) (end 0 -1.33) (layer F.SilkS) (width 0.12))
    (fp_line (start -1.8 -1.8) (end -1.8 9.4) (layer F.CrtYd) (width 0.05))
    (fp_line (start -1.8 9.4) (end 1.8 9.4) (layer F.CrtYd) (width 0.05))
    (fp_line (start 1.8 9.4) (end 1.8 -1.8) (layer F.CrtYd) (width 0.05))
    (fp_line (start 1.8 -1.8) (end -1.8 -1.8) (layer F.CrtYd) (width 0.05))
    (fp_text user %R (at 0 3.81 270) (layer F.Fab)
      (effects (font (size 1 1) (thickness 0.15)))
    )
    (pad 1 thru_hole rect (at 0 0 180) (size 1.7 1.7) (drill 1) (layers *.Cu *.Mask)
      (net 4 S3))
    (pad 2 thru_hole oval (at 0 2.54 180) (size 1.7 1.7) (drill 1) (layers *.Cu *.Mask)
      (net 5 S2))
    (pad 3 thru_hole oval (at 0 5.08 180) (size 1.7 1.7) (drill 1) (layers *.Cu *.Mask)
      (net 6 out))
    (pad 4 thru_hole oval (at 0 7.62 180) (size 1.7 1.7) (drill 1) (layers *.Cu *.Mask)
      (net 3 5v))
    (model ${KISYS3DMOD}/Pin_Headers.3dshapes/Pin_Header_Straight_1x04_Pitch2.54mm.wrl
      (at (xyz 0 0 0))
      (scale (xyz 1 1 1))
      (rotate (xyz 0 0 0))
    )
  )

  (module Pin_Headers:Pin_Header_Straight_1x04_Pitch2.54mm (layer F.Cu) (tedit 59650532) (tstamp 5BE4A4B4)
    (at 111.5314 49.2506)
    (descr "Through hole straight pin header, 1x04, 2.54mm pitch, single row")
    (tags "Through hole pin header THT 1x04 2.54mm single row")
    (path /5BE49501)
    (fp_text reference J7 (at 0 -2.33) (layer F.SilkS)
      (effects (font (size 1 1) (thickness 0.15)))
    )
    (fp_text value Conn_01x04 (at 0 9.95) (layer F.Fab)
      (effects (font (size 1 1) (thickness 0.15)))
    )
    (fp_line (start -0.635 -1.27) (end 1.27 -1.27) (layer F.Fab) (width 0.1))
    (fp_line (start 1.27 -1.27) (end 1.27 8.89) (layer F.Fab) (width 0.1))
    (fp_line (start 1.27 8.89) (end -1.27 8.89) (layer F.Fab) (width 0.1))
    (fp_line (start -1.27 8.89) (end -1.27 -0.635) (layer F.Fab) (width 0.1))
    (fp_line (start -1.27 -0.635) (end -0.635 -1.27) (layer F.Fab) (width 0.1))
    (fp_line (start -1.33 8.95) (end 1.33 8.95) (layer F.SilkS) (width 0.12))
    (fp_line (start -1.33 1.27) (end -1.33 8.95) (layer F.SilkS) (width 0.12))
    (fp_line (start 1.33 1.27) (end 1.33 8.95) (layer F.SilkS) (width 0.12))
    (fp_line (start -1.33 1.27) (end 1.33 1.27) (layer F.SilkS) (width 0.12))
    (fp_line (start -1.33 0) (end -1.33 -1.33) (layer F.SilkS) (width 0.12))
    (fp_line (start -1.33 -1.33) (end 0 -1.33) (layer F.SilkS) (width 0.12))
    (fp_line (start -1.8 -1.8) (end -1.8 9.4) (layer F.CrtYd) (width 0.05))
    (fp_line (start -1.8 9.4) (end 1.8 9.4) (layer F.CrtYd) (width 0.05))
    (fp_line (start 1.8 9.4) (end 1.8 -1.8) (layer F.CrtYd) (width 0.05))
    (fp_line (start 1.8 -1.8) (end -1.8 -1.8) (layer F.CrtYd) (width 0.05))
    (fp_text user %R (at 0 3.81 90) (layer F.Fab)
      (effects (font (size 1 1) (thickness 0.15)))
    )
    (pad 1 thru_hole rect (at 0 0) (size 1.7 1.7) (drill 1) (layers *.Cu *.Mask)
      (net 1 T0b))
    (pad 2 thru_hole oval (at 0 2.54) (size 1.7 1.7) (drill 1) (layers *.Cu *.Mask)
      (net 13 OE))
    (pad 3 thru_hole oval (at 0 5.08) (size 1.7 1.7) (drill 1) (layers *.Cu *.Mask)
      (net 10 S1))
    (pad 4 thru_hole oval (at 0 7.62) (size 1.7 1.7) (drill 1) (layers *.Cu *.Mask)
      (net 11 S0))
    (model ${KISYS3DMOD}/Pin_Headers.3dshapes/Pin_Header_Straight_1x04_Pitch2.54mm.wrl
      (at (xyz 0 0 0))
      (scale (xyz 1 1 1))
      (rotate (xyz 0 0 0))
    )
  )

  (module Pin_Headers:Pin_Header_Straight_1x03_Pitch2.54mm (layer F.Cu) (tedit 59650532) (tstamp 5C30E644)
    (at 74.2188 56.8706 180)
    (descr "Through hole straight pin header, 1x03, 2.54mm pitch, single row")
    (tags "Through hole pin header THT 1x03 2.54mm single row")
    (path /5BE4A475)
    (fp_text reference J8 (at 0 -2.33 180) (layer F.SilkS)
      (effects (font (size 1 1) (thickness 0.15)))
    )
    (fp_text value Conn_01x03 (at 0 7.41 180) (layer F.Fab)
      (effects (font (size 1 1) (thickness 0.15)))
    )
    (fp_line (start -0.635 -1.27) (end 1.27 -1.27) (layer F.Fab) (width 0.1))
    (fp_line (start 1.27 -1.27) (end 1.27 6.35) (layer F.Fab) (width 0.1))
    (fp_line (start 1.27 6.35) (end -1.27 6.35) (layer F.Fab) (width 0.1))
    (fp_line (start -1.27 6.35) (end -1.27 -0.635) (layer F.Fab) (width 0.1))
    (fp_line (start -1.27 -0.635) (end -0.635 -1.27) (layer F.Fab) (width 0.1))
    (fp_line (start -1.33 6.41) (end 1.33 6.41) (layer F.SilkS) (width 0.12))
    (fp_line (start -1.33 1.27) (end -1.33 6.41) (layer F.SilkS) (width 0.12))
    (fp_line (start 1.33 1.27) (end 1.33 6.41) (layer F.SilkS) (width 0.12))
    (fp_line (start -1.33 1.27) (end 1.33 1.27) (layer F.SilkS) (width 0.12))
    (fp_line (start -1.33 0) (end -1.33 -1.33) (layer F.SilkS) (width 0.12))
    (fp_line (start -1.33 -1.33) (end 0 -1.33) (layer F.SilkS) (width 0.12))
    (fp_line (start -1.8 -1.8) (end -1.8 6.85) (layer F.CrtYd) (width 0.05))
    (fp_line (start -1.8 6.85) (end 1.8 6.85) (layer F.CrtYd) (width 0.05))
    (fp_line (start 1.8 6.85) (end 1.8 -1.8) (layer F.CrtYd) (width 0.05))
    (fp_line (start 1.8 -1.8) (end -1.8 -1.8) (layer F.CrtYd) (width 0.05))
    (fp_text user %R (at 0 2.54 270) (layer F.Fab)
      (effects (font (size 1 1) (thickness 0.15)))
    )
    (pad 1 thru_hole rect (at 0 0 180) (size 1.7 1.7) (drill 1) (layers *.Cu *.Mask)
      (net 4 S3))
    (pad 2 thru_hole oval (at 0 2.54 180) (size 1.7 1.7) (drill 1) (layers *.Cu *.Mask)
      (net 5 S2))
    (pad 3 thru_hole oval (at 0 5.08 180) (size 1.7 1.7) (drill 1) (layers *.Cu *.Mask)
      (net 6 out))
    (model ${KISYS3DMOD}/Pin_Headers.3dshapes/Pin_Header_Straight_1x03_Pitch2.54mm.wrl
      (at (xyz 0 0 0))
      (scale (xyz 1 1 1))
      (rotate (xyz 0 0 0))
    )
  )

  (module Resistors_THT:R_Axial_DIN0204_L3.6mm_D1.6mm_P7.62mm_Horizontal (layer F.Cu) (tedit 5874F706) (tstamp 5BF45CE9)
    (at 91.9734 19.6088)
    (descr "Resistor, Axial_DIN0204 series, Axial, Horizontal, pin pitch=7.62mm, 0.16666666666666666W = 1/6W, length*diameter=3.6*1.6mm^2, http://cdn-reichelt.de/documents/datenblatt/B400/1_4W%23YAG.pdf")
    (tags "Resistor Axial_DIN0204 series Axial Horizontal pin pitch 7.62mm 0.16666666666666666W = 1/6W length 3.6mm diameter 1.6mm")
    (path /5BE4AB8C)
    (fp_text reference R1 (at 3.81 -1.86) (layer F.SilkS)
      (effects (font (size 1 1) (thickness 0.15)))
    )
    (fp_text value 10 (at 3.81 1.86) (layer F.Fab)
      (effects (font (size 1 1) (thickness 0.15)))
    )
    (fp_line (start 2.01 -0.8) (end 2.01 0.8) (layer F.Fab) (width 0.1))
    (fp_line (start 2.01 0.8) (end 5.61 0.8) (layer F.Fab) (width 0.1))
    (fp_line (start 5.61 0.8) (end 5.61 -0.8) (layer F.Fab) (width 0.1))
    (fp_line (start 5.61 -0.8) (end 2.01 -0.8) (layer F.Fab) (width 0.1))
    (fp_line (start 0 0) (end 2.01 0) (layer F.Fab) (width 0.1))
    (fp_line (start 7.62 0) (end 5.61 0) (layer F.Fab) (width 0.1))
    (fp_line (start 1.95 -0.86) (end 1.95 0.86) (layer F.SilkS) (width 0.12))
    (fp_line (start 1.95 0.86) (end 5.67 0.86) (layer F.SilkS) (width 0.12))
    (fp_line (start 5.67 0.86) (end 5.67 -0.86) (layer F.SilkS) (width 0.12))
    (fp_line (start 5.67 -0.86) (end 1.95 -0.86) (layer F.SilkS) (width 0.12))
    (fp_line (start 0.88 0) (end 1.95 0) (layer F.SilkS) (width 0.12))
    (fp_line (start 6.74 0) (end 5.67 0) (layer F.SilkS) (width 0.12))
    (fp_line (start -0.95 -1.15) (end -0.95 1.15) (layer F.CrtYd) (width 0.05))
    (fp_line (start -0.95 1.15) (end 8.6 1.15) (layer F.CrtYd) (width 0.05))
    (fp_line (start 8.6 1.15) (end 8.6 -1.15) (layer F.CrtYd) (width 0.05))
    (fp_line (start 8.6 -1.15) (end -0.95 -1.15) (layer F.CrtYd) (width 0.05))
    (pad 1 thru_hole circle (at 0 0) (size 1.4 1.4) (drill 0.7) (layers *.Cu *.Mask)
      (net 12 "Net-(Q1-Pad1)"))
    (pad 2 thru_hole oval (at 7.62 0) (size 1.4 1.4) (drill 0.7) (layers *.Cu *.Mask)
      (net 14 pwm0))
    (model ${KISYS3DMOD}/Resistors_THT.3dshapes/R_Axial_DIN0204_L3.6mm_D1.6mm_P7.62mm_Horizontal.wrl
      (at (xyz 0 0 0))
      (scale (xyz 0.393701 0.393701 0.393701))
      (rotate (xyz 0 0 0))
    )
  )

  (module TO_SOT_Packages_THT:TO-220-3_Vertical (layer F.Cu) (tedit 58CE52AD) (tstamp 5BF45CA2)
    (at 98.3742 23.7236 180)
    (descr "TO-220-3, Vertical, RM 2.54mm")
    (tags "TO-220-3 Vertical RM 2.54mm")
    (path /5BE4A98D)
    (fp_text reference Q1 (at 2.54 -3.62 180) (layer F.SilkS)
      (effects (font (size 1 1) (thickness 0.15)))
    )
    (fp_text value IRF540N (at 2.54 3.92 180) (layer F.Fab)
      (effects (font (size 1 1) (thickness 0.15)))
    )
    (fp_text user %R (at 2.54 -3.62 180) (layer F.Fab)
      (effects (font (size 1 1) (thickness 0.15)))
    )
    (fp_line (start -2.46 -2.5) (end -2.46 1.9) (layer F.Fab) (width 0.1))
    (fp_line (start -2.46 1.9) (end 7.54 1.9) (layer F.Fab) (width 0.1))
    (fp_line (start 7.54 1.9) (end 7.54 -2.5) (layer F.Fab) (width 0.1))
    (fp_line (start 7.54 -2.5) (end -2.46 -2.5) (layer F.Fab) (width 0.1))
    (fp_line (start -2.46 -1.23) (end 7.54 -1.23) (layer F.Fab) (width 0.1))
    (fp_line (start 0.69 -2.5) (end 0.69 -1.23) (layer F.Fab) (width 0.1))
    (fp_line (start 4.39 -2.5) (end 4.39 -1.23) (layer F.Fab) (width 0.1))
    (fp_line (start -2.58 -2.62) (end 7.66 -2.62) (layer F.SilkS) (width 0.12))
    (fp_line (start -2.58 2.021) (end 7.66 2.021) (layer F.SilkS) (width 0.12))
    (fp_line (start -2.58 -2.62) (end -2.58 2.021) (layer F.SilkS) (width 0.12))
    (fp_line (start 7.66 -2.62) (end 7.66 2.021) (layer F.SilkS) (width 0.12))
    (fp_line (start -2.58 -1.11) (end 7.66 -1.11) (layer F.SilkS) (width 0.12))
    (fp_line (start 0.69 -2.62) (end 0.69 -1.11) (layer F.SilkS) (width 0.12))
    (fp_line (start 4.391 -2.62) (end 4.391 -1.11) (layer F.SilkS) (width 0.12))
    (fp_line (start -2.71 -2.75) (end -2.71 2.16) (layer F.CrtYd) (width 0.05))
    (fp_line (start -2.71 2.16) (end 7.79 2.16) (layer F.CrtYd) (width 0.05))
    (fp_line (start 7.79 2.16) (end 7.79 -2.75) (layer F.CrtYd) (width 0.05))
    (fp_line (start 7.79 -2.75) (end -2.71 -2.75) (layer F.CrtYd) (width 0.05))
    (pad 1 thru_hole rect (at 0 0 180) (size 1.8 1.8) (drill 1) (layers *.Cu *.Mask)
      (net 12 "Net-(Q1-Pad1)"))
    (pad 2 thru_hole oval (at 2.54 0 180) (size 1.8 1.8) (drill 1) (layers *.Cu *.Mask)
      (net 8 Hb))
    (pad 3 thru_hole oval (at 5.08 0 180) (size 1.8 1.8) (drill 1) (layers *.Cu *.Mask)
      (net 1 T0b))
    (model ${KISYS3DMOD}/TO_SOT_Packages_THT.3dshapes/TO-220-3_Vertical.wrl
      (offset (xyz 2.539999961853027 0 0))
      (scale (xyz 0.393701 0.393701 0.393701))
      (rotate (xyz 0 0 0))
    )
  )

  (module Pin_Headers:Pin_Header_Straight_2x03_Pitch2.54mm (layer F.Cu) (tedit 59650532) (tstamp 5BE4C01C)
    (at 116.6114 51.7906)
    (descr "Through hole straight pin header, 2x03, 2.54mm pitch, double rows")
    (tags "Through hole pin header THT 2x03 2.54mm double row")
    (path /5BE4BFC8)
    (fp_text reference J9 (at 1.27 -2.33) (layer F.SilkS)
      (effects (font (size 1 1) (thickness 0.15)))
    )
    (fp_text value Conn_02x03_Top_Bottom (at 1.27 7.41) (layer F.Fab)
      (effects (font (size 1 1) (thickness 0.15)))
    )
    (fp_line (start 0 -1.27) (end 3.81 -1.27) (layer F.Fab) (width 0.1))
    (fp_line (start 3.81 -1.27) (end 3.81 6.35) (layer F.Fab) (width 0.1))
    (fp_line (start 3.81 6.35) (end -1.27 6.35) (layer F.Fab) (width 0.1))
    (fp_line (start -1.27 6.35) (end -1.27 0) (layer F.Fab) (width 0.1))
    (fp_line (start -1.27 0) (end 0 -1.27) (layer F.Fab) (width 0.1))
    (fp_line (start -1.33 6.41) (end 3.87 6.41) (layer F.SilkS) (width 0.12))
    (fp_line (start -1.33 1.27) (end -1.33 6.41) (layer F.SilkS) (width 0.12))
    (fp_line (start 3.87 -1.33) (end 3.87 6.41) (layer F.SilkS) (width 0.12))
    (fp_line (start -1.33 1.27) (end 1.27 1.27) (layer F.SilkS) (width 0.12))
    (fp_line (start 1.27 1.27) (end 1.27 -1.33) (layer F.SilkS) (width 0.12))
    (fp_line (start 1.27 -1.33) (end 3.87 -1.33) (layer F.SilkS) (width 0.12))
    (fp_line (start -1.33 0) (end -1.33 -1.33) (layer F.SilkS) (width 0.12))
    (fp_line (start -1.33 -1.33) (end 0 -1.33) (layer F.SilkS) (width 0.12))
    (fp_line (start -1.8 -1.8) (end -1.8 6.85) (layer F.CrtYd) (width 0.05))
    (fp_line (start -1.8 6.85) (end 4.35 6.85) (layer F.CrtYd) (width 0.05))
    (fp_line (start 4.35 6.85) (end 4.35 -1.8) (layer F.CrtYd) (width 0.05))
    (fp_line (start 4.35 -1.8) (end -1.8 -1.8) (layer F.CrtYd) (width 0.05))
    (fp_text user %R (at 1.27 2.54 90) (layer F.Fab)
      (effects (font (size 1 1) (thickness 0.15)))
    )
    (pad 1 thru_hole rect (at 0 0) (size 1.7 1.7) (drill 1) (layers *.Cu *.Mask)
      (net 13 OE))
    (pad 2 thru_hole oval (at 2.54 0) (size 1.7 1.7) (drill 1) (layers *.Cu *.Mask)
      (net 3 5v))
    (pad 3 thru_hole oval (at 0 2.54) (size 1.7 1.7) (drill 1) (layers *.Cu *.Mask)
      (net 10 S1))
    (pad 4 thru_hole oval (at 2.54 2.54) (size 1.7 1.7) (drill 1) (layers *.Cu *.Mask)
      (net 3 5v))
    (pad 5 thru_hole oval (at 0 5.08) (size 1.7 1.7) (drill 1) (layers *.Cu *.Mask)
      (net 11 S0))
    (pad 6 thru_hole oval (at 2.54 5.08) (size 1.7 1.7) (drill 1) (layers *.Cu *.Mask)
      (net 3 5v))
    (model ${KISYS3DMOD}/Pin_Headers.3dshapes/Pin_Header_Straight_2x03_Pitch2.54mm.wrl
      (at (xyz 0 0 0))
      (scale (xyz 1 1 1))
      (rotate (xyz 0 0 0))
    )
  )

  (module Pin_Headers:Pin_Header_Straight_2x03_Pitch2.54mm (layer F.Cu) (tedit 59650532) (tstamp 5BE4EA80)
    (at 105.9434 56.8706 180)
    (descr "Through hole straight pin header, 2x03, 2.54mm pitch, double rows")
    (tags "Through hole pin header THT 2x03 2.54mm double row")
    (path /5BE4EE47)
    (fp_text reference J11 (at 1.27 -2.33 180) (layer F.SilkS)
      (effects (font (size 1 1) (thickness 0.15)))
    )
    (fp_text value Conn_02x03_Top_Bottom (at 1.27 7.41 180) (layer F.Fab)
      (effects (font (size 1 1) (thickness 0.15)))
    )
    (fp_line (start 0 -1.27) (end 3.81 -1.27) (layer F.Fab) (width 0.1))
    (fp_line (start 3.81 -1.27) (end 3.81 6.35) (layer F.Fab) (width 0.1))
    (fp_line (start 3.81 6.35) (end -1.27 6.35) (layer F.Fab) (width 0.1))
    (fp_line (start -1.27 6.35) (end -1.27 0) (layer F.Fab) (width 0.1))
    (fp_line (start -1.27 0) (end 0 -1.27) (layer F.Fab) (width 0.1))
    (fp_line (start -1.33 6.41) (end 3.87 6.41) (layer F.SilkS) (width 0.12))
    (fp_line (start -1.33 1.27) (end -1.33 6.41) (layer F.SilkS) (width 0.12))
    (fp_line (start 3.87 -1.33) (end 3.87 6.41) (layer F.SilkS) (width 0.12))
    (fp_line (start -1.33 1.27) (end 1.27 1.27) (layer F.SilkS) (width 0.12))
    (fp_line (start 1.27 1.27) (end 1.27 -1.33) (layer F.SilkS) (width 0.12))
    (fp_line (start 1.27 -1.33) (end 3.87 -1.33) (layer F.SilkS) (width 0.12))
    (fp_line (start -1.33 0) (end -1.33 -1.33) (layer F.SilkS) (width 0.12))
    (fp_line (start -1.33 -1.33) (end 0 -1.33) (layer F.SilkS) (width 0.12))
    (fp_line (start -1.8 -1.8) (end -1.8 6.85) (layer F.CrtYd) (width 0.05))
    (fp_line (start -1.8 6.85) (end 4.35 6.85) (layer F.CrtYd) (width 0.05))
    (fp_line (start 4.35 6.85) (end 4.35 -1.8) (layer F.CrtYd) (width 0.05))
    (fp_line (start 4.35 -1.8) (end -1.8 -1.8) (layer F.CrtYd) (width 0.05))
    (fp_text user %R (at 1.27 2.54 270) (layer F.Fab)
      (effects (font (size 1 1) (thickness 0.15)))
    )
    (pad 1 thru_hole rect (at 0 0 180) (size 1.7 1.7) (drill 1) (layers *.Cu *.Mask)
      (net 11 S0))
    (pad 2 thru_hole oval (at 2.54 0 180) (size 1.7 1.7) (drill 1) (layers *.Cu *.Mask)
      (net 1 T0b))
    (pad 3 thru_hole oval (at 0 2.54 180) (size 1.7 1.7) (drill 1) (layers *.Cu *.Mask)
      (net 10 S1))
    (pad 4 thru_hole oval (at 2.54 2.54 180) (size 1.7 1.7) (drill 1) (layers *.Cu *.Mask)
      (net 1 T0b))
    (pad 5 thru_hole oval (at 0 5.08 180) (size 1.7 1.7) (drill 1) (layers *.Cu *.Mask)
      (net 13 OE))
    (pad 6 thru_hole oval (at 2.54 5.08 180) (size 1.7 1.7) (drill 1) (layers *.Cu *.Mask)
      (net 1 T0b))
    (model ${KISYS3DMOD}/Pin_Headers.3dshapes/Pin_Header_Straight_2x03_Pitch2.54mm.wrl
      (at (xyz 0 0 0))
      (scale (xyz 1 1 1))
      (rotate (xyz 0 0 0))
    )
  )

  (module Pin_Headers:Pin_Header_Straight_1x02_Pitch2.54mm (layer F.Cu) (tedit 59650532) (tstamp 5BF45C5F)
    (at 99.0092 33.7566 270)
    (descr "Through hole straight pin header, 1x02, 2.54mm pitch, single row")
    (tags "Through hole pin header THT 1x02 2.54mm single row")
    (path /5BE49721)
    (fp_text reference Heater1 (at 0 -2.33 270) (layer F.SilkS)
      (effects (font (size 1 1) (thickness 0.15)))
    )
    (fp_text value Conn_01x02 (at 0 4.87 270) (layer F.Fab)
      (effects (font (size 1 1) (thickness 0.15)))
    )
    (fp_line (start -0.635 -1.27) (end 1.27 -1.27) (layer F.Fab) (width 0.1))
    (fp_line (start 1.27 -1.27) (end 1.27 3.81) (layer F.Fab) (width 0.1))
    (fp_line (start 1.27 3.81) (end -1.27 3.81) (layer F.Fab) (width 0.1))
    (fp_line (start -1.27 3.81) (end -1.27 -0.635) (layer F.Fab) (width 0.1))
    (fp_line (start -1.27 -0.635) (end -0.635 -1.27) (layer F.Fab) (width 0.1))
    (fp_line (start -1.33 3.87) (end 1.33 3.87) (layer F.SilkS) (width 0.12))
    (fp_line (start -1.33 1.27) (end -1.33 3.87) (layer F.SilkS) (width 0.12))
    (fp_line (start 1.33 1.27) (end 1.33 3.87) (layer F.SilkS) (width 0.12))
    (fp_line (start -1.33 1.27) (end 1.33 1.27) (layer F.SilkS) (width 0.12))
    (fp_line (start -1.33 0) (end -1.33 -1.33) (layer F.SilkS) (width 0.12))
    (fp_line (start -1.33 -1.33) (end 0 -1.33) (layer F.SilkS) (width 0.12))
    (fp_line (start -1.8 -1.8) (end -1.8 4.35) (layer F.CrtYd) (width 0.05))
    (fp_line (start -1.8 4.35) (end 1.8 4.35) (layer F.CrtYd) (width 0.05))
    (fp_line (start 1.8 4.35) (end 1.8 -1.8) (layer F.CrtYd) (width 0.05))
    (fp_line (start 1.8 -1.8) (end -1.8 -1.8) (layer F.CrtYd) (width 0.05))
    (fp_text user %R (at 0 1.27) (layer F.Fab)
      (effects (font (size 1 1) (thickness 0.15)))
    )
    (pad 1 thru_hole rect (at 0 0 270) (size 1.7 1.7) (drill 1) (layers *.Cu *.Mask)
      (net 2 12v))
    (pad 2 thru_hole oval (at 0 2.54 270) (size 1.7 1.7) (drill 1) (layers *.Cu *.Mask)
      (net 8 Hb))
    (model ${KISYS3DMOD}/Pin_Headers.3dshapes/Pin_Header_Straight_1x02_Pitch2.54mm.wrl
      (at (xyz 0 0 0))
      (scale (xyz 1 1 1))
      (rotate (xyz 0 0 0))
    )
  )

  (module Resistors_THT:R_Axial_DIN0204_L3.6mm_D1.6mm_P7.62mm_Horizontal (layer F.Cu) (tedit 5874F706) (tstamp 5C30E442)
    (at 92.1512 28.321)
    (descr "Resistor, Axial_DIN0204 series, Axial, Horizontal, pin pitch=7.62mm, 0.16666666666666666W = 1/6W, length*diameter=3.6*1.6mm^2, http://cdn-reichelt.de/documents/datenblatt/B400/1_4W%23YAG.pdf")
    (tags "Resistor Axial_DIN0204 series Axial Horizontal pin pitch 7.62mm 0.16666666666666666W = 1/6W length 3.6mm diameter 1.6mm")
    (path /5C30FE8A)
    (fp_text reference R4 (at 3.81 -1.86) (layer F.SilkS)
      (effects (font (size 1 1) (thickness 0.15)))
    )
    (fp_text value 10k (at 3.81 1.86) (layer F.Fab)
      (effects (font (size 1 1) (thickness 0.15)))
    )
    (fp_line (start 8.6 -1.15) (end -0.95 -1.15) (layer F.CrtYd) (width 0.05))
    (fp_line (start 8.6 1.15) (end 8.6 -1.15) (layer F.CrtYd) (width 0.05))
    (fp_line (start -0.95 1.15) (end 8.6 1.15) (layer F.CrtYd) (width 0.05))
    (fp_line (start -0.95 -1.15) (end -0.95 1.15) (layer F.CrtYd) (width 0.05))
    (fp_line (start 6.74 0) (end 5.67 0) (layer F.SilkS) (width 0.12))
    (fp_line (start 0.88 0) (end 1.95 0) (layer F.SilkS) (width 0.12))
    (fp_line (start 5.67 -0.86) (end 1.95 -0.86) (layer F.SilkS) (width 0.12))
    (fp_line (start 5.67 0.86) (end 5.67 -0.86) (layer F.SilkS) (width 0.12))
    (fp_line (start 1.95 0.86) (end 5.67 0.86) (layer F.SilkS) (width 0.12))
    (fp_line (start 1.95 -0.86) (end 1.95 0.86) (layer F.SilkS) (width 0.12))
    (fp_line (start 7.62 0) (end 5.61 0) (layer F.Fab) (width 0.1))
    (fp_line (start 0 0) (end 2.01 0) (layer F.Fab) (width 0.1))
    (fp_line (start 5.61 -0.8) (end 2.01 -0.8) (layer F.Fab) (width 0.1))
    (fp_line (start 5.61 0.8) (end 5.61 -0.8) (layer F.Fab) (width 0.1))
    (fp_line (start 2.01 0.8) (end 5.61 0.8) (layer F.Fab) (width 0.1))
    (fp_line (start 2.01 -0.8) (end 2.01 0.8) (layer F.Fab) (width 0.1))
    (pad 2 thru_hole oval (at 7.62 0) (size 1.4 1.4) (drill 0.7) (layers *.Cu *.Mask)
      (net 12 "Net-(Q1-Pad1)"))
    (pad 1 thru_hole circle (at 0 0) (size 1.4 1.4) (drill 0.7) (layers *.Cu *.Mask)
      (net 1 T0b))
    (model ${KISYS3DMOD}/Resistors_THT.3dshapes/R_Axial_DIN0204_L3.6mm_D1.6mm_P7.62mm_Horizontal.wrl
      (at (xyz 0 0 0))
      (scale (xyz 0.393701 0.393701 0.393701))
      (rotate (xyz 0 0 0))
    )
  )

  (module Pin_Headers:Pin_Header_Straight_1x02_Pitch2.54mm (layer F.Cu) (tedit 59650532) (tstamp 5C36C4B7)
    (at 122.3264 20.6756 270)
    (descr "Through hole straight pin header, 1x02, 2.54mm pitch, single row")
    (tags "Through hole pin header THT 1x02 2.54mm single row")
    (path /5C36E2C1)
    (fp_text reference J4 (at 0 -2.33 270) (layer F.SilkS)
      (effects (font (size 1 1) (thickness 0.15)))
    )
    (fp_text value Conn_01x02 (at 0 4.87 270) (layer F.Fab)
      (effects (font (size 1 1) (thickness 0.15)))
    )
    (fp_text user %R (at 0 1.27 180) (layer F.Fab)
      (effects (font (size 1 1) (thickness 0.15)))
    )
    (fp_line (start 1.8 -1.8) (end -1.8 -1.8) (layer F.CrtYd) (width 0.05))
    (fp_line (start 1.8 4.35) (end 1.8 -1.8) (layer F.CrtYd) (width 0.05))
    (fp_line (start -1.8 4.35) (end 1.8 4.35) (layer F.CrtYd) (width 0.05))
    (fp_line (start -1.8 -1.8) (end -1.8 4.35) (layer F.CrtYd) (width 0.05))
    (fp_line (start -1.33 -1.33) (end 0 -1.33) (layer F.SilkS) (width 0.12))
    (fp_line (start -1.33 0) (end -1.33 -1.33) (layer F.SilkS) (width 0.12))
    (fp_line (start -1.33 1.27) (end 1.33 1.27) (layer F.SilkS) (width 0.12))
    (fp_line (start 1.33 1.27) (end 1.33 3.87) (layer F.SilkS) (width 0.12))
    (fp_line (start -1.33 1.27) (end -1.33 3.87) (layer F.SilkS) (width 0.12))
    (fp_line (start -1.33 3.87) (end 1.33 3.87) (layer F.SilkS) (width 0.12))
    (fp_line (start -1.27 -0.635) (end -0.635 -1.27) (layer F.Fab) (width 0.1))
    (fp_line (start -1.27 3.81) (end -1.27 -0.635) (layer F.Fab) (width 0.1))
    (fp_line (start 1.27 3.81) (end -1.27 3.81) (layer F.Fab) (width 0.1))
    (fp_line (start 1.27 -1.27) (end 1.27 3.81) (layer F.Fab) (width 0.1))
    (fp_line (start -0.635 -1.27) (end 1.27 -1.27) (layer F.Fab) (width 0.1))
    (pad 2 thru_hole oval (at 0 2.54 270) (size 1.7 1.7) (drill 1) (layers *.Cu *.Mask)
      (net 7 T0a))
    (pad 1 thru_hole rect (at 0 0 270) (size 1.7 1.7) (drill 1) (layers *.Cu *.Mask)
      (net 1 T0b))
    (model ${KISYS3DMOD}/Pin_Headers.3dshapes/Pin_Header_Straight_1x02_Pitch2.54mm.wrl
      (at (xyz 0 0 0))
      (scale (xyz 1 1 1))
      (rotate (xyz 0 0 0))
    )
  )

  (module Capacitors_THT:CP_Radial_D8.0mm_P3.80mm (layer F.Cu) (tedit 597BC7C2) (tstamp 5C36CE8D)
    (at 82.8294 37.1094)
    (descr "CP, Radial series, Radial, pin pitch=3.80mm, , diameter=8mm, Electrolytic Capacitor")
    (tags "CP Radial series Radial pin pitch 3.80mm  diameter 8mm Electrolytic Capacitor")
    (path /5C3740C4)
    (fp_text reference C1 (at 1.9 -5.31) (layer F.SilkS)
      (effects (font (size 1 1) (thickness 0.15)))
    )
    (fp_text value CP (at 1.9 5.31) (layer F.Fab)
      (effects (font (size 1 1) (thickness 0.15)))
    )
    (fp_text user %R (at 1.9 0) (layer F.Fab)
      (effects (font (size 1 1) (thickness 0.15)))
    )
    (fp_line (start 6.25 -4.35) (end -2.45 -4.35) (layer F.CrtYd) (width 0.05))
    (fp_line (start 6.25 4.35) (end 6.25 -4.35) (layer F.CrtYd) (width 0.05))
    (fp_line (start -2.45 4.35) (end 6.25 4.35) (layer F.CrtYd) (width 0.05))
    (fp_line (start -2.45 -4.35) (end -2.45 4.35) (layer F.CrtYd) (width 0.05))
    (fp_line (start -1.6 -0.65) (end -1.6 0.65) (layer F.SilkS) (width 0.12))
    (fp_line (start -2.2 0) (end -1 0) (layer F.SilkS) (width 0.12))
    (fp_line (start 5.981 -0.246) (end 5.981 0.246) (layer F.SilkS) (width 0.12))
    (fp_line (start 5.941 -0.598) (end 5.941 0.598) (layer F.SilkS) (width 0.12))
    (fp_line (start 5.901 -0.814) (end 5.901 0.814) (layer F.SilkS) (width 0.12))
    (fp_line (start 5.861 -0.983) (end 5.861 0.983) (layer F.SilkS) (width 0.12))
    (fp_line (start 5.821 -1.127) (end 5.821 1.127) (layer F.SilkS) (width 0.12))
    (fp_line (start 5.781 -1.254) (end 5.781 1.254) (layer F.SilkS) (width 0.12))
    (fp_line (start 5.741 -1.369) (end 5.741 1.369) (layer F.SilkS) (width 0.12))
    (fp_line (start 5.701 -1.473) (end 5.701 1.473) (layer F.SilkS) (width 0.12))
    (fp_line (start 5.661 -1.57) (end 5.661 1.57) (layer F.SilkS) (width 0.12))
    (fp_line (start 5.621 -1.66) (end 5.621 1.66) (layer F.SilkS) (width 0.12))
    (fp_line (start 5.581 -1.745) (end 5.581 1.745) (layer F.SilkS) (width 0.12))
    (fp_line (start 5.541 -1.826) (end 5.541 1.826) (layer F.SilkS) (width 0.12))
    (fp_line (start 5.501 -1.902) (end 5.501 1.902) (layer F.SilkS) (width 0.12))
    (fp_line (start 5.461 -1.974) (end 5.461 1.974) (layer F.SilkS) (width 0.12))
    (fp_line (start 5.421 -2.043) (end 5.421 2.043) (layer F.SilkS) (width 0.12))
    (fp_line (start 5.381 -2.109) (end 5.381 2.109) (layer F.SilkS) (width 0.12))
    (fp_line (start 5.341 -2.173) (end 5.341 2.173) (layer F.SilkS) (width 0.12))
    (fp_line (start 5.301 -2.234) (end 5.301 2.234) (layer F.SilkS) (width 0.12))
    (fp_line (start 5.261 -2.293) (end 5.261 2.293) (layer F.SilkS) (width 0.12))
    (fp_line (start 5.221 -2.349) (end 5.221 2.349) (layer F.SilkS) (width 0.12))
    (fp_line (start 5.181 -2.404) (end 5.181 2.404) (layer F.SilkS) (width 0.12))
    (fp_line (start 5.141 -2.457) (end 5.141 2.457) (layer F.SilkS) (width 0.12))
    (fp_line (start 5.101 -2.508) (end 5.101 2.508) (layer F.SilkS) (width 0.12))
    (fp_line (start 5.061 -2.557) (end 5.061 2.557) (layer F.SilkS) (width 0.12))
    (fp_line (start 5.021 -2.605) (end 5.021 2.605) (layer F.SilkS) (width 0.12))
    (fp_line (start 4.981 -2.652) (end 4.981 2.652) (layer F.SilkS) (width 0.12))
    (fp_line (start 4.941 -2.697) (end 4.941 2.697) (layer F.SilkS) (width 0.12))
    (fp_line (start 4.901 -2.74) (end 4.901 2.74) (layer F.SilkS) (width 0.12))
    (fp_line (start 4.861 -2.783) (end 4.861 2.783) (layer F.SilkS) (width 0.12))
    (fp_line (start 4.821 -2.824) (end 4.821 2.824) (layer F.SilkS) (width 0.12))
    (fp_line (start 4.781 -2.865) (end 4.781 2.865) (layer F.SilkS) (width 0.12))
    (fp_line (start 4.741 0.98) (end 4.741 2.904) (layer F.SilkS) (width 0.12))
    (fp_line (start 4.741 -2.904) (end 4.741 -0.98) (layer F.SilkS) (width 0.12))
    (fp_line (start 4.701 0.98) (end 4.701 2.942) (layer F.SilkS) (width 0.12))
    (fp_line (start 4.701 -2.942) (end 4.701 -0.98) (layer F.SilkS) (width 0.12))
    (fp_line (start 4.661 0.98) (end 4.661 2.979) (layer F.SilkS) (width 0.12))
    (fp_line (start 4.661 -2.979) (end 4.661 -0.98) (layer F.SilkS) (width 0.12))
    (fp_line (start 4.621 0.98) (end 4.621 3.015) (layer F.SilkS) (width 0.12))
    (fp_line (start 4.621 -3.015) (end 4.621 -0.98) (layer F.SilkS) (width 0.12))
    (fp_line (start 4.581 0.98) (end 4.581 3.05) (layer F.SilkS) (width 0.12))
    (fp_line (start 4.581 -3.05) (end 4.581 -0.98) (layer F.SilkS) (width 0.12))
    (fp_line (start 4.541 0.98) (end 4.541 3.084) (layer F.SilkS) (width 0.12))
    (fp_line (start 4.541 -3.084) (end 4.541 -0.98) (layer F.SilkS) (width 0.12))
    (fp_line (start 4.501 0.98) (end 4.501 3.118) (layer F.SilkS) (width 0.12))
    (fp_line (start 4.501 -3.118) (end 4.501 -0.98) (layer F.SilkS) (width 0.12))
    (fp_line (start 4.461 0.98) (end 4.461 3.15) (layer F.SilkS) (width 0.12))
    (fp_line (start 4.461 -3.15) (end 4.461 -0.98) (layer F.SilkS) (width 0.12))
    (fp_line (start 4.421 0.98) (end 4.421 3.182) (layer F.SilkS) (width 0.12))
    (fp_line (start 4.421 -3.182) (end 4.421 -0.98) (layer F.SilkS) (width 0.12))
    (fp_line (start 4.381 0.98) (end 4.381 3.213) (layer F.SilkS) (width 0.12))
    (fp_line (start 4.381 -3.213) (end 4.381 -0.98) (layer F.SilkS) (width 0.12))
    (fp_line (start 4.341 0.98) (end 4.341 3.243) (layer F.SilkS) (width 0.12))
    (fp_line (start 4.341 -3.243) (end 4.341 -0.98) (layer F.SilkS) (width 0.12))
    (fp_line (start 4.301 0.98) (end 4.301 3.272) (layer F.SilkS) (width 0.12))
    (fp_line (start 4.301 -3.272) (end 4.301 -0.98) (layer F.SilkS) (width 0.12))
    (fp_line (start 4.261 0.98) (end 4.261 3.301) (layer F.SilkS) (width 0.12))
    (fp_line (start 4.261 -3.301) (end 4.261 -0.98) (layer F.SilkS) (width 0.12))
    (fp_line (start 4.221 0.98) (end 4.221 3.329) (layer F.SilkS) (width 0.12))
    (fp_line (start 4.221 -3.329) (end 4.221 -0.98) (layer F.SilkS) (width 0.12))
    (fp_line (start 4.181 0.98) (end 4.181 3.356) (layer F.SilkS) (width 0.12))
    (fp_line (start 4.181 -3.356) (end 4.181 -0.98) (layer F.SilkS) (width 0.12))
    (fp_line (start 4.141 0.98) (end 4.141 3.383) (layer F.SilkS) (width 0.12))
    (fp_line (start 4.141 -3.383) (end 4.141 -0.98) (layer F.SilkS) (width 0.12))
    (fp_line (start 4.101 0.98) (end 4.101 3.408) (layer F.SilkS) (width 0.12))
    (fp_line (start 4.101 -3.408) (end 4.101 -0.98) (layer F.SilkS) (width 0.12))
    (fp_line (start 4.061 0.98) (end 4.061 3.434) (layer F.SilkS) (width 0.12))
    (fp_line (start 4.061 -3.434) (end 4.061 -0.98) (layer F.SilkS) (width 0.12))
    (fp_line (start 4.021 0.98) (end 4.021 3.458) (layer F.SilkS) (width 0.12))
    (fp_line (start 4.021 -3.458) (end 4.021 -0.98) (layer F.SilkS) (width 0.12))
    (fp_line (start 3.981 0.98) (end 3.981 3.482) (layer F.SilkS) (width 0.12))
    (fp_line (start 3.981 -3.482) (end 3.981 -0.98) (layer F.SilkS) (width 0.12))
    (fp_line (start 3.941 0.98) (end 3.941 3.505) (layer F.SilkS) (width 0.12))
    (fp_line (start 3.941 -3.505) (end 3.941 -0.98) (layer F.SilkS) (width 0.12))
    (fp_line (start 3.901 0.98) (end 3.901 3.528) (layer F.SilkS) (width 0.12))
    (fp_line (start 3.901 -3.528) (end 3.901 -0.98) (layer F.SilkS) (width 0.12))
    (fp_line (start 3.861 0.98) (end 3.861 3.55) (layer F.SilkS) (width 0.12))
    (fp_line (start 3.861 -3.55) (end 3.861 -0.98) (layer F.SilkS) (width 0.12))
    (fp_line (start 3.821 0.98) (end 3.821 3.572) (layer F.SilkS) (width 0.12))
    (fp_line (start 3.821 -3.572) (end 3.821 -0.98) (layer F.SilkS) (width 0.12))
    (fp_line (start 3.781 0.98) (end 3.781 3.593) (layer F.SilkS) (width 0.12))
    (fp_line (start 3.781 -3.593) (end 3.781 -0.98) (layer F.SilkS) (width 0.12))
    (fp_line (start 3.741 0.98) (end 3.741 3.613) (layer F.SilkS) (width 0.12))
    (fp_line (start 3.741 -3.613) (end 3.741 -0.98) (layer F.SilkS) (width 0.12))
    (fp_line (start 3.701 0.98) (end 3.701 3.633) (layer F.SilkS) (width 0.12))
    (fp_line (start 3.701 -3.633) (end 3.701 -0.98) (layer F.SilkS) (width 0.12))
    (fp_line (start 3.661 0.98) (end 3.661 3.652) (layer F.SilkS) (width 0.12))
    (fp_line (start 3.661 -3.652) (end 3.661 -0.98) (layer F.SilkS) (width 0.12))
    (fp_line (start 3.621 0.98) (end 3.621 3.671) (layer F.SilkS) (width 0.12))
    (fp_line (start 3.621 -3.671) (end 3.621 -0.98) (layer F.SilkS) (width 0.12))
    (fp_line (start 3.581 0.98) (end 3.581 3.69) (layer F.SilkS) (width 0.12))
    (fp_line (start 3.581 -3.69) (end 3.581 -0.98) (layer F.SilkS) (width 0.12))
    (fp_line (start 3.541 0.98) (end 3.541 3.707) (layer F.SilkS) (width 0.12))
    (fp_line (start 3.541 -3.707) (end 3.541 -0.98) (layer F.SilkS) (width 0.12))
    (fp_line (start 3.501 0.98) (end 3.501 3.725) (layer F.SilkS) (width 0.12))
    (fp_line (start 3.501 -3.725) (end 3.501 -0.98) (layer F.SilkS) (width 0.12))
    (fp_line (start 3.461 0.98) (end 3.461 3.741) (layer F.SilkS) (width 0.12))
    (fp_line (start 3.461 -3.741) (end 3.461 -0.98) (layer F.SilkS) (width 0.12))
    (fp_line (start 3.421 0.98) (end 3.421 3.758) (layer F.SilkS) (width 0.12))
    (fp_line (start 3.421 -3.758) (end 3.421 -0.98) (layer F.SilkS) (width 0.12))
    (fp_line (start 3.381 0.98) (end 3.381 3.773) (layer F.SilkS) (width 0.12))
    (fp_line (start 3.381 -3.773) (end 3.381 -0.98) (layer F.SilkS) (width 0.12))
    (fp_line (start 3.341 0.98) (end 3.341 3.789) (layer F.SilkS) (width 0.12))
    (fp_line (start 3.341 -3.789) (end 3.341 -0.98) (layer F.SilkS) (width 0.12))
    (fp_line (start 3.301 0.98) (end 3.301 3.803) (layer F.SilkS) (width 0.12))
    (fp_line (start 3.301 -3.803) (end 3.301 -0.98) (layer F.SilkS) (width 0.12))
    (fp_line (start 3.261 0.98) (end 3.261 3.818) (layer F.SilkS) (width 0.12))
    (fp_line (start 3.261 -3.818) (end 3.261 -0.98) (layer F.SilkS) (width 0.12))
    (fp_line (start 3.221 0.98) (end 3.221 3.832) (layer F.SilkS) (width 0.12))
    (fp_line (start 3.221 -3.832) (end 3.221 -0.98) (layer F.SilkS) (width 0.12))
    (fp_line (start 3.181 0.98) (end 3.181 3.845) (layer F.SilkS) (width 0.12))
    (fp_line (start 3.181 -3.845) (end 3.181 -0.98) (layer F.SilkS) (width 0.12))
    (fp_line (start 3.141 0.98) (end 3.141 3.858) (layer F.SilkS) (width 0.12))
    (fp_line (start 3.141 -3.858) (end 3.141 -0.98) (layer F.SilkS) (width 0.12))
    (fp_line (start 3.101 0.98) (end 3.101 3.87) (layer F.SilkS) (width 0.12))
    (fp_line (start 3.101 -3.87) (end 3.101 -0.98) (layer F.SilkS) (width 0.12))
    (fp_line (start 3.061 0.98) (end 3.061 3.883) (layer F.SilkS) (width 0.12))
    (fp_line (start 3.061 -3.883) (end 3.061 -0.98) (layer F.SilkS) (width 0.12))
    (fp_line (start 3.021 0.98) (end 3.021 3.894) (layer F.SilkS) (width 0.12))
    (fp_line (start 3.021 -3.894) (end 3.021 -0.98) (layer F.SilkS) (width 0.12))
    (fp_line (start 2.981 0.98) (end 2.981 3.905) (layer F.SilkS) (width 0.12))
    (fp_line (start 2.981 -3.905) (end 2.981 -0.98) (layer F.SilkS) (width 0.12))
    (fp_line (start 2.941 0.98) (end 2.941 3.916) (layer F.SilkS) (width 0.12))
    (fp_line (start 2.941 -3.916) (end 2.941 -0.98) (layer F.SilkS) (width 0.12))
    (fp_line (start 2.901 0.98) (end 2.901 3.926) (layer F.SilkS) (width 0.12))
    (fp_line (start 2.901 -3.926) (end 2.901 -0.98) (layer F.SilkS) (width 0.12))
    (fp_line (start 2.861 0.98) (end 2.861 3.936) (layer F.SilkS) (width 0.12))
    (fp_line (start 2.861 -3.936) (end 2.861 -0.98) (layer F.SilkS) (width 0.12))
    (fp_line (start 2.821 0.98) (end 2.821 3.946) (layer F.SilkS) (width 0.12))
    (fp_line (start 2.821 -3.946) (end 2.821 -0.98) (layer F.SilkS) (width 0.12))
    (fp_line (start 2.781 -3.955) (end 2.781 3.955) (layer F.SilkS) (width 0.12))
    (fp_line (start 2.741 -3.963) (end 2.741 3.963) (layer F.SilkS) (width 0.12))
    (fp_line (start 2.701 -3.971) (end 2.701 3.971) (layer F.SilkS) (width 0.12))
    (fp_line (start 2.661 -3.979) (end 2.661 3.979) (layer F.SilkS) (width 0.12))
    (fp_line (start 2.621 -3.987) (end 2.621 3.987) (layer F.SilkS) (width 0.12))
    (fp_line (start 2.58 -3.994) (end 2.58 3.994) (layer F.SilkS) (width 0.12))
    (fp_line (start 2.54 -4) (end 2.54 4) (layer F.SilkS) (width 0.12))
    (fp_line (start 2.5 -4.006) (end 2.5 4.006) (layer F.SilkS) (width 0.12))
    (fp_line (start 2.46 -4.012) (end 2.46 4.012) (layer F.SilkS) (width 0.12))
    (fp_line (start 2.42 -4.017) (end 2.42 4.017) (layer F.SilkS) (width 0.12))
    (fp_line (start 2.38 -4.022) (end 2.38 4.022) (layer F.SilkS) (width 0.12))
    (fp_line (start 2.34 -4.027) (end 2.34 4.027) (layer F.SilkS) (width 0.12))
    (fp_line (start 2.3 -4.031) (end 2.3 4.031) (layer F.SilkS) (width 0.12))
    (fp_line (start 2.26 -4.035) (end 2.26 4.035) (layer F.SilkS) (width 0.12))
    (fp_line (start 2.22 -4.038) (end 2.22 4.038) (layer F.SilkS) (width 0.12))
    (fp_line (start 2.18 -4.041) (end 2.18 4.041) (layer F.SilkS) (width 0.12))
    (fp_line (start 2.14 -4.043) (end 2.14 4.043) (layer F.SilkS) (width 0.12))
    (fp_line (start 2.1 -4.046) (end 2.1 4.046) (layer F.SilkS) (width 0.12))
    (fp_line (start 2.06 -4.047) (end 2.06 4.047) (layer F.SilkS) (width 0.12))
    (fp_line (start 2.02 -4.049) (end 2.02 4.049) (layer F.SilkS) (width 0.12))
    (fp_line (start 1.98 -4.05) (end 1.98 4.05) (layer F.SilkS) (width 0.12))
    (fp_line (start 1.94 -4.05) (end 1.94 4.05) (layer F.SilkS) (width 0.12))
    (fp_line (start 1.9 -4.05) (end 1.9 4.05) (layer F.SilkS) (width 0.12))
    (fp_line (start -1.6 -0.65) (end -1.6 0.65) (layer F.Fab) (width 0.1))
    (fp_line (start -2.2 0) (end -1 0) (layer F.Fab) (width 0.1))
    (fp_circle (center 1.9 0) (end 5.99 0) (layer F.SilkS) (width 0.12))
    (fp_circle (center 1.9 0) (end 5.9 0) (layer F.Fab) (width 0.1))
    (pad 2 thru_hole circle (at 3.8 0) (size 1.6 1.6) (drill 0.8) (layers *.Cu *.Mask)
      (net 1 T0b))
    (pad 1 thru_hole rect (at 0 0) (size 1.6 1.6) (drill 0.8) (layers *.Cu *.Mask)
      (net 2 12v))
    (model ${KISYS3DMOD}/Capacitors_THT.3dshapes/CP_Radial_D8.0mm_P3.80mm.wrl
      (at (xyz 0 0 0))
      (scale (xyz 1 1 1))
      (rotate (xyz 0 0 0))
    )
  )

  (module Pin_Headers:Pin_Header_Straight_1x02_Pitch2.54mm (layer F.Cu) (tedit 59650532) (tstamp 5C36FC95)
    (at 75.3364 36.1442)
    (descr "Through hole straight pin header, 1x02, 2.54mm pitch, single row")
    (tags "Through hole pin header THT 1x02 2.54mm single row")
    (path /5C383C5C)
    (fp_text reference J2 (at 0 -2.33) (layer F.SilkS)
      (effects (font (size 1 1) (thickness 0.15)))
    )
    (fp_text value Conn_01x02 (at 0 4.87) (layer F.Fab)
      (effects (font (size 1 1) (thickness 0.15)))
    )
    (fp_line (start -0.635 -1.27) (end 1.27 -1.27) (layer F.Fab) (width 0.1))
    (fp_line (start 1.27 -1.27) (end 1.27 3.81) (layer F.Fab) (width 0.1))
    (fp_line (start 1.27 3.81) (end -1.27 3.81) (layer F.Fab) (width 0.1))
    (fp_line (start -1.27 3.81) (end -1.27 -0.635) (layer F.Fab) (width 0.1))
    (fp_line (start -1.27 -0.635) (end -0.635 -1.27) (layer F.Fab) (width 0.1))
    (fp_line (start -1.33 3.87) (end 1.33 3.87) (layer F.SilkS) (width 0.12))
    (fp_line (start -1.33 1.27) (end -1.33 3.87) (layer F.SilkS) (width 0.12))
    (fp_line (start 1.33 1.27) (end 1.33 3.87) (layer F.SilkS) (width 0.12))
    (fp_line (start -1.33 1.27) (end 1.33 1.27) (layer F.SilkS) (width 0.12))
    (fp_line (start -1.33 0) (end -1.33 -1.33) (layer F.SilkS) (width 0.12))
    (fp_line (start -1.33 -1.33) (end 0 -1.33) (layer F.SilkS) (width 0.12))
    (fp_line (start -1.8 -1.8) (end -1.8 4.35) (layer F.CrtYd) (width 0.05))
    (fp_line (start -1.8 4.35) (end 1.8 4.35) (layer F.CrtYd) (width 0.05))
    (fp_line (start 1.8 4.35) (end 1.8 -1.8) (layer F.CrtYd) (width 0.05))
    (fp_line (start 1.8 -1.8) (end -1.8 -1.8) (layer F.CrtYd) (width 0.05))
    (fp_text user %R (at 0 1.27 90) (layer F.Fab)
      (effects (font (size 1 1) (thickness 0.15)))
    )
    (pad 1 thru_hole rect (at 0 0) (size 1.7 1.7) (drill 1) (layers *.Cu *.Mask)
      (net 1 T0b))
    (pad 2 thru_hole oval (at 0 2.54) (size 1.7 1.7) (drill 1) (layers *.Cu *.Mask)
      (net 2 12v))
    (model ${KISYS3DMOD}/Pin_Headers.3dshapes/Pin_Header_Straight_1x02_Pitch2.54mm.wrl
      (at (xyz 0 0 0))
      (scale (xyz 1 1 1))
      (rotate (xyz 0 0 0))
    )
  )

  (module Pin_Headers:Pin_Header_Straight_1x02_Pitch2.54mm (layer F.Cu) (tedit 59650532) (tstamp 5C36FCBF)
    (at 128.4224 26.4414)
    (descr "Through hole straight pin header, 1x02, 2.54mm pitch, single row")
    (tags "Through hole pin header THT 1x02 2.54mm single row")
    (path /5C37D39D)
    (fp_text reference J6 (at 0 -2.33) (layer F.SilkS)
      (effects (font (size 1 1) (thickness 0.15)))
    )
    (fp_text value Conn_01x02 (at 0 4.87) (layer F.Fab)
      (effects (font (size 1 1) (thickness 0.15)))
    )
    (fp_text user %R (at 0 1.27 90) (layer F.Fab)
      (effects (font (size 1 1) (thickness 0.15)))
    )
    (fp_line (start 1.8 -1.8) (end -1.8 -1.8) (layer F.CrtYd) (width 0.05))
    (fp_line (start 1.8 4.35) (end 1.8 -1.8) (layer F.CrtYd) (width 0.05))
    (fp_line (start -1.8 4.35) (end 1.8 4.35) (layer F.CrtYd) (width 0.05))
    (fp_line (start -1.8 -1.8) (end -1.8 4.35) (layer F.CrtYd) (width 0.05))
    (fp_line (start -1.33 -1.33) (end 0 -1.33) (layer F.SilkS) (width 0.12))
    (fp_line (start -1.33 0) (end -1.33 -1.33) (layer F.SilkS) (width 0.12))
    (fp_line (start -1.33 1.27) (end 1.33 1.27) (layer F.SilkS) (width 0.12))
    (fp_line (start 1.33 1.27) (end 1.33 3.87) (layer F.SilkS) (width 0.12))
    (fp_line (start -1.33 1.27) (end -1.33 3.87) (layer F.SilkS) (width 0.12))
    (fp_line (start -1.33 3.87) (end 1.33 3.87) (layer F.SilkS) (width 0.12))
    (fp_line (start -1.27 -0.635) (end -0.635 -1.27) (layer F.Fab) (width 0.1))
    (fp_line (start -1.27 3.81) (end -1.27 -0.635) (layer F.Fab) (width 0.1))
    (fp_line (start 1.27 3.81) (end -1.27 3.81) (layer F.Fab) (width 0.1))
    (fp_line (start 1.27 -1.27) (end 1.27 3.81) (layer F.Fab) (width 0.1))
    (fp_line (start -0.635 -1.27) (end 1.27 -1.27) (layer F.Fab) (width 0.1))
    (pad 2 thru_hole oval (at 0 2.54) (size 1.7 1.7) (drill 1) (layers *.Cu *.Mask)
      (net 3 5v))
    (pad 1 thru_hole rect (at 0 0) (size 1.7 1.7) (drill 1) (layers *.Cu *.Mask)
      (net 1 T0b))
    (model ${KISYS3DMOD}/Pin_Headers.3dshapes/Pin_Header_Straight_1x02_Pitch2.54mm.wrl
      (at (xyz 0 0 0))
      (scale (xyz 1 1 1))
      (rotate (xyz 0 0 0))
    )
  )

  (module Pin_Headers:Pin_Header_Straight_1x03_Pitch2.54mm (layer F.Cu) (tedit 59650532) (tstamp 5C36FF31)
    (at 106.426 20.6756 90)
    (descr "Through hole straight pin header, 1x03, 2.54mm pitch, single row")
    (tags "Through hole pin header THT 1x03 2.54mm single row")
    (path /5C388719)
    (fp_text reference J5 (at 0 -2.33 90) (layer F.SilkS)
      (effects (font (size 1 1) (thickness 0.15)))
    )
    (fp_text value Conn_01x03 (at 0 7.41 90) (layer F.Fab)
      (effects (font (size 1 1) (thickness 0.15)))
    )
    (fp_text user %R (at 0 2.54 180) (layer F.Fab)
      (effects (font (size 1 1) (thickness 0.15)))
    )
    (fp_line (start 1.8 -1.8) (end -1.8 -1.8) (layer F.CrtYd) (width 0.05))
    (fp_line (start 1.8 6.85) (end 1.8 -1.8) (layer F.CrtYd) (width 0.05))
    (fp_line (start -1.8 6.85) (end 1.8 6.85) (layer F.CrtYd) (width 0.05))
    (fp_line (start -1.8 -1.8) (end -1.8 6.85) (layer F.CrtYd) (width 0.05))
    (fp_line (start -1.33 -1.33) (end 0 -1.33) (layer F.SilkS) (width 0.12))
    (fp_line (start -1.33 0) (end -1.33 -1.33) (layer F.SilkS) (width 0.12))
    (fp_line (start -1.33 1.27) (end 1.33 1.27) (layer F.SilkS) (width 0.12))
    (fp_line (start 1.33 1.27) (end 1.33 6.41) (layer F.SilkS) (width 0.12))
    (fp_line (start -1.33 1.27) (end -1.33 6.41) (layer F.SilkS) (width 0.12))
    (fp_line (start -1.33 6.41) (end 1.33 6.41) (layer F.SilkS) (width 0.12))
    (fp_line (start -1.27 -0.635) (end -0.635 -1.27) (layer F.Fab) (width 0.1))
    (fp_line (start -1.27 6.35) (end -1.27 -0.635) (layer F.Fab) (width 0.1))
    (fp_line (start 1.27 6.35) (end -1.27 6.35) (layer F.Fab) (width 0.1))
    (fp_line (start 1.27 -1.27) (end 1.27 6.35) (layer F.Fab) (width 0.1))
    (fp_line (start -0.635 -1.27) (end 1.27 -1.27) (layer F.Fab) (width 0.1))
    (pad 3 thru_hole oval (at 0 5.08 90) (size 1.7 1.7) (drill 1) (layers *.Cu *.Mask)
      (net 15 "Net-(J5-Pad3)"))
    (pad 2 thru_hole oval (at 0 2.54 90) (size 1.7 1.7) (drill 1) (layers *.Cu *.Mask)
      (net 1 T0b))
    (pad 1 thru_hole rect (at 0 0 90) (size 1.7 1.7) (drill 1) (layers *.Cu *.Mask)
      (net 14 pwm0))
    (model ${KISYS3DMOD}/Pin_Headers.3dshapes/Pin_Header_Straight_1x03_Pitch2.54mm.wrl
      (at (xyz 0 0 0))
      (scale (xyz 1 1 1))
      (rotate (xyz 0 0 0))
    )
  )

  (gr_line (start 131.2418 17.6022) (end 131.2418 60.706) (layer Edge.Cuts) (width 0.15))
  (gr_line (start 69.977 17.5768) (end 131.2418 17.6022) (layer Edge.Cuts) (width 0.15))
  (gr_line (start 69.9008 60.6552) (end 69.977 17.5768) (layer Edge.Cuts) (width 0.15))
  (gr_line (start 131.2418 60.706) (end 69.9008 60.6552) (layer Edge.Cuts) (width 0.15))

  (segment (start 122.3264 33.401) (end 122.0216 33.7058) (width 2) (layer B.Cu) (net 1) (status 30))
  (segment (start 122.3264 20.6756) (end 122.3264 33.401) (width 2) (layer B.Cu) (net 1) (status 30))
  (segment (start 125.1764 20.6756) (end 127.9704 23.4696) (width 2) (layer B.Cu) (net 1))
  (segment (start 122.3264 20.6756) (end 125.1764 20.6756) (width 2) (layer B.Cu) (net 1))
  (segment (start 128.4224 23.5914) (end 128.4224 26.4414) (width 2) (layer B.Cu) (net 1))
  (segment (start 128.3006 23.4696) (end 128.4224 23.5914) (width 2) (layer B.Cu) (net 1))
  (segment (start 127.9704 23.4696) (end 128.3006 23.4696) (width 2) (layer B.Cu) (net 1))
  (segment (start 82.8294 34.3094) (end 86.9188 30.22) (width 2) (layer B.Cu) (net 2))
  (segment (start 82.8294 37.1094) (end 82.8294 34.3094) (width 2) (layer B.Cu) (net 2) (status 10))
  (segment (start 86.9188 30.22) (end 86.9188 24.9428) (width 2) (layer B.Cu) (net 2))
  (segment (start 85.9282 23.9522) (end 84.2772 23.9522) (width 2) (layer B.Cu) (net 2) (status 30))
  (segment (start 86.9188 24.9428) (end 85.9282 23.9522) (width 2) (layer B.Cu) (net 2) (status 20))
  (segment (start 82.55 36.83) (end 82.8294 37.1094) (width 2) (layer B.Cu) (net 2) (status 30))
  (segment (start 81.2546 38.6842) (end 82.8294 37.1094) (width 2) (layer B.Cu) (net 2) (status 20))
  (segment (start 75.3364 38.6842) (end 81.2546 38.6842) (width 2) (layer B.Cu) (net 2) (status 10))
  (segment (start 99.0092 36.6066) (end 99.0092 33.7566) (width 2) (layer B.Cu) (net 2) (status 20))
  (segment (start 95.814 39.8018) (end 99.0092 36.6066) (width 2) (layer B.Cu) (net 2))
  (segment (start 82.3722 39.8018) (end 95.814 39.8018) (width 2) (layer B.Cu) (net 2))
  (segment (start 81.2546 38.6842) (end 82.3722 39.8018) (width 2) (layer B.Cu) (net 2))
  (segment (start 119.1514 54.3306) (end 119.1514 51.7906) (width 2) (layer B.Cu) (net 3) (status 30))
  (segment (start 119.1514 54.3306) (end 119.1514 56.8706) (width 2) (layer B.Cu) (net 3) (tstamp 5BE4EAF2) (status 30))
  (segment (start 126.4158 28.9814) (end 128.4224 28.9814) (width 2) (layer B.Cu) (net 3))
  (segment (start 124.6124 27.178) (end 126.4158 28.9814) (width 2) (layer B.Cu) (net 3))
  (segment (start 83.8454 56.8706) (end 74.2188 56.8706) (width 2) (layer B.Cu) (net 4) (status 30))
  (segment (start 74.2188 54.3306) (end 83.8454 54.3306) (width 2) (layer B.Cu) (net 5) (status 30))
  (segment (start 83.8454 51.7906) (end 74.2188 51.7906) (width 2) (layer B.Cu) (net 6) (status 30))
  (segment (start 119.7864 24.384) (end 116.9924 27.178) (width 2) (layer B.Cu) (net 7) (status 20))
  (segment (start 119.7864 20.6756) (end 119.7864 24.384) (width 2) (layer B.Cu) (net 7) (status 10))
  (segment (start 116.9924 31.2166) (end 119.4816 33.7058) (width 2) (layer B.Cu) (net 7) (status 20))
  (segment (start 116.9924 27.178) (end 116.9924 31.2166) (width 2) (layer B.Cu) (net 7) (status 10))
  (segment (start 95.8342 33.1216) (end 96.4692 33.7566) (width 2) (layer B.Cu) (net 8) (status 30))
  (segment (start 95.8342 23.7236) (end 95.8342 33.1216) (width 2) (layer B.Cu) (net 8) (status 30))
  (segment (start 104.3178 30.7848) (end 107.2896 33.7566) (width 2) (layer B.Cu) (net 9))
  (segment (start 104.3178 27.1526) (end 104.3178 30.7848) (width 2) (layer B.Cu) (net 9))
  (segment (start 111.5314 54.3306) (end 116.6114 54.3306) (width 2) (layer B.Cu) (net 10) (status 30))
  (segment (start 105.9434 54.3306) (end 111.5314 54.3306) (width 2) (layer B.Cu) (net 10) (status 30))
  (segment (start 111.5314 56.8706) (end 105.9434 56.8706) (width 2) (layer B.Cu) (net 11) (status 30))
  (segment (start 116.6114 56.8706) (end 111.5314 56.8706) (width 2) (layer B.Cu) (net 11) (status 30))
  (segment (start 98.3742 26.924) (end 99.7712 28.321) (width 2) (layer B.Cu) (net 12) (status 20))
  (segment (start 98.3742 23.7236) (end 98.3742 26.924) (width 2) (layer B.Cu) (net 12) (status 10))
  (segment (start 91.9734 19.6088) (end 95.5802 19.6088) (width 2) (layer B.Cu) (net 12) (status 10))
  (segment (start 98.3742 22.4028) (end 98.3742 23.7236) (width 2) (layer B.Cu) (net 12) (status 20))
  (segment (start 95.5802 19.6088) (end 98.3742 22.4028) (width 2) (layer B.Cu) (net 12))
  (segment (start 105.9434 51.7906) (end 111.5314 51.7906) (width 2) (layer B.Cu) (net 13) (status 30))
  (segment (start 111.5314 51.7906) (end 116.6114 51.7906) (width 2) (layer B.Cu) (net 13) (tstamp 5BE4EABB) (status 30))
  (segment (start 105.3592 19.6088) (end 106.426 20.6756) (width 2) (layer B.Cu) (net 14))
  (segment (start 99.5934 19.6088) (end 105.3592 19.6088) (width 2) (layer B.Cu) (net 14))
  (segment (start 103.4034 51.7906) (end 103.4034 54.3306) (width 2) (layer B.Cu) (net 1) (status 30))
  (segment (start 103.4034 54.3306) (end 103.4034 56.8706) (width 2) (layer B.Cu) (net 1) (status 30))
  (segment (start 103.4034 51.7906) (end 103.4034 50.3936) (width 2) (layer B.Cu) (net 1) (status 10))
  (segment (start 104.5464 49.2506) (end 111.5314 49.2506) (width 2) (layer B.Cu) (net 1) (status 20))
  (segment (start 103.4034 50.3936) (end 104.5464 49.2506) (width 2) (layer B.Cu) (net 1))
  (segment (start 108.966 20.6756) (end 108.966 30.0736) (width 2) (layer B.Cu) (net 1))
  (segment (start 109.8296 30.9372) (end 109.8296 33.7566) (width 2) (layer B.Cu) (net 1))
  (segment (start 108.966 30.0736) (end 109.8296 30.9372) (width 2) (layer B.Cu) (net 1))
  (segment (start 109.8296 33.7566) (end 113.792 33.7566) (width 2) (layer B.Cu) (net 1))
  (segment (start 113.792 33.7566) (end 116.8654 36.83) (width 2) (layer B.Cu) (net 1))
  (segment (start 122.0216 34.907881) (end 122.0216 33.7058) (width 2) (layer B.Cu) (net 1))
  (segment (start 120.099481 36.83) (end 122.0216 34.907881) (width 2) (layer B.Cu) (net 1))
  (segment (start 116.8654 36.83) (end 120.099481 36.83) (width 2) (layer B.Cu) (net 1))
  (segment (start 123.1492 49.2506) (end 124.343 50.4444) (width 2) (layer B.Cu) (net 1))
  (segment (start 111.5314 49.2506) (end 123.1492 49.2506) (width 2) (layer B.Cu) (net 1))
  (segment (start 122.0216 48.123) (end 123.1492 49.2506) (width 2) (layer B.Cu) (net 1))
  (segment (start 122.0216 34.907881) (end 122.0216 48.123) (width 2) (layer B.Cu) (net 1))
  (segment (start 128.4224 50.165) (end 128.143 50.4444) (width 2) (layer B.Cu) (net 3))
  (segment (start 128.4224 28.9814) (end 128.4224 50.165) (width 2) (layer B.Cu) (net 3))
  (segment (start 119.1514 58.072681) (end 119.1514 56.8706) (width 2) (layer B.Cu) (net 3))
  (segment (start 118.153471 59.07061) (end 119.1514 58.072681) (width 2) (layer B.Cu) (net 3))
  (segment (start 94.867491 59.07061) (end 118.153471 59.07061) (width 2) (layer B.Cu) (net 3))
  (segment (start 85.047481 49.2506) (end 94.867491 59.07061) (width 2) (layer B.Cu) (net 3))
  (segment (start 83.8454 49.2506) (end 85.047481 49.2506) (width 2) (layer B.Cu) (net 3))
  (segment (start 128.143 53.2444) (end 128.143 50.4444) (width 2) (layer B.Cu) (net 3))
  (segment (start 123.314719 58.072681) (end 128.143 53.2444) (width 2) (layer B.Cu) (net 3))
  (segment (start 119.1514 58.072681) (end 123.314719 58.072681) (width 2) (layer B.Cu) (net 3))
  (segment (start 87.429399 33.042801) (end 92.1512 28.321) (width 2) (layer B.Cu) (net 1))
  (segment (start 86.6294 37.1094) (end 87.429399 36.309401) (width 2) (layer B.Cu) (net 1))
  (segment (start 87.429399 36.309401) (end 87.429399 33.042801) (width 2) (layer B.Cu) (net 1))
  (segment (start 93.2942 27.178) (end 92.1512 28.321) (width 2) (layer B.Cu) (net 1))
  (segment (start 93.2942 23.7236) (end 93.2942 27.178) (width 2) (layer B.Cu) (net 1))
  (segment (start 78.1772 26.7422) (end 80.4672 29.0322) (width 2) (layer B.Cu) (net 1))
  (segment (start 78.1772 23.9522) (end 78.1772 26.7422) (width 2) (layer B.Cu) (net 1))
  (segment (start 75.3364 34.163) (end 80.4672 29.0322) (width 2) (layer B.Cu) (net 1))
  (segment (start 75.3364 36.1442) (end 75.3364 34.163) (width 2) (layer B.Cu) (net 1))
  (segment (start 78.1772 20.558088) (end 78.643888 20.0914) (width 2) (layer B.Cu) (net 1))
  (segment (start 78.1772 23.9522) (end 78.1772 20.558088) (width 2) (layer B.Cu) (net 1))
  (segment (start 78.643888 20.0914) (end 78.8162 20.0914) (width 2) (layer B.Cu) (net 1))
  (segment (start 78.8162 20.0914) (end 79.4512 19.4564) (width 2) (layer B.Cu) (net 1))
  (segment (start 79.4512 19.4564) (end 87.503 19.4564) (width 2) (layer B.Cu) (net 1))
  (segment (start 91.7702 23.7236) (end 93.2942 23.7236) (width 2) (layer B.Cu) (net 1))
  (segment (start 87.503 19.4564) (end 91.7702 23.7236) (width 2) (layer B.Cu) (net 1))
  (segment (start 75.3364 36.1442) (end 73.66 36.1442) (width 2) (layer B.Cu) (net 1))
  (segment (start 73.66 36.1442) (end 72.5678 37.2364) (width 2) (layer B.Cu) (net 1))
  (segment (start 72.5678 39.026883) (end 72.6186 39.077683) (width 2) (layer B.Cu) (net 1))
  (segment (start 72.5678 37.2364) (end 72.5678 39.026883) (width 2) (layer B.Cu) (net 1))
  (segment (start 72.6186 39.077683) (end 72.6186 40.259) (width 2) (layer B.Cu) (net 1))
  (segment (start 72.6186 40.259) (end 74.9808 42.6212) (width 2) (layer B.Cu) (net 1))
  (segment (start 116.5198 42.6212) (end 122.0216 48.123) (width 2) (layer B.Cu) (net 1))
  (segment (start 74.9808 42.6212) (end 116.5198 42.6212) (width 2) (layer B.Cu) (net 1))
  (segment (start 111.506 26.7208) (end 111.9378 27.1526) (width 2) (layer B.Cu) (net 15))
  (segment (start 111.506 20.6756) (end 111.506 26.7208) (width 2) (layer B.Cu) (net 15))

)
