G04 #@! TF.GenerationSoftware,KiCad,Pcbnew,(5.0.1)-3*
G04 #@! TF.CreationDate,2018-12-06T17:06:35-03:00*
G04 #@! TF.ProjectId,SensoresPCB,53656E736F7265735043422E6B696361,rev?*
G04 #@! TF.SameCoordinates,Original*
G04 #@! TF.FileFunction,Copper,L2,Bot,Signal*
G04 #@! TF.FilePolarity,Positive*
%FSLAX46Y46*%
G04 Gerber Fmt 4.6, Leading zero omitted, Abs format (unit mm)*
G04 Created by KiCad (PCBNEW (5.0.1)-3) date 06-12-2018 17:06:36*
%MOMM*%
%LPD*%
G01*
G04 APERTURE LIST*
G04 #@! TA.AperFunction,NonConductor*
%ADD10C,0.150000*%
G04 #@! TD*
G04 #@! TA.AperFunction,ComponentPad*
%ADD11R,1.700000X1.700000*%
G04 #@! TD*
G04 #@! TA.AperFunction,ComponentPad*
%ADD12O,1.700000X1.700000*%
G04 #@! TD*
G04 #@! TA.AperFunction,ComponentPad*
%ADD13C,1.400000*%
G04 #@! TD*
G04 #@! TA.AperFunction,ComponentPad*
%ADD14O,1.400000X1.400000*%
G04 #@! TD*
G04 #@! TA.AperFunction,ComponentPad*
%ADD15C,4.800000*%
G04 #@! TD*
G04 #@! TA.AperFunction,ComponentPad*
%ADD16R,4.800000X4.800000*%
G04 #@! TD*
G04 #@! TA.AperFunction,ComponentPad*
%ADD17R,1.800000X1.800000*%
G04 #@! TD*
G04 #@! TA.AperFunction,ComponentPad*
%ADD18O,1.800000X1.800000*%
G04 #@! TD*
G04 #@! TA.AperFunction,Conductor*
%ADD19C,2.000000*%
G04 #@! TD*
G04 APERTURE END LIST*
D10*
X131241800Y-17602200D02*
X131241800Y-60706000D01*
X69977000Y-17576800D02*
X131241800Y-17602200D01*
X69900800Y-60655200D02*
X69977000Y-17576800D01*
X131241800Y-60706000D02*
X69900800Y-60655200D01*
D11*
G04 #@! TO.P,J2,1*
G04 #@! TO.N,T0b*
X75361800Y-41910000D03*
D12*
G04 #@! TO.P,J2,2*
G04 #@! TO.N,5v*
X75361800Y-39370000D03*
G04 #@! TO.P,J2,3*
G04 #@! TO.N,12v*
X75361800Y-36830000D03*
G04 #@! TD*
D13*
G04 #@! TO.P,R2,1*
G04 #@! TO.N,Net-(J10-Pad2)*
X98780600Y-27609800D03*
D14*
G04 #@! TO.P,R2,2*
G04 #@! TO.N,UvLedA*
X106400600Y-27609800D03*
G04 #@! TD*
D13*
G04 #@! TO.P,R3,1*
G04 #@! TO.N,5v*
X98780600Y-33172400D03*
D14*
G04 #@! TO.P,R3,2*
G04 #@! TO.N,T0a*
X106400600Y-33172400D03*
G04 #@! TD*
D12*
G04 #@! TO.P,Led1,2*
G04 #@! TO.N,T0b*
X111480600Y-24968200D03*
D11*
G04 #@! TO.P,Led1,1*
G04 #@! TO.N,UvLedA*
X111480600Y-27508200D03*
G04 #@! TD*
D12*
G04 #@! TO.P,Therm1,2*
G04 #@! TO.N,T0b*
X111531400Y-35890200D03*
D11*
G04 #@! TO.P,Therm1,1*
G04 #@! TO.N,T0a*
X111531400Y-33350200D03*
G04 #@! TD*
D15*
G04 #@! TO.P,J1,2*
G04 #@! TO.N,T0b*
X79752000Y-25273000D03*
D16*
G04 #@! TO.P,J1,1*
G04 #@! TO.N,12v*
X85852000Y-25273000D03*
D15*
G04 #@! TO.P,J1,3*
G04 #@! TO.N,T0b*
X82042000Y-30353000D03*
G04 #@! TD*
D11*
G04 #@! TO.P,J3,1*
G04 #@! TO.N,S3*
X86944200Y-55346600D03*
D12*
G04 #@! TO.P,J3,2*
G04 #@! TO.N,S2*
X86944200Y-52806600D03*
G04 #@! TO.P,J3,3*
G04 #@! TO.N,out*
X86944200Y-50266600D03*
G04 #@! TO.P,J3,4*
G04 #@! TO.N,5v*
X86944200Y-47726600D03*
G04 #@! TD*
D11*
G04 #@! TO.P,J7,1*
G04 #@! TO.N,T0b*
X114630200Y-47726600D03*
D12*
G04 #@! TO.P,J7,2*
G04 #@! TO.N,OE*
X114630200Y-50266600D03*
G04 #@! TO.P,J7,3*
G04 #@! TO.N,S1*
X114630200Y-52806600D03*
G04 #@! TO.P,J7,4*
G04 #@! TO.N,S0*
X114630200Y-55346600D03*
G04 #@! TD*
D11*
G04 #@! TO.P,J8,1*
G04 #@! TO.N,S3*
X78790800Y-55346600D03*
D12*
G04 #@! TO.P,J8,2*
G04 #@! TO.N,S2*
X78790800Y-52806600D03*
G04 #@! TO.P,J8,3*
G04 #@! TO.N,out*
X78790800Y-50266600D03*
G04 #@! TD*
D11*
G04 #@! TO.P,J10,1*
G04 #@! TO.N,pwm0*
X94272100Y-25057100D03*
D12*
G04 #@! TO.P,J10,2*
G04 #@! TO.N,Net-(J10-Pad2)*
X94272100Y-27597100D03*
G04 #@! TO.P,J10,3*
G04 #@! TO.N,T0a*
X94272100Y-30137100D03*
G04 #@! TD*
D13*
G04 #@! TO.P,R1,1*
G04 #@! TO.N,Net-(Q1-Pad1)*
X125933200Y-24104600D03*
D14*
G04 #@! TO.P,R1,2*
G04 #@! TO.N,pwm0*
X118313200Y-24104600D03*
G04 #@! TD*
D17*
G04 #@! TO.P,Q1,1*
G04 #@! TO.N,Net-(Q1-Pad1)*
X124637800Y-30632400D03*
D18*
G04 #@! TO.P,Q1,2*
G04 #@! TO.N,Hb*
X122097800Y-30632400D03*
G04 #@! TO.P,Q1,3*
G04 #@! TO.N,T0b*
X119557800Y-30632400D03*
G04 #@! TD*
D11*
G04 #@! TO.P,J9,1*
G04 #@! TO.N,OE*
X119710200Y-50266600D03*
D12*
G04 #@! TO.P,J9,2*
G04 #@! TO.N,5v*
X122250200Y-50266600D03*
G04 #@! TO.P,J9,3*
G04 #@! TO.N,S1*
X119710200Y-52806600D03*
G04 #@! TO.P,J9,4*
G04 #@! TO.N,5v*
X122250200Y-52806600D03*
G04 #@! TO.P,J9,5*
G04 #@! TO.N,S0*
X119710200Y-55346600D03*
G04 #@! TO.P,J9,6*
G04 #@! TO.N,5v*
X122250200Y-55346600D03*
G04 #@! TD*
D11*
G04 #@! TO.P,J11,1*
G04 #@! TO.N,S0*
X109042200Y-55346600D03*
D12*
G04 #@! TO.P,J11,2*
G04 #@! TO.N,T0b*
X106502200Y-55346600D03*
G04 #@! TO.P,J11,3*
G04 #@! TO.N,S1*
X109042200Y-52806600D03*
G04 #@! TO.P,J11,4*
G04 #@! TO.N,T0b*
X106502200Y-52806600D03*
G04 #@! TO.P,J11,5*
G04 #@! TO.N,OE*
X109042200Y-50266600D03*
G04 #@! TO.P,J11,6*
G04 #@! TO.N,T0b*
X106502200Y-50266600D03*
G04 #@! TD*
D11*
G04 #@! TO.P,Heater1,1*
G04 #@! TO.N,12v*
X124714000Y-39344600D03*
D12*
G04 #@! TO.P,Heater1,2*
G04 #@! TO.N,Hb*
X122174000Y-39344600D03*
G04 #@! TD*
D19*
G04 #@! TO.N,T0b*
X106502200Y-50266600D02*
X106502200Y-48488600D01*
X107264200Y-47726600D02*
X114630200Y-47726600D01*
X106502200Y-48488600D02*
X107264200Y-47726600D01*
X106502200Y-52806600D02*
X106502200Y-50266600D01*
X106502200Y-55346600D02*
X106502200Y-52806600D01*
X119557800Y-30632400D02*
X119430800Y-30632400D01*
X79752000Y-28063000D02*
X82042000Y-30353000D01*
X79752000Y-25273000D02*
X79752000Y-28063000D01*
X78647888Y-30353000D02*
X75422088Y-33578800D01*
X82042000Y-30353000D02*
X78647888Y-30353000D01*
X73787000Y-33578800D02*
X72522010Y-34843790D01*
X75422088Y-33578800D02*
X73787000Y-33578800D01*
X102997000Y-58851800D02*
X106502200Y-55346600D01*
X75361800Y-41910000D02*
X72522010Y-41910000D01*
X72522010Y-34843790D02*
X72522010Y-41910000D01*
X113893600Y-24968200D02*
X119557800Y-30632400D01*
X111480600Y-24968200D02*
X113893600Y-24968200D01*
X102997000Y-58851800D02*
X124104400Y-58851800D01*
X124104400Y-58851800D02*
X125526800Y-57429400D01*
X125526800Y-57429400D02*
X125526800Y-46380400D01*
X119557800Y-40411400D02*
X119557800Y-30632400D01*
X125526800Y-46380400D02*
X119557800Y-40411400D01*
X115036600Y-35890200D02*
X119557800Y-40411400D01*
X111531400Y-35890200D02*
X115036600Y-35890200D01*
X79044800Y-58851800D02*
X102997000Y-58851800D01*
X75971400Y-58851800D02*
X79044800Y-58851800D01*
X72522010Y-41910000D02*
X72522010Y-55402410D01*
X72522010Y-55402410D02*
X75971400Y-58851800D01*
G04 #@! TO.N,12v*
X85852000Y-25273000D02*
X85852000Y-23139400D01*
X124714000Y-36494600D02*
X124714000Y-39344600D01*
X85852000Y-22733000D02*
X88620600Y-19964400D01*
X85852000Y-25273000D02*
X85852000Y-22733000D01*
X88620600Y-19964400D02*
X125831600Y-19964400D01*
X125831600Y-19964400D02*
X128828800Y-22529800D01*
X128828800Y-22529800D02*
X128930400Y-32943800D01*
X128930400Y-32943800D02*
X124714000Y-36494600D01*
X76563881Y-36830000D02*
X77300481Y-36093400D01*
X75361800Y-36830000D02*
X76563881Y-36830000D01*
X77300481Y-36093400D02*
X86614000Y-36093400D01*
X86614000Y-36093400D02*
X89331800Y-33375600D01*
X89331800Y-33375600D02*
X89331800Y-25654000D01*
X88950800Y-25273000D02*
X85852000Y-25273000D01*
X89331800Y-25654000D02*
X88950800Y-25273000D01*
G04 #@! TO.N,5v*
X122250200Y-52806600D02*
X122250200Y-50266600D01*
X122250200Y-52806600D02*
X122250200Y-55346600D01*
X75361800Y-39370000D02*
X82092800Y-39370000D01*
X86944200Y-44221400D02*
X86944200Y-47726600D01*
X82092800Y-39370000D02*
X86944200Y-44221400D01*
X86944200Y-47726600D02*
X97790000Y-47726600D01*
X97790000Y-47726600D02*
X106375200Y-39141400D01*
X106375200Y-39141400D02*
X113944400Y-39141400D01*
X122250200Y-47447200D02*
X122250200Y-50266600D01*
X113944400Y-39141400D02*
X122250200Y-47447200D01*
X100406200Y-33172400D02*
X106375200Y-39141400D01*
X98780600Y-33172400D02*
X100406200Y-33172400D01*
G04 #@! TO.N,S3*
X86944200Y-55346600D02*
X81991200Y-55346600D01*
X81991200Y-55346600D02*
X78790800Y-55346600D01*
G04 #@! TO.N,S2*
X81991200Y-52806600D02*
X86944200Y-52806600D01*
X78790800Y-52806600D02*
X81991200Y-52806600D01*
G04 #@! TO.N,out*
X86944200Y-50266600D02*
X81991200Y-50266600D01*
X81991200Y-50266600D02*
X78790800Y-50266600D01*
G04 #@! TO.N,T0a*
X103365300Y-30137100D02*
X106400600Y-33172400D01*
X94272100Y-30137100D02*
X103365300Y-30137100D01*
X111353600Y-33172400D02*
X111531400Y-33350200D01*
X106400600Y-33172400D02*
X111353600Y-33172400D01*
G04 #@! TO.N,Hb*
X122097800Y-39268400D02*
X122174000Y-39344600D01*
X122097800Y-30632400D02*
X122097800Y-39268400D01*
G04 #@! TO.N,UvLedA*
X111379000Y-27609800D02*
X111480600Y-27508200D01*
X106400600Y-27609800D02*
X111379000Y-27609800D01*
G04 #@! TO.N,S1*
X114630200Y-52806600D02*
X119710200Y-52806600D01*
X109042200Y-52806600D02*
X114630200Y-52806600D01*
G04 #@! TO.N,S0*
X114630200Y-55346600D02*
X109042200Y-55346600D01*
X119710200Y-55346600D02*
X114630200Y-55346600D01*
G04 #@! TO.N,Net-(J10-Pad2)*
X98767900Y-27597100D02*
X98780600Y-27609800D01*
X94272100Y-27597100D02*
X98767900Y-27597100D01*
G04 #@! TO.N,Net-(Q1-Pad1)*
X124637800Y-25400000D02*
X125633191Y-24404609D01*
X124637800Y-30632400D02*
X124637800Y-25400000D01*
G04 #@! TO.N,OE*
X109042200Y-50266600D02*
X114630200Y-50266600D01*
X114630200Y-50266600D02*
X119710200Y-50266600D01*
G04 #@! TO.N,pwm0*
X94272100Y-25057100D02*
X106184700Y-25057100D01*
X106184700Y-25057100D02*
X108813600Y-22428200D01*
X116636800Y-22428200D02*
X118313200Y-24104600D01*
X108813600Y-22428200D02*
X116636800Y-22428200D01*
G04 #@! TD*
M02*
