M48
;DRILL file {KiCad 4.0.7} date 04/12/18 01:17:04
;FORMAT={-:-/ absolute / metric / decimal}
FMAT,2
METRIC,TZ
T1C3.200
%
G90
G05
M71
T1
X70.993Y-99.568
X72.263Y-51.308
X123.063Y-66.548
X123.063Y-94.488
T0
M30
