G04 #@! TF.GenerationSoftware,KiCad,Pcbnew,(5.0.2)-1*
G04 #@! TF.CreationDate,2021-04-10T00:14:24-04:00*
G04 #@! TF.ProjectId,shield,73686965-6c64-42e6-9b69-6361645f7063,rev?*
G04 #@! TF.SameCoordinates,Original*
G04 #@! TF.FileFunction,Other,Fab,Bot*
%FSLAX46Y46*%
G04 Gerber Fmt 4.6, Leading zero omitted, Abs format (unit mm)*
G04 Created by KiCad (PCBNEW (5.0.2)-1) date 10/04/2021 12:14:24 a. m.*
%MOMM*%
%LPD*%
G01*
G04 APERTURE LIST*
%ADD10C,0.150000*%
G04 APERTURE END LIST*
D10*
X244043200Y-85471000D02*
X152501600Y-85293200D01*
X244094000Y-31953200D02*
X244043200Y-85471000D01*
X152654000Y-32004000D02*
X244094000Y-31953200D01*
X152501600Y-85293200D02*
X152654000Y-32004000D01*
M02*
