solid OpenSCAD_Model
  facet normal -1 0 0
    outer loop
      vertex 0 0 0
      vertex 0 20 13
      vertex 0 20 0
    endloop
  endfacet
  facet normal -1 -0 0
    outer loop
      vertex 0 20 13
      vertex 0 0 0
      vertex 0 0 13
    endloop
  endfacet
  facet normal -0 0 1
    outer loop
      vertex 0 20 13
      vertex 20 0 13
      vertex 20 20 13
    endloop
  endfacet
  facet normal 0 0 1
    outer loop
      vertex 20 0 13
      vertex 0 20 13
      vertex 0 0 13
    endloop
  endfacet
  facet normal 1 -0 0
    outer loop
      vertex 20 0 13
      vertex 20 20 0
      vertex 20 20 13
    endloop
  endfacet
  facet normal 1 0 0
    outer loop
      vertex 20 20 0
      vertex 20 0 13
      vertex 20 0 0
    endloop
  endfacet
  facet normal 0 1 -0
    outer loop
      vertex 20 20 0
      vertex 0 20 13
      vertex 20 20 13
    endloop
  endfacet
  facet normal 0 1 0
    outer loop
      vertex 0 20 13
      vertex 20 20 0
      vertex 0 20 0
    endloop
  endfacet
  facet normal 0 0 -1
    outer loop
      vertex 17.75 16.625 0
      vertex 20 0 0
      vertex 17.75 1.125 0
    endloop
  endfacet
  facet normal 0 0 -1
    outer loop
      vertex 20 0 0
      vertex 2.25 1.125 0
      vertex 17.75 1.125 0
    endloop
  endfacet
  facet normal -0 0 -1
    outer loop
      vertex 2.25 1.125 0
      vertex 0 0 0
      vertex 2.25 16.625 0
    endloop
  endfacet
  facet normal 0 0 -1
    outer loop
      vertex 0 0 0
      vertex 2.25 1.125 0
      vertex 20 0 0
    endloop
  endfacet
  facet normal 0 0 -1
    outer loop
      vertex 20 0 0
      vertex 17.75 16.625 0
      vertex 20 20 0
    endloop
  endfacet
  facet normal 0 0 -1
    outer loop
      vertex 2.25 16.625 0
      vertex 20 20 0
      vertex 17.75 16.625 0
    endloop
  endfacet
  facet normal 0 0 -1
    outer loop
      vertex 2.25 16.625 0
      vertex 0 20 0
      vertex 20 20 0
    endloop
  endfacet
  facet normal 0 0 -1
    outer loop
      vertex 0 20 0
      vertex 2.25 16.625 0
      vertex 0 0 0
    endloop
  endfacet
  facet normal 0 -1 0
    outer loop
      vertex 0 0 0
      vertex 20 0 13
      vertex 0 0 13
    endloop
  endfacet
  facet normal 0 -1 -0
    outer loop
      vertex 20 0 13
      vertex 0 0 0
      vertex 20 0 0
    endloop
  endfacet
  facet normal 1 -0 0
    outer loop
      vertex 2.25 1.125 10
      vertex 2.25 16.625 0
      vertex 2.25 16.625 10
    endloop
  endfacet
  facet normal 1 0 0
    outer loop
      vertex 2.25 16.625 0
      vertex 2.25 1.125 10
      vertex 2.25 1.125 0
    endloop
  endfacet
  facet normal 0 0 -1
    outer loop
      vertex 2.25 1.125 10
      vertex 17.75 16.625 10
      vertex 17.75 1.125 10
    endloop
  endfacet
  facet normal -0 0 -1
    outer loop
      vertex 17.75 16.625 10
      vertex 2.25 1.125 10
      vertex 2.25 16.625 10
    endloop
  endfacet
  facet normal -1 0 0
    outer loop
      vertex 17.75 1.125 0
      vertex 17.75 16.625 10
      vertex 17.75 16.625 0
    endloop
  endfacet
  facet normal -1 -0 0
    outer loop
      vertex 17.75 16.625 10
      vertex 17.75 1.125 0
      vertex 17.75 1.125 10
    endloop
  endfacet
  facet normal 0 -1 0
    outer loop
      vertex 2.25 16.625 0
      vertex 17.75 16.625 10
      vertex 2.25 16.625 10
    endloop
  endfacet
  facet normal 0 -1 -0
    outer loop
      vertex 17.75 16.625 10
      vertex 2.25 16.625 0
      vertex 17.75 16.625 0
    endloop
  endfacet
  facet normal 0 1 -0
    outer loop
      vertex 17.75 1.125 0
      vertex 2.25 1.125 10
      vertex 17.75 1.125 10
    endloop
  endfacet
  facet normal 0 1 0
    outer loop
      vertex 2.25 1.125 10
      vertex 17.75 1.125 0
      vertex 2.25 1.125 0
    endloop
  endfacet
endsolid OpenSCAD_Model
