solid OpenSCAD_Model
  facet normal 1 -0 0
    outer loop
      vertex -2.75 -2.75 8
      vertex -2.75 2.75 6
      vertex -2.75 2.75 8
    endloop
  endfacet
  facet normal 1 0 0
    outer loop
      vertex -2.75 2.75 6
      vertex -2.75 -2.75 8
      vertex -2.75 -2.75 6
    endloop
  endfacet
  facet normal -1 0 0
    outer loop
      vertex 2.75 -2.75 6
      vertex 2.75 2.75 8
      vertex 2.75 2.75 6
    endloop
  endfacet
  facet normal -1 -0 0
    outer loop
      vertex 2.75 2.75 8
      vertex 2.75 -2.75 6
      vertex 2.75 -2.75 8
    endloop
  endfacet
  facet normal 0 -1 0
    outer loop
      vertex -2.75 2.75 6
      vertex 2.75 2.75 8
      vertex -2.75 2.75 8
    endloop
  endfacet
  facet normal 0 -1 -0
    outer loop
      vertex 2.75 2.75 8
      vertex -2.75 2.75 6
      vertex 2.75 2.75 6
    endloop
  endfacet
  facet normal 0 0 -1
    outer loop
      vertex 14.5 -13.5 6
      vertex 2.75 -2.75 6
      vertex 14.5 13.5 6
    endloop
  endfacet
  facet normal 0 0 -1
    outer loop
      vertex 14.5 -13.5 6
      vertex -2.75 -2.75 6
      vertex 2.75 -2.75 6
    endloop
  endfacet
  facet normal -0 0 -1
    outer loop
      vertex -2.75 -2.75 6
      vertex -14.5 -13.5 6
      vertex -2.75 2.75 6
    endloop
  endfacet
  facet normal 0 0 -1
    outer loop
      vertex -14.5 -13.5 6
      vertex -2.75 -2.75 6
      vertex 14.5 -13.5 6
    endloop
  endfacet
  facet normal 0 0 -1
    outer loop
      vertex 2.75 2.75 6
      vertex 14.5 13.5 6
      vertex 2.75 -2.75 6
    endloop
  endfacet
  facet normal 0 0 -1
    outer loop
      vertex -2.75 2.75 6
      vertex 14.5 13.5 6
      vertex 2.75 2.75 6
    endloop
  endfacet
  facet normal 0 0 -1
    outer loop
      vertex -2.75 2.75 6
      vertex -14.5 13.5 6
      vertex 14.5 13.5 6
    endloop
  endfacet
  facet normal 0 0 -1
    outer loop
      vertex -14.5 13.5 6
      vertex -2.75 2.75 6
      vertex -14.5 -13.5 6
    endloop
  endfacet
  facet normal 0 1 -0
    outer loop
      vertex 2.75 -2.75 6
      vertex -2.75 -2.75 8
      vertex 2.75 -2.75 8
    endloop
  endfacet
  facet normal 0 1 0
    outer loop
      vertex -2.75 -2.75 8
      vertex 2.75 -2.75 6
      vertex -2.75 -2.75 6
    endloop
  endfacet
  facet normal 1 0 0
    outer loop
      vertex -14.5 13.5 6
      vertex -14.5 -2.5 0
      vertex -14.5 13.5 0
    endloop
  endfacet
  facet normal 1 -0 0
    outer loop
      vertex -14.5 -13.5 6
      vertex -14.5 -2.5 0
      vertex -14.5 13.5 6
    endloop
  endfacet
  facet normal 1 0 0
    outer loop
      vertex -14.5 -2.5 0
      vertex -14.5 -13.5 6
      vertex -14.5 -13.5 0
    endloop
  endfacet
  facet normal -1 0 0
    outer loop
      vertex 14.5 -2.5 0
      vertex 14.5 -13.5 0
      vertex 14.5 -2.5 1
    endloop
  endfacet
  facet normal -1 0 0
    outer loop
      vertex 14.5 2.5 1
      vertex 14.5 13.5 0
      vertex 14.5 2.5 0
    endloop
  endfacet
  facet normal -1 0 0
    outer loop
      vertex 14.5 13.5 0
      vertex 14.5 2.5 1
      vertex 14.5 13.5 6
    endloop
  endfacet
  facet normal -1 0 0
    outer loop
      vertex 14.5 -2.5 1
      vertex 14.5 13.5 6
      vertex 14.5 2.5 1
    endloop
  endfacet
  facet normal -1 0 0
    outer loop
      vertex 14.5 -13.5 6
      vertex 14.5 -2.5 1
      vertex 14.5 -13.5 0
    endloop
  endfacet
  facet normal -1 0 0
    outer loop
      vertex 14.5 -2.5 1
      vertex 14.5 -13.5 6
      vertex 14.5 13.5 6
    endloop
  endfacet
  facet normal 0 1 -0
    outer loop
      vertex 14.5 -13.5 0
      vertex -14.5 -13.5 6
      vertex 14.5 -13.5 6
    endloop
  endfacet
  facet normal 0 1 0
    outer loop
      vertex -14.5 -13.5 6
      vertex 14.5 -13.5 0
      vertex -14.5 -13.5 0
    endloop
  endfacet
  facet normal 0 -1 0
    outer loop
      vertex -14.5 13.5 0
      vertex 14.5 13.5 6
      vertex -14.5 13.5 6
    endloop
  endfacet
  facet normal 0 -1 -0
    outer loop
      vertex 14.5 13.5 6
      vertex -14.5 13.5 0
      vertex 14.5 13.5 0
    endloop
  endfacet
  facet normal -1 0 0
    outer loop
      vertex -15.5 -14.5 0
      vertex -15.5 14.5 15
      vertex -15.5 14.5 0
    endloop
  endfacet
  facet normal -1 -0 0
    outer loop
      vertex -15.5 14.5 15
      vertex -15.5 -14.5 0
      vertex -15.5 -14.5 15
    endloop
  endfacet
  facet normal 0 0 1
    outer loop
      vertex 15.5 14.5 15
      vertex 7.75 0 15
      vertex 15.5 -14.5 15
    endloop
  endfacet
  facet normal 0 0 1
    outer loop
      vertex 15.5 14.5 15
      vertex 7.73471 0.486626 15
      vertex 7.75 0 15
    endloop
  endfacet
  facet normal 0 0 1
    outer loop
      vertex 15.5 14.5 15
      vertex 7.68889 0.971333 15
      vertex 7.73471 0.486626 15
    endloop
  endfacet
  facet normal 0 0 1
    outer loop
      vertex 15.5 14.5 15
      vertex 7.61273 1.4522 15
      vertex 7.68889 0.971333 15
    endloop
  endfacet
  facet normal 0 0 1
    outer loop
      vertex 15.5 14.5 15
      vertex 7.50652 1.92735 15
      vertex 7.61273 1.4522 15
    endloop
  endfacet
  facet normal 0 0 1
    outer loop
      vertex 15.5 14.5 15
      vertex 7.37069 2.39488 15
      vertex 7.50652 1.92735 15
    endloop
  endfacet
  facet normal 0 0 1
    outer loop
      vertex 15.5 14.5 15
      vertex 7.20577 2.85296 15
      vertex 7.37069 2.39488 15
    endloop
  endfacet
  facet normal 0 0 1
    outer loop
      vertex 15.5 14.5 15
      vertex 7.01241 3.29979 15
      vertex 7.20577 2.85296 15
    endloop
  endfacet
  facet normal 0 0 1
    outer loop
      vertex 15.5 14.5 15
      vertex 6.79138 3.73359 15
      vertex 7.01241 3.29979 15
    endloop
  endfacet
  facet normal 0 0 1
    outer loop
      vertex 15.5 14.5 15
      vertex 6.54354 4.15266 15
      vertex 6.79138 3.73359 15
    endloop
  endfacet
  facet normal 0 0 1
    outer loop
      vertex 15.5 14.5 15
      vertex 6.26988 4.55534 15
      vertex 6.54354 4.15266 15
    endloop
  endfacet
  facet normal 0 0 1
    outer loop
      vertex 15.5 14.5 15
      vertex 5.97148 4.94004 15
      vertex 6.26988 4.55534 15
    endloop
  endfacet
  facet normal 0 0 1
    outer loop
      vertex 15.5 14.5 15
      vertex 5.64951 5.30524 15
      vertex 5.97148 4.94004 15
    endloop
  endfacet
  facet normal 0 0 1
    outer loop
      vertex 15.5 14.5 15
      vertex 5.30524 5.64951 15
      vertex 5.64951 5.30524 15
    endloop
  endfacet
  facet normal 0 0 1
    outer loop
      vertex 15.5 14.5 15
      vertex 4.94004 5.97148 15
      vertex 5.30524 5.64951 15
    endloop
  endfacet
  facet normal 0 0 1
    outer loop
      vertex 15.5 14.5 15
      vertex 4.55534 6.26988 15
      vertex 4.94004 5.97148 15
    endloop
  endfacet
  facet normal 0 0 1
    outer loop
      vertex 15.5 14.5 15
      vertex 4.15266 6.54354 15
      vertex 4.55534 6.26988 15
    endloop
  endfacet
  facet normal 0 0 1
    outer loop
      vertex 15.5 14.5 15
      vertex 3.73359 6.79138 15
      vertex 4.15266 6.54354 15
    endloop
  endfacet
  facet normal 0 0 1
    outer loop
      vertex 15.5 14.5 15
      vertex 3.29979 7.01241 15
      vertex 3.73359 6.79138 15
    endloop
  endfacet
  facet normal 0 0 1
    outer loop
      vertex 15.5 14.5 15
      vertex 2.85296 7.20577 15
      vertex 3.29979 7.01241 15
    endloop
  endfacet
  facet normal 0 0 1
    outer loop
      vertex 15.5 14.5 15
      vertex 2.39488 7.37069 15
      vertex 2.85296 7.20577 15
    endloop
  endfacet
  facet normal 0 0 1
    outer loop
      vertex 15.5 14.5 15
      vertex 1.92735 7.50652 15
      vertex 2.39488 7.37069 15
    endloop
  endfacet
  facet normal 0 0 1
    outer loop
      vertex 15.5 14.5 15
      vertex 1.4522 7.61273 15
      vertex 1.92735 7.50652 15
    endloop
  endfacet
  facet normal 0 0 1
    outer loop
      vertex 15.5 14.5 15
      vertex 0.971333 7.68889 15
      vertex 1.4522 7.61273 15
    endloop
  endfacet
  facet normal 0 0 1
    outer loop
      vertex 15.5 14.5 15
      vertex 0.486626 7.73471 15
      vertex 0.971333 7.68889 15
    endloop
  endfacet
  facet normal 0 0 1
    outer loop
      vertex 15.5 14.5 15
      vertex 0 7.75 15
      vertex 0.486626 7.73471 15
    endloop
  endfacet
  facet normal -0 0 1
    outer loop
      vertex -15.5 14.5 15
      vertex 0 7.75 15
      vertex 15.5 14.5 15
    endloop
  endfacet
  facet normal 0 0 1
    outer loop
      vertex 0 7.75 15
      vertex -15.5 14.5 15
      vertex -0.486626 7.73471 15
    endloop
  endfacet
  facet normal 0 0 1
    outer loop
      vertex -0.486626 7.73471 15
      vertex -15.5 14.5 15
      vertex -0.971333 7.68889 15
    endloop
  endfacet
  facet normal 0 0 1
    outer loop
      vertex -0.971333 7.68889 15
      vertex -15.5 14.5 15
      vertex -1.4522 7.61273 15
    endloop
  endfacet
  facet normal 0 0 1
    outer loop
      vertex -1.4522 7.61273 15
      vertex -15.5 14.5 15
      vertex -1.92735 7.50652 15
    endloop
  endfacet
  facet normal 0 0 1
    outer loop
      vertex -1.92735 7.50652 15
      vertex -15.5 14.5 15
      vertex -2.39488 7.37069 15
    endloop
  endfacet
  facet normal 0 0 1
    outer loop
      vertex -7.73471 0.486626 15
      vertex -15.5 14.5 15
      vertex -7.75 0 15
    endloop
  endfacet
  facet normal 0 0 1
    outer loop
      vertex -7.68889 0.971333 15
      vertex -15.5 14.5 15
      vertex -7.73471 0.486626 15
    endloop
  endfacet
  facet normal 0 0 1
    outer loop
      vertex -7.61273 1.4522 15
      vertex -15.5 14.5 15
      vertex -7.68889 0.971333 15
    endloop
  endfacet
  facet normal 0 0 1
    outer loop
      vertex -7.50652 1.92735 15
      vertex -15.5 14.5 15
      vertex -7.61273 1.4522 15
    endloop
  endfacet
  facet normal 0 0 1
    outer loop
      vertex -7.37069 2.39488 15
      vertex -15.5 14.5 15
      vertex -7.50652 1.92735 15
    endloop
  endfacet
  facet normal 0 0 1
    outer loop
      vertex -7.20577 2.85296 15
      vertex -15.5 14.5 15
      vertex -7.37069 2.39488 15
    endloop
  endfacet
  facet normal 0 0 1
    outer loop
      vertex -7.01241 3.29979 15
      vertex -15.5 14.5 15
      vertex -7.20577 2.85296 15
    endloop
  endfacet
  facet normal 0 0 1
    outer loop
      vertex -6.79138 3.73359 15
      vertex -15.5 14.5 15
      vertex -7.01241 3.29979 15
    endloop
  endfacet
  facet normal 0 0 1
    outer loop
      vertex -6.54354 4.15266 15
      vertex -15.5 14.5 15
      vertex -6.79138 3.73359 15
    endloop
  endfacet
  facet normal 0 0 1
    outer loop
      vertex -6.26988 4.55534 15
      vertex -15.5 14.5 15
      vertex -6.54354 4.15266 15
    endloop
  endfacet
  facet normal 0 0 1
    outer loop
      vertex -5.97148 4.94004 15
      vertex -15.5 14.5 15
      vertex -6.26988 4.55534 15
    endloop
  endfacet
  facet normal 0 0 1
    outer loop
      vertex -5.64951 5.30524 15
      vertex -15.5 14.5 15
      vertex -5.97148 4.94004 15
    endloop
  endfacet
  facet normal 0 0 1
    outer loop
      vertex -5.30524 5.64951 15
      vertex -15.5 14.5 15
      vertex -5.64951 5.30524 15
    endloop
  endfacet
  facet normal 0 0 1
    outer loop
      vertex -4.94004 5.97148 15
      vertex -15.5 14.5 15
      vertex -5.30524 5.64951 15
    endloop
  endfacet
  facet normal 0 0 1
    outer loop
      vertex -4.55534 6.26988 15
      vertex -15.5 14.5 15
      vertex -4.94004 5.97148 15
    endloop
  endfacet
  facet normal 0 0 1
    outer loop
      vertex -4.15266 6.54354 15
      vertex -15.5 14.5 15
      vertex -4.55534 6.26988 15
    endloop
  endfacet
  facet normal 0 0 1
    outer loop
      vertex -3.73359 6.79138 15
      vertex -15.5 14.5 15
      vertex -4.15266 6.54354 15
    endloop
  endfacet
  facet normal 0 0 1
    outer loop
      vertex -3.29979 7.01241 15
      vertex -15.5 14.5 15
      vertex -3.73359 6.79138 15
    endloop
  endfacet
  facet normal 0 0 1
    outer loop
      vertex -2.85296 7.20577 15
      vertex -15.5 14.5 15
      vertex -3.29979 7.01241 15
    endloop
  endfacet
  facet normal 0 0 1
    outer loop
      vertex -2.39488 7.37069 15
      vertex -15.5 14.5 15
      vertex -2.85296 7.20577 15
    endloop
  endfacet
  facet normal -0 0 1
    outer loop
      vertex 7.73471 -0.486626 15
      vertex 15.5 -14.5 15
      vertex 7.75 0 15
    endloop
  endfacet
  facet normal -0 0 1
    outer loop
      vertex 7.68889 -0.971333 15
      vertex 15.5 -14.5 15
      vertex 7.73471 -0.486626 15
    endloop
  endfacet
  facet normal -0 0 1
    outer loop
      vertex 7.61273 -1.4522 15
      vertex 15.5 -14.5 15
      vertex 7.68889 -0.971333 15
    endloop
  endfacet
  facet normal -0 0 1
    outer loop
      vertex 7.50652 -1.92735 15
      vertex 15.5 -14.5 15
      vertex 7.61273 -1.4522 15
    endloop
  endfacet
  facet normal -0 0 1
    outer loop
      vertex 7.37069 -2.39488 15
      vertex 15.5 -14.5 15
      vertex 7.50652 -1.92735 15
    endloop
  endfacet
  facet normal -0 0 1
    outer loop
      vertex 7.20577 -2.85296 15
      vertex 15.5 -14.5 15
      vertex 7.37069 -2.39488 15
    endloop
  endfacet
  facet normal -0 0 1
    outer loop
      vertex 7.01241 -3.29979 15
      vertex 15.5 -14.5 15
      vertex 7.20577 -2.85296 15
    endloop
  endfacet
  facet normal -0 0 1
    outer loop
      vertex 6.79138 -3.73359 15
      vertex 15.5 -14.5 15
      vertex 7.01241 -3.29979 15
    endloop
  endfacet
  facet normal -0 0 1
    outer loop
      vertex 6.54354 -4.15266 15
      vertex 15.5 -14.5 15
      vertex 6.79138 -3.73359 15
    endloop
  endfacet
  facet normal -0 0 1
    outer loop
      vertex 6.26988 -4.55534 15
      vertex 15.5 -14.5 15
      vertex 6.54354 -4.15266 15
    endloop
  endfacet
  facet normal -0 0 1
    outer loop
      vertex 5.97148 -4.94004 15
      vertex 15.5 -14.5 15
      vertex 6.26988 -4.55534 15
    endloop
  endfacet
  facet normal -0 0 1
    outer loop
      vertex 5.64951 -5.30524 15
      vertex 15.5 -14.5 15
      vertex 5.97148 -4.94004 15
    endloop
  endfacet
  facet normal -0 0 1
    outer loop
      vertex 5.30524 -5.64951 15
      vertex 15.5 -14.5 15
      vertex 5.64951 -5.30524 15
    endloop
  endfacet
  facet normal -0 0 1
    outer loop
      vertex 4.94004 -5.97148 15
      vertex 15.5 -14.5 15
      vertex 5.30524 -5.64951 15
    endloop
  endfacet
  facet normal -0 0 1
    outer loop
      vertex 4.55534 -6.26988 15
      vertex 15.5 -14.5 15
      vertex 4.94004 -5.97148 15
    endloop
  endfacet
  facet normal -0 0 1
    outer loop
      vertex 4.15266 -6.54354 15
      vertex 15.5 -14.5 15
      vertex 4.55534 -6.26988 15
    endloop
  endfacet
  facet normal -0 0 1
    outer loop
      vertex 3.73359 -6.79138 15
      vertex 15.5 -14.5 15
      vertex 4.15266 -6.54354 15
    endloop
  endfacet
  facet normal -0 0 1
    outer loop
      vertex 3.29979 -7.01241 15
      vertex 15.5 -14.5 15
      vertex 3.73359 -6.79138 15
    endloop
  endfacet
  facet normal -0 0 1
    outer loop
      vertex 2.85296 -7.20577 15
      vertex 15.5 -14.5 15
      vertex 3.29979 -7.01241 15
    endloop
  endfacet
  facet normal -0 0 1
    outer loop
      vertex 2.39488 -7.37069 15
      vertex 15.5 -14.5 15
      vertex 2.85296 -7.20577 15
    endloop
  endfacet
  facet normal -0 0 1
    outer loop
      vertex 1.92735 -7.50652 15
      vertex 15.5 -14.5 15
      vertex 2.39488 -7.37069 15
    endloop
  endfacet
  facet normal -0 0 1
    outer loop
      vertex 1.4522 -7.61273 15
      vertex 15.5 -14.5 15
      vertex 1.92735 -7.50652 15
    endloop
  endfacet
  facet normal -0 0 1
    outer loop
      vertex 0.971333 -7.68889 15
      vertex 15.5 -14.5 15
      vertex 1.4522 -7.61273 15
    endloop
  endfacet
  facet normal -0 0 1
    outer loop
      vertex 0.486626 -7.73471 15
      vertex 15.5 -14.5 15
      vertex 0.971333 -7.68889 15
    endloop
  endfacet
  facet normal -0 0 1
    outer loop
      vertex 0 -7.75 15
      vertex 15.5 -14.5 15
      vertex 0.486626 -7.73471 15
    endloop
  endfacet
  facet normal 0 0 1
    outer loop
      vertex -15.5 -14.5 15
      vertex 0 -7.75 15
      vertex -0.486626 -7.73471 15
    endloop
  endfacet
  facet normal 0 0 1
    outer loop
      vertex -15.5 -14.5 15
      vertex -0.486626 -7.73471 15
      vertex -0.971333 -7.68889 15
    endloop
  endfacet
  facet normal 0 0 1
    outer loop
      vertex -15.5 -14.5 15
      vertex -0.971333 -7.68889 15
      vertex -1.4522 -7.61273 15
    endloop
  endfacet
  facet normal 0 0 1
    outer loop
      vertex -15.5 -14.5 15
      vertex -1.4522 -7.61273 15
      vertex -1.92735 -7.50652 15
    endloop
  endfacet
  facet normal 0 0 1
    outer loop
      vertex -15.5 -14.5 15
      vertex -1.92735 -7.50652 15
      vertex -2.39488 -7.37069 15
    endloop
  endfacet
  facet normal 0 0 1
    outer loop
      vertex -15.5 -14.5 15
      vertex -2.39488 -7.37069 15
      vertex -2.85296 -7.20577 15
    endloop
  endfacet
  facet normal 0 0 1
    outer loop
      vertex -15.5 -14.5 15
      vertex -7.75 0 15
      vertex -15.5 14.5 15
    endloop
  endfacet
  facet normal 0 0 1
    outer loop
      vertex -7.75 0 15
      vertex -15.5 -14.5 15
      vertex -7.73471 -0.486626 15
    endloop
  endfacet
  facet normal 0 0 1
    outer loop
      vertex -7.73471 -0.486626 15
      vertex -15.5 -14.5 15
      vertex -7.68889 -0.971333 15
    endloop
  endfacet
  facet normal 0 0 1
    outer loop
      vertex -7.68889 -0.971333 15
      vertex -15.5 -14.5 15
      vertex -7.61273 -1.4522 15
    endloop
  endfacet
  facet normal 0 0 1
    outer loop
      vertex -7.61273 -1.4522 15
      vertex -15.5 -14.5 15
      vertex -7.50652 -1.92735 15
    endloop
  endfacet
  facet normal 0 0 1
    outer loop
      vertex -7.50652 -1.92735 15
      vertex -15.5 -14.5 15
      vertex -7.37069 -2.39488 15
    endloop
  endfacet
  facet normal 0 0 1
    outer loop
      vertex -7.37069 -2.39488 15
      vertex -15.5 -14.5 15
      vertex -7.20577 -2.85296 15
    endloop
  endfacet
  facet normal 0 0 1
    outer loop
      vertex 0 -7.75 15
      vertex -15.5 -14.5 15
      vertex 15.5 -14.5 15
    endloop
  endfacet
  facet normal 0 0 1
    outer loop
      vertex -3.29979 -7.01241 15
      vertex -15.5 -14.5 15
      vertex -2.85296 -7.20577 15
    endloop
  endfacet
  facet normal 0 0 1
    outer loop
      vertex -3.73359 -6.79138 15
      vertex -15.5 -14.5 15
      vertex -3.29979 -7.01241 15
    endloop
  endfacet
  facet normal 0 0 1
    outer loop
      vertex -4.15266 -6.54354 15
      vertex -15.5 -14.5 15
      vertex -3.73359 -6.79138 15
    endloop
  endfacet
  facet normal 0 0 1
    outer loop
      vertex -4.55534 -6.26988 15
      vertex -15.5 -14.5 15
      vertex -4.15266 -6.54354 15
    endloop
  endfacet
  facet normal 0 0 1
    outer loop
      vertex -4.94004 -5.97148 15
      vertex -15.5 -14.5 15
      vertex -4.55534 -6.26988 15
    endloop
  endfacet
  facet normal 0 0 1
    outer loop
      vertex -5.30524 -5.64951 15
      vertex -15.5 -14.5 15
      vertex -4.94004 -5.97148 15
    endloop
  endfacet
  facet normal 0 0 1
    outer loop
      vertex -5.64951 -5.30524 15
      vertex -15.5 -14.5 15
      vertex -5.30524 -5.64951 15
    endloop
  endfacet
  facet normal 0 0 1
    outer loop
      vertex -5.97148 -4.94004 15
      vertex -15.5 -14.5 15
      vertex -5.64951 -5.30524 15
    endloop
  endfacet
  facet normal 0 0 1
    outer loop
      vertex -6.26988 -4.55534 15
      vertex -15.5 -14.5 15
      vertex -5.97148 -4.94004 15
    endloop
  endfacet
  facet normal 0 0 1
    outer loop
      vertex -6.54354 -4.15266 15
      vertex -15.5 -14.5 15
      vertex -6.26988 -4.55534 15
    endloop
  endfacet
  facet normal 0 0 1
    outer loop
      vertex -6.79138 -3.73359 15
      vertex -15.5 -14.5 15
      vertex -6.54354 -4.15266 15
    endloop
  endfacet
  facet normal 0 0 1
    outer loop
      vertex -7.01241 -3.29979 15
      vertex -15.5 -14.5 15
      vertex -6.79138 -3.73359 15
    endloop
  endfacet
  facet normal 0 0 1
    outer loop
      vertex -7.20577 -2.85296 15
      vertex -15.5 -14.5 15
      vertex -7.01241 -3.29979 15
    endloop
  endfacet
  facet normal 1 -0 0
    outer loop
      vertex 15.5 -14.5 15
      vertex 15.5 14.5 0
      vertex 15.5 14.5 15
    endloop
  endfacet
  facet normal 1 0 0
    outer loop
      vertex 15.5 14.5 0
      vertex 15.5 -14.5 15
      vertex 15.5 -14.5 0
    endloop
  endfacet
  facet normal 0 1 -0
    outer loop
      vertex 15.5 14.5 0
      vertex -15.5 14.5 15
      vertex 15.5 14.5 15
    endloop
  endfacet
  facet normal 0 1 0
    outer loop
      vertex -15.5 14.5 15
      vertex 15.5 14.5 0
      vertex -15.5 14.5 0
    endloop
  endfacet
  facet normal 0 0 -1
    outer loop
      vertex 13.5 -2.5 0
      vertex 14.5 2.5 0
      vertex 14.5 -2.5 0
    endloop
  endfacet
  facet normal -0 0 -1
    outer loop
      vertex 14.5 2.5 0
      vertex 13.5 -2.5 0
      vertex 13.5 2.5 0
    endloop
  endfacet
  facet normal 0 0 -1
    outer loop
      vertex 14.5 -2.5 0
      vertex 15.5 -14.5 0
      vertex 14.5 -13.5 0
    endloop
  endfacet
  facet normal 0 0 -1
    outer loop
      vertex 15.5 -14.5 0
      vertex -14.5 -13.5 0
      vertex 14.5 -13.5 0
    endloop
  endfacet
  facet normal 0 0 -1
    outer loop
      vertex -15.5 -14.5 0
      vertex -14.5 -2.5 0
      vertex -14.5 -13.5 0
    endloop
  endfacet
  facet normal 0 0 -1
    outer loop
      vertex -15.5 14.5 0
      vertex -14.5 -2.5 0
      vertex -15.5 -14.5 0
    endloop
  endfacet
  facet normal 0 0 -1
    outer loop
      vertex -15.5 -14.5 0
      vertex -14.5 -13.5 0
      vertex 15.5 -14.5 0
    endloop
  endfacet
  facet normal 0 0 -1
    outer loop
      vertex 15.5 -14.5 0
      vertex 14.5 -2.5 0
      vertex 15.5 14.5 0
    endloop
  endfacet
  facet normal 0 0 -1
    outer loop
      vertex 14.5 2.5 0
      vertex 15.5 14.5 0
      vertex 14.5 -2.5 0
    endloop
  endfacet
  facet normal 0 0 -1
    outer loop
      vertex 14.5 13.5 0
      vertex 15.5 14.5 0
      vertex 14.5 2.5 0
    endloop
  endfacet
  facet normal 0 0 -1
    outer loop
      vertex -14.5 13.5 0
      vertex 15.5 14.5 0
      vertex 14.5 13.5 0
    endloop
  endfacet
  facet normal 0 0 -1
    outer loop
      vertex -14.5 13.5 0
      vertex -15.5 14.5 0
      vertex 15.5 14.5 0
    endloop
  endfacet
  facet normal 0 0 -1
    outer loop
      vertex -14.5 -2.5 0
      vertex -15.5 14.5 0
      vertex -14.5 13.5 0
    endloop
  endfacet
  facet normal 0 -1 0
    outer loop
      vertex -15.5 -14.5 0
      vertex 15.5 -14.5 15
      vertex -15.5 -14.5 15
    endloop
  endfacet
  facet normal 0 -1 -0
    outer loop
      vertex 15.5 -14.5 15
      vertex -15.5 -14.5 0
      vertex 15.5 -14.5 0
    endloop
  endfacet
  facet normal 0 1 -0
    outer loop
      vertex 14.5 2.5 0
      vertex 13.5 2.5 1
      vertex 14.5 2.5 1
    endloop
  endfacet
  facet normal 0 1 0
    outer loop
      vertex 13.5 2.5 1
      vertex 14.5 2.5 0
      vertex 13.5 2.5 0
    endloop
  endfacet
  facet normal -0 0 1
    outer loop
      vertex 13.5 2.5 1
      vertex 14.5 -2.5 1
      vertex 14.5 2.5 1
    endloop
  endfacet
  facet normal 0 0 1
    outer loop
      vertex 14.5 -2.5 1
      vertex 13.5 2.5 1
      vertex 13.5 -2.5 1
    endloop
  endfacet
  facet normal -1 0 0
    outer loop
      vertex 13.5 -2.5 0
      vertex 13.5 2.5 1
      vertex 13.5 2.5 0
    endloop
  endfacet
  facet normal -1 -0 0
    outer loop
      vertex 13.5 2.5 1
      vertex 13.5 -2.5 0
      vertex 13.5 -2.5 1
    endloop
  endfacet
  facet normal 0 -1 0
    outer loop
      vertex 13.5 -2.5 0
      vertex 14.5 -2.5 1
      vertex 13.5 -2.5 1
    endloop
  endfacet
  facet normal 0 -1 -0
    outer loop
      vertex 14.5 -2.5 1
      vertex 13.5 -2.5 0
      vertex 14.5 -2.5 0
    endloop
  endfacet
  facet normal 0 1 -0
    outer loop
      vertex -13.5 2.5 0
      vertex -14.5 2.5 1
      vertex -13.5 2.5 1
    endloop
  endfacet
  facet normal 0 1 0
    outer loop
      vertex -14.5 2.5 1
      vertex -13.5 2.5 0
      vertex -14.5 2.5 0
    endloop
  endfacet
  facet normal -0 0 1
    outer loop
      vertex -14.5 2.5 1
      vertex -13.5 -2.5 1
      vertex -13.5 2.5 1
    endloop
  endfacet
  facet normal 0 0 1
    outer loop
      vertex -13.5 -2.5 1
      vertex -14.5 2.5 1
      vertex -14.5 -2.5 1
    endloop
  endfacet
  facet normal -1 1.90735e-007 0
    outer loop
      vertex -14.5 -2.5 0
      vertex -14.5 2.5 1
      vertex -14.5 2.5 0
    endloop
  endfacet
  facet normal -1 1.90735e-007 0
    outer loop
      vertex -14.5 2.5 1
      vertex -14.5 -2.5 0
      vertex -14.5 -2.5 1
    endloop
  endfacet
  facet normal 0 -1 0
    outer loop
      vertex -14.5 -2.5 0
      vertex -13.5 -2.5 1
      vertex -14.5 -2.5 1
    endloop
  endfacet
  facet normal 0 -1 -0
    outer loop
      vertex -13.5 -2.5 1
      vertex -14.5 -2.5 0
      vertex -13.5 -2.5 0
    endloop
  endfacet
  facet normal 0 0 -1
    outer loop
      vertex -13.5 -2.5 0
      vertex -14.5 2.5 0
      vertex -13.5 2.5 0
    endloop
  endfacet
  facet normal 0 -0 -1
    outer loop
      vertex -14.5 2.5 0
      vertex -13.5 -2.5 0
      vertex -14.5 -2.5 0
    endloop
  endfacet
  facet normal 1 -1.90735e-007 0
    outer loop
      vertex -13.5 -2.5 1
      vertex -13.5 2.5 0
      vertex -13.5 2.5 1
    endloop
  endfacet
  facet normal 1 -1.90735e-007 0
    outer loop
      vertex -13.5 2.5 0
      vertex -13.5 -2.5 1
      vertex -13.5 -2.5 0
    endloop
  endfacet
  facet normal -0.999507 -0.0314114 0
    outer loop
      vertex 7.75 0 8
      vertex 7.73471 0.486626 15
      vertex 7.73471 0.486626 8
    endloop
  endfacet
  facet normal -0.999507 -0.0314114 0
    outer loop
      vertex 7.73471 0.486626 15
      vertex 7.75 0 8
      vertex 7.75 0 15
    endloop
  endfacet
  facet normal 0.999507 -0.0314114 0
    outer loop
      vertex -7.75 0 15
      vertex -7.73471 0.486626 8
      vertex -7.73471 0.486626 15
    endloop
  endfacet
  facet normal 0.999507 -0.0314114 0
    outer loop
      vertex -7.73471 0.486626 8
      vertex -7.75 0 15
      vertex -7.75 0 8
    endloop
  endfacet
  facet normal -0.0314114 -0.999507 0
    outer loop
      vertex 0 7.75 8
      vertex 0.486626 7.73471 15
      vertex 0 7.75 15
    endloop
  endfacet
  facet normal -0.0314114 -0.999507 -0
    outer loop
      vertex 0.486626 7.73471 15
      vertex 0 7.75 8
      vertex 0.486626 7.73471 8
    endloop
  endfacet
  facet normal -0.707107 -0.707107 0
    outer loop
      vertex 5.64951 5.30524 8
      vertex 5.30524 5.64951 15
      vertex 5.30524 5.64951 8
    endloop
  endfacet
  facet normal -0.707107 -0.707107 0
    outer loop
      vertex 5.30524 5.64951 15
      vertex 5.64951 5.30524 8
      vertex 5.64951 5.30524 15
    endloop
  endfacet
  facet normal 0.661312 -0.750111 0
    outer loop
      vertex -5.30524 5.64951 8
      vertex -4.94004 5.97148 15
      vertex -5.30524 5.64951 15
    endloop
  endfacet
  facet normal 0.661312 -0.750111 0
    outer loop
      vertex -4.94004 5.97148 15
      vertex -5.30524 5.64951 8
      vertex -4.94004 5.97148 8
    endloop
  endfacet
  facet normal 0.338738 -0.940881 0
    outer loop
      vertex -2.85296 7.20577 8
      vertex -2.39488 7.37069 15
      vertex -2.85296 7.20577 15
    endloop
  endfacet
  facet normal 0.338738 -0.940881 0
    outer loop
      vertex -2.39488 7.37069 15
      vertex -2.85296 7.20577 8
      vertex -2.39488 7.37069 8
    endloop
  endfacet
  facet normal -0.707107 0.707107 0
    outer loop
      vertex 5.30524 -5.64951 8
      vertex 5.64951 -5.30524 15
      vertex 5.64951 -5.30524 8
    endloop
  endfacet
  facet normal -0.707107 0.707107 0
    outer loop
      vertex 5.64951 -5.30524 15
      vertex 5.30524 -5.64951 8
      vertex 5.30524 -5.64951 15
    endloop
  endfacet
  facet normal -0.917755 -0.397148 0
    outer loop
      vertex 7.20577 2.85296 8
      vertex 7.01241 3.29979 15
      vertex 7.01241 3.29979 8
    endloop
  endfacet
  facet normal -0.917755 -0.397148 0
    outer loop
      vertex 7.01241 3.29979 15
      vertex 7.20577 2.85296 8
      vertex 7.20577 2.85296 15
    endloop
  endfacet
  facet normal -0.397148 -0.917755 0
    outer loop
      vertex 2.85296 7.20577 8
      vertex 3.29979 7.01241 15
      vertex 2.85296 7.20577 15
    endloop
  endfacet
  facet normal -0.397148 -0.917755 -0
    outer loop
      vertex 3.29979 7.01241 15
      vertex 2.85296 7.20577 8
      vertex 3.29979 7.01241 8
    endloop
  endfacet
  facet normal -0.562084 -0.82708 0
    outer loop
      vertex 4.15266 6.54354 8
      vertex 4.55534 6.26988 15
      vertex 4.15266 6.54354 15
    endloop
  endfacet
  facet normal -0.562084 -0.82708 -0
    outer loop
      vertex 4.55534 6.26988 15
      vertex 4.15266 6.54354 8
      vertex 4.55534 6.26988 8
    endloop
  endfacet
  facet normal 0.891006 -0.453991 0
    outer loop
      vertex -7.01241 3.29979 15
      vertex -6.79138 3.73359 8
      vertex -6.79138 3.73359 15
    endloop
  endfacet
  facet normal 0.891006 -0.453991 0
    outer loop
      vertex -6.79138 3.73359 8
      vertex -7.01241 3.29979 15
      vertex -7.01241 3.29979 8
    endloop
  endfacet
  facet normal 0.156436 -0.987688 0
    outer loop
      vertex -1.4522 7.61273 8
      vertex -0.971333 7.68889 15
      vertex -1.4522 7.61273 15
    endloop
  endfacet
  facet normal 0.156436 -0.987688 0
    outer loop
      vertex -0.971333 7.68889 15
      vertex -1.4522 7.61273 8
      vertex -0.971333 7.68889 8
    endloop
  endfacet
  facet normal 0.453991 0.891006 -0
    outer loop
      vertex -3.29979 -7.01241 8
      vertex -3.73359 -6.79138 15
      vertex -3.29979 -7.01241 15
    endloop
  endfacet
  facet normal 0.453991 0.891006 0
    outer loop
      vertex -3.73359 -6.79138 15
      vertex -3.29979 -7.01241 8
      vertex -3.73359 -6.79138 8
    endloop
  endfacet
  facet normal -0.975917 -0.218142 0
    outer loop
      vertex 7.61273 1.4522 8
      vertex 7.50652 1.92735 15
      vertex 7.50652 1.92735 8
    endloop
  endfacet
  facet normal -0.975917 -0.218142 0
    outer loop
      vertex 7.50652 1.92735 15
      vertex 7.61273 1.4522 8
      vertex 7.61273 1.4522 15
    endloop
  endfacet
  facet normal -0.995562 -0.0941084 0
    outer loop
      vertex 7.73471 0.486626 8
      vertex 7.68889 0.971333 15
      vertex 7.68889 0.971333 8
    endloop
  endfacet
  facet normal -0.995562 -0.0941084 0
    outer loop
      vertex 7.68889 0.971333 15
      vertex 7.73471 0.486626 8
      vertex 7.73471 0.486626 15
    endloop
  endfacet
  facet normal -0.82708 -0.562084 0
    outer loop
      vertex 6.54354 4.15266 8
      vertex 6.26988 4.55534 15
      vertex 6.26988 4.55534 8
    endloop
  endfacet
  facet normal -0.82708 -0.562084 0
    outer loop
      vertex 6.26988 4.55534 15
      vertex 6.54354 4.15266 8
      vertex 6.54354 4.15266 15
    endloop
  endfacet
  facet normal -0.790156 -0.612906 0
    outer loop
      vertex 6.26988 4.55534 8
      vertex 5.97148 4.94004 15
      vertex 5.97148 4.94004 8
    endloop
  endfacet
  facet normal -0.790156 -0.612906 0
    outer loop
      vertex 5.97148 4.94004 15
      vertex 6.26988 4.55534 8
      vertex 6.26988 4.55534 15
    endloop
  endfacet
  facet normal -0.860743 -0.509041 0
    outer loop
      vertex 6.79138 3.73359 8
      vertex 6.54354 4.15266 15
      vertex 6.54354 4.15266 8
    endloop
  endfacet
  facet normal -0.860743 -0.509041 0
    outer loop
      vertex 6.54354 4.15266 15
      vertex 6.79138 3.73359 8
      vertex 6.79138 3.73359 15
    endloop
  endfacet
  facet normal -0.218142 -0.975917 0
    outer loop
      vertex 1.4522 7.61273 8
      vertex 1.92735 7.50652 15
      vertex 1.4522 7.61273 15
    endloop
  endfacet
  facet normal -0.218142 -0.975917 -0
    outer loop
      vertex 1.92735 7.50652 15
      vertex 1.4522 7.61273 8
      vertex 1.92735 7.50652 8
    endloop
  endfacet
  facet normal -0.156436 -0.987688 0
    outer loop
      vertex 0.971333 7.68889 8
      vertex 1.4522 7.61273 15
      vertex 0.971333 7.68889 15
    endloop
  endfacet
  facet normal -0.156436 -0.987688 -0
    outer loop
      vertex 1.4522 7.61273 15
      vertex 0.971333 7.68889 8
      vertex 1.4522 7.61273 8
    endloop
  endfacet
  facet normal -0.661312 -0.750111 0
    outer loop
      vertex 4.94004 5.97148 8
      vertex 5.30524 5.64951 15
      vertex 4.94004 5.97148 15
    endloop
  endfacet
  facet normal -0.661312 -0.750111 -0
    outer loop
      vertex 5.30524 5.64951 15
      vertex 4.94004 5.97148 8
      vertex 5.30524 5.64951 8
    endloop
  endfacet
  facet normal 0.960293 -0.278992 0
    outer loop
      vertex -7.50652 1.92735 15
      vertex -7.37069 2.39488 8
      vertex -7.37069 2.39488 15
    endloop
  endfacet
  facet normal 0.960293 -0.278992 0
    outer loop
      vertex -7.37069 2.39488 8
      vertex -7.50652 1.92735 15
      vertex -7.50652 1.92735 8
    endloop
  endfacet
  facet normal 0.790156 -0.612906 0
    outer loop
      vertex -6.26988 4.55534 15
      vertex -5.97148 4.94004 8
      vertex -5.97148 4.94004 15
    endloop
  endfacet
  facet normal 0.790156 -0.612906 0
    outer loop
      vertex -5.97148 4.94004 8
      vertex -6.26988 4.55534 15
      vertex -6.26988 4.55534 8
    endloop
  endfacet
  facet normal 0.82708 -0.562084 0
    outer loop
      vertex -6.54354 4.15266 15
      vertex -6.26988 4.55534 8
      vertex -6.26988 4.55534 15
    endloop
  endfacet
  facet normal 0.82708 -0.562084 0
    outer loop
      vertex -6.26988 4.55534 8
      vertex -6.54354 4.15266 15
      vertex -6.54354 4.15266 8
    endloop
  endfacet
  facet normal 0.917755 -0.397148 0
    outer loop
      vertex -7.20577 2.85296 15
      vertex -7.01241 3.29979 8
      vertex -7.01241 3.29979 15
    endloop
  endfacet
  facet normal 0.917755 -0.397148 0
    outer loop
      vertex -7.01241 3.29979 8
      vertex -7.20577 2.85296 15
      vertex -7.20577 2.85296 8
    endloop
  endfacet
  facet normal 0.509041 -0.860743 0
    outer loop
      vertex -4.15266 6.54354 8
      vertex -3.73359 6.79138 15
      vertex -4.15266 6.54354 15
    endloop
  endfacet
  facet normal 0.509041 -0.860743 0
    outer loop
      vertex -3.73359 6.79138 15
      vertex -4.15266 6.54354 8
      vertex -3.73359 6.79138 8
    endloop
  endfacet
  facet normal 0.397148 -0.917755 0
    outer loop
      vertex -3.29979 7.01241 8
      vertex -2.85296 7.20577 15
      vertex -3.29979 7.01241 15
    endloop
  endfacet
  facet normal 0.397148 -0.917755 0
    outer loop
      vertex -2.85296 7.20577 15
      vertex -3.29979 7.01241 8
      vertex -2.85296 7.20577 8
    endloop
  endfacet
  facet normal 0.218142 -0.975917 0
    outer loop
      vertex -1.92735 7.50652 8
      vertex -1.4522 7.61273 15
      vertex -1.92735 7.50652 15
    endloop
  endfacet
  facet normal 0.218142 -0.975917 0
    outer loop
      vertex -1.4522 7.61273 15
      vertex -1.92735 7.50652 8
      vertex -1.4522 7.61273 8
    endloop
  endfacet
  facet normal 0.0941084 -0.995562 0
    outer loop
      vertex -0.971333 7.68889 8
      vertex -0.486626 7.73471 15
      vertex -0.971333 7.68889 15
    endloop
  endfacet
  facet normal 0.0941084 -0.995562 0
    outer loop
      vertex -0.486626 7.73471 15
      vertex -0.971333 7.68889 8
      vertex -0.486626 7.73471 8
    endloop
  endfacet
  facet normal -0.612906 0.790156 0
    outer loop
      vertex 4.94004 -5.97148 8
      vertex 4.55534 -6.26988 15
      vertex 4.94004 -5.97148 15
    endloop
  endfacet
  facet normal -0.612906 0.790156 0
    outer loop
      vertex 4.55534 -6.26988 15
      vertex 4.94004 -5.97148 8
      vertex 4.55534 -6.26988 8
    endloop
  endfacet
  facet normal -0.750111 0.661312 0
    outer loop
      vertex 5.64951 -5.30524 8
      vertex 5.97148 -4.94004 15
      vertex 5.97148 -4.94004 8
    endloop
  endfacet
  facet normal -0.750111 0.661312 0
    outer loop
      vertex 5.97148 -4.94004 15
      vertex 5.64951 -5.30524 8
      vertex 5.64951 -5.30524 15
    endloop
  endfacet
  facet normal 0.562084 0.82708 -0
    outer loop
      vertex -4.15266 -6.54354 8
      vertex -4.55534 -6.26988 15
      vertex -4.15266 -6.54354 15
    endloop
  endfacet
  facet normal 0.562084 0.82708 0
    outer loop
      vertex -4.55534 -6.26988 15
      vertex -4.15266 -6.54354 8
      vertex -4.55534 -6.26988 8
    endloop
  endfacet
  facet normal 0.397148 0.917755 -0
    outer loop
      vertex -2.85296 -7.20577 8
      vertex -3.29979 -7.01241 15
      vertex -2.85296 -7.20577 15
    endloop
  endfacet
  facet normal 0.397148 0.917755 0
    outer loop
      vertex -3.29979 -7.01241 15
      vertex -2.85296 -7.20577 8
      vertex -3.29979 -7.01241 8
    endloop
  endfacet
  facet normal 0.891006 0.453991 0
    outer loop
      vertex -6.79138 -3.73359 15
      vertex -7.01241 -3.29979 8
      vertex -7.01241 -3.29979 15
    endloop
  endfacet
  facet normal 0.891006 0.453991 0
    outer loop
      vertex -7.01241 -3.29979 8
      vertex -6.79138 -3.73359 15
      vertex -6.79138 -3.73359 8
    endloop
  endfacet
  facet normal 0.917755 0.397148 0
    outer loop
      vertex -7.01241 -3.29979 15
      vertex -7.20577 -2.85296 8
      vertex -7.20577 -2.85296 15
    endloop
  endfacet
  facet normal 0.917755 0.397148 0
    outer loop
      vertex -7.20577 -2.85296 8
      vertex -7.01241 -3.29979 15
      vertex -7.01241 -3.29979 8
    endloop
  endfacet
  facet normal 0.975917 0.218142 0
    outer loop
      vertex -7.50652 -1.92735 15
      vertex -7.61273 -1.4522 8
      vertex -7.61273 -1.4522 15
    endloop
  endfacet
  facet normal 0.975917 0.218142 0
    outer loop
      vertex -7.61273 -1.4522 8
      vertex -7.50652 -1.92735 15
      vertex -7.50652 -1.92735 8
    endloop
  endfacet
  facet normal 0.940881 0.338738 0
    outer loop
      vertex -7.20577 -2.85296 15
      vertex -7.37069 -2.39488 8
      vertex -7.37069 -2.39488 15
    endloop
  endfacet
  facet normal 0.940881 0.338738 0
    outer loop
      vertex -7.37069 -2.39488 8
      vertex -7.20577 -2.85296 15
      vertex -7.20577 -2.85296 8
    endloop
  endfacet
  facet normal 0 0 1
    outer loop
      vertex 2.75 2.75 8
      vertex 7.75 0 8
      vertex 7.73471 0.486626 8
    endloop
  endfacet
  facet normal 0 0 1
    outer loop
      vertex 2.75 2.75 8
      vertex 7.73471 0.486626 8
      vertex 7.68889 0.971333 8
    endloop
  endfacet
  facet normal 0 0 1
    outer loop
      vertex 2.75 -2.75 8
      vertex 7.75 0 8
      vertex 2.75 2.75 8
    endloop
  endfacet
  facet normal 0 0 1
    outer loop
      vertex 2.75 2.75 8
      vertex 7.68889 0.971333 8
      vertex 7.61273 1.4522 8
    endloop
  endfacet
  facet normal 0 0 1
    outer loop
      vertex 7.75 0 8
      vertex 2.75 -2.75 8
      vertex 7.73471 -0.486626 8
    endloop
  endfacet
  facet normal 0 0 1
    outer loop
      vertex 2.75 2.75 8
      vertex 7.61273 1.4522 8
      vertex 7.50652 1.92735 8
    endloop
  endfacet
  facet normal 0 0 1
    outer loop
      vertex 7.73471 -0.486626 8
      vertex 2.75 -2.75 8
      vertex 7.68889 -0.971333 8
    endloop
  endfacet
  facet normal 0 0 1
    outer loop
      vertex 2.75 2.75 8
      vertex 7.50652 1.92735 8
      vertex 7.37069 2.39488 8
    endloop
  endfacet
  facet normal 0 0 1
    outer loop
      vertex 7.68889 -0.971333 8
      vertex 2.75 -2.75 8
      vertex 7.61273 -1.4522 8
    endloop
  endfacet
  facet normal -0 0 1
    outer loop
      vertex 2.75 2.75 8
      vertex 7.37069 2.39488 8
      vertex 7.20577 2.85296 8
    endloop
  endfacet
  facet normal 0 0 1
    outer loop
      vertex 7.61273 -1.4522 8
      vertex 2.75 -2.75 8
      vertex 7.50652 -1.92735 8
    endloop
  endfacet
  facet normal 0 0 1
    outer loop
      vertex 2.75 2.75 8
      vertex 7.20577 2.85296 8
      vertex 7.01241 3.29979 8
    endloop
  endfacet
  facet normal 0 0 1
    outer loop
      vertex 7.50652 -1.92735 8
      vertex 2.75 -2.75 8
      vertex 7.37069 -2.39488 8
    endloop
  endfacet
  facet normal 0 0 1
    outer loop
      vertex 2.75 2.75 8
      vertex 7.01241 3.29979 8
      vertex 6.79138 3.73359 8
    endloop
  endfacet
  facet normal 0 0 1
    outer loop
      vertex 7.37069 -2.39488 8
      vertex 2.75 -2.75 8
      vertex 7.20577 -2.85296 8
    endloop
  endfacet
  facet normal 0 0 1
    outer loop
      vertex 2.75 2.75 8
      vertex 6.79138 3.73359 8
      vertex 6.54354 4.15266 8
    endloop
  endfacet
  facet normal 0 0 1
    outer loop
      vertex 7.20577 -2.85296 8
      vertex 2.75 -2.75 8
      vertex 7.01241 -3.29979 8
    endloop
  endfacet
  facet normal 0 0 1
    outer loop
      vertex 2.75 2.75 8
      vertex 6.54354 4.15266 8
      vertex 6.26988 4.55534 8
    endloop
  endfacet
  facet normal 0 0 1
    outer loop
      vertex 7.01241 -3.29979 8
      vertex 2.75 -2.75 8
      vertex 6.79138 -3.73359 8
    endloop
  endfacet
  facet normal 0 0 1
    outer loop
      vertex 2.75 2.75 8
      vertex 6.26988 4.55534 8
      vertex 5.97148 4.94004 8
    endloop
  endfacet
  facet normal 0 0 1
    outer loop
      vertex 6.79138 -3.73359 8
      vertex 2.75 -2.75 8
      vertex 6.54354 -4.15266 8
    endloop
  endfacet
  facet normal 0 0 1
    outer loop
      vertex 2.75 2.75 8
      vertex 5.97148 4.94004 8
      vertex 5.64951 5.30524 8
    endloop
  endfacet
  facet normal 0 0 1
    outer loop
      vertex 6.54354 -4.15266 8
      vertex 2.75 -2.75 8
      vertex 6.26988 -4.55534 8
    endloop
  endfacet
  facet normal 0 0 1
    outer loop
      vertex 2.75 2.75 8
      vertex 5.64951 5.30524 8
      vertex 5.30524 5.64951 8
    endloop
  endfacet
  facet normal 0 0 1
    outer loop
      vertex 6.26988 -4.55534 8
      vertex 2.75 -2.75 8
      vertex 5.97148 -4.94004 8
    endloop
  endfacet
  facet normal 0 0 1
    outer loop
      vertex 2.75 2.75 8
      vertex 5.30524 5.64951 8
      vertex 4.94004 5.97148 8
    endloop
  endfacet
  facet normal 0 0 1
    outer loop
      vertex 5.97148 -4.94004 8
      vertex 2.75 -2.75 8
      vertex 5.64951 -5.30524 8
    endloop
  endfacet
  facet normal 0 0 1
    outer loop
      vertex 2.75 2.75 8
      vertex 4.94004 5.97148 8
      vertex 4.55534 6.26988 8
    endloop
  endfacet
  facet normal 0 0 1
    outer loop
      vertex 5.64951 -5.30524 8
      vertex 2.75 -2.75 8
      vertex 5.30524 -5.64951 8
    endloop
  endfacet
  facet normal 0 0 1
    outer loop
      vertex 2.75 2.75 8
      vertex 4.55534 6.26988 8
      vertex 4.15266 6.54354 8
    endloop
  endfacet
  facet normal 0 0 1
    outer loop
      vertex 5.30524 -5.64951 8
      vertex 2.75 -2.75 8
      vertex 4.94004 -5.97148 8
    endloop
  endfacet
  facet normal 0 0 1
    outer loop
      vertex 2.75 2.75 8
      vertex 4.15266 6.54354 8
      vertex 3.73359 6.79138 8
    endloop
  endfacet
  facet normal 0 0 1
    outer loop
      vertex 4.94004 -5.97148 8
      vertex 2.75 -2.75 8
      vertex 4.55534 -6.26988 8
    endloop
  endfacet
  facet normal 0 0 1
    outer loop
      vertex 2.75 2.75 8
      vertex 3.73359 6.79138 8
      vertex 3.29979 7.01241 8
    endloop
  endfacet
  facet normal 0 0 1
    outer loop
      vertex 4.55534 -6.26988 8
      vertex 2.75 -2.75 8
      vertex 4.15266 -6.54354 8
    endloop
  endfacet
  facet normal 0 0 1
    outer loop
      vertex 2.75 2.75 8
      vertex 3.29979 7.01241 8
      vertex 2.85296 7.20577 8
    endloop
  endfacet
  facet normal 0 0 1
    outer loop
      vertex 4.15266 -6.54354 8
      vertex 2.75 -2.75 8
      vertex 3.73359 -6.79138 8
    endloop
  endfacet
  facet normal 0 0 1
    outer loop
      vertex 3.73359 -6.79138 8
      vertex 2.75 -2.75 8
      vertex 3.29979 -7.01241 8
    endloop
  endfacet
  facet normal 0 0 1
    outer loop
      vertex 2.39488 7.37069 8
      vertex 2.75 2.75 8
      vertex 2.85296 7.20577 8
    endloop
  endfacet
  facet normal 0 0 1
    outer loop
      vertex 1.92735 7.50652 8
      vertex 2.75 2.75 8
      vertex 2.39488 7.37069 8
    endloop
  endfacet
  facet normal 0 0 1
    outer loop
      vertex 1.4522 7.61273 8
      vertex 2.75 2.75 8
      vertex 1.92735 7.50652 8
    endloop
  endfacet
  facet normal 0 0 1
    outer loop
      vertex 0.971333 7.68889 8
      vertex 2.75 2.75 8
      vertex 1.4522 7.61273 8
    endloop
  endfacet
  facet normal 0 0 1
    outer loop
      vertex 0.486626 7.73471 8
      vertex 2.75 2.75 8
      vertex 0.971333 7.68889 8
    endloop
  endfacet
  facet normal 0 0 1
    outer loop
      vertex 0 7.75 8
      vertex 2.75 2.75 8
      vertex 0.486626 7.73471 8
    endloop
  endfacet
  facet normal 0 0 1
    outer loop
      vertex -2.75 2.75 8
      vertex 0 7.75 8
      vertex -0.486626 7.73471 8
    endloop
  endfacet
  facet normal 0 0 1
    outer loop
      vertex -2.75 2.75 8
      vertex -0.486626 7.73471 8
      vertex -0.971333 7.68889 8
    endloop
  endfacet
  facet normal 0 0 1
    outer loop
      vertex -2.75 2.75 8
      vertex -0.971333 7.68889 8
      vertex -1.4522 7.61273 8
    endloop
  endfacet
  facet normal 0 0 1
    outer loop
      vertex -2.75 2.75 8
      vertex -1.4522 7.61273 8
      vertex -1.92735 7.50652 8
    endloop
  endfacet
  facet normal 0 0 1
    outer loop
      vertex -2.75 2.75 8
      vertex -1.92735 7.50652 8
      vertex -2.39488 7.37069 8
    endloop
  endfacet
  facet normal 0 0 1
    outer loop
      vertex 0 7.75 8
      vertex -2.75 2.75 8
      vertex 2.75 2.75 8
    endloop
  endfacet
  facet normal -0 0 1
    outer loop
      vertex -3.29979 7.01241 8
      vertex -2.75 2.75 8
      vertex -2.85296 7.20577 8
    endloop
  endfacet
  facet normal -0 0 1
    outer loop
      vertex -2.85296 7.20577 8
      vertex -2.75 2.75 8
      vertex -2.39488 7.37069 8
    endloop
  endfacet
  facet normal 0 0 1
    outer loop
      vertex 3.29979 -7.01241 8
      vertex 2.75 -2.75 8
      vertex 2.85296 -7.20577 8
    endloop
  endfacet
  facet normal 0 0 1
    outer loop
      vertex 2.75 -2.75 8
      vertex 2.39488 -7.37069 8
      vertex 2.85296 -7.20577 8
    endloop
  endfacet
  facet normal 0 0 1
    outer loop
      vertex 2.75 -2.75 8
      vertex 1.92735 -7.50652 8
      vertex 2.39488 -7.37069 8
    endloop
  endfacet
  facet normal 0 0 1
    outer loop
      vertex 2.75 -2.75 8
      vertex 1.4522 -7.61273 8
      vertex 1.92735 -7.50652 8
    endloop
  endfacet
  facet normal 0 0 1
    outer loop
      vertex 2.75 -2.75 8
      vertex 0.971333 -7.68889 8
      vertex 1.4522 -7.61273 8
    endloop
  endfacet
  facet normal 0 0 1
    outer loop
      vertex 2.75 -2.75 8
      vertex 0.486626 -7.73471 8
      vertex 0.971333 -7.68889 8
    endloop
  endfacet
  facet normal 0 0 1
    outer loop
      vertex 2.75 -2.75 8
      vertex 0 -7.75 8
      vertex 0.486626 -7.73471 8
    endloop
  endfacet
  facet normal -0 0 1
    outer loop
      vertex -2.75 -2.75 8
      vertex 0 -7.75 8
      vertex 2.75 -2.75 8
    endloop
  endfacet
  facet normal 0 0 1
    outer loop
      vertex 0 -7.75 8
      vertex -2.75 -2.75 8
      vertex -0.486626 -7.73471 8
    endloop
  endfacet
  facet normal 0 0 1
    outer loop
      vertex -0.486626 -7.73471 8
      vertex -2.75 -2.75 8
      vertex -0.971333 -7.68889 8
    endloop
  endfacet
  facet normal 0 0 1
    outer loop
      vertex -0.971333 -7.68889 8
      vertex -2.75 -2.75 8
      vertex -1.4522 -7.61273 8
    endloop
  endfacet
  facet normal 0 0 1
    outer loop
      vertex -1.4522 -7.61273 8
      vertex -2.75 -2.75 8
      vertex -1.92735 -7.50652 8
    endloop
  endfacet
  facet normal 0 0 1
    outer loop
      vertex -1.92735 -7.50652 8
      vertex -2.75 -2.75 8
      vertex -2.39488 -7.37069 8
    endloop
  endfacet
  facet normal 0 0 1
    outer loop
      vertex -2.75 -2.75 8
      vertex -2.85296 -7.20577 8
      vertex -2.39488 -7.37069 8
    endloop
  endfacet
  facet normal -0 0 1
    outer loop
      vertex -3.73359 6.79138 8
      vertex -2.75 2.75 8
      vertex -3.29979 7.01241 8
    endloop
  endfacet
  facet normal -0 0 1
    outer loop
      vertex -4.15266 6.54354 8
      vertex -2.75 2.75 8
      vertex -3.73359 6.79138 8
    endloop
  endfacet
  facet normal 0 0 1
    outer loop
      vertex -2.75 -2.75 8
      vertex -3.29979 -7.01241 8
      vertex -2.85296 -7.20577 8
    endloop
  endfacet
  facet normal -0 0 1
    outer loop
      vertex -4.55534 6.26988 8
      vertex -2.75 2.75 8
      vertex -4.15266 6.54354 8
    endloop
  endfacet
  facet normal 0 0 1
    outer loop
      vertex -2.75 -2.75 8
      vertex -3.73359 -6.79138 8
      vertex -3.29979 -7.01241 8
    endloop
  endfacet
  facet normal -0 0 1
    outer loop
      vertex -4.94004 5.97148 8
      vertex -2.75 2.75 8
      vertex -4.55534 6.26988 8
    endloop
  endfacet
  facet normal 0 0 1
    outer loop
      vertex -2.75 -2.75 8
      vertex -4.15266 -6.54354 8
      vertex -3.73359 -6.79138 8
    endloop
  endfacet
  facet normal -0 0 1
    outer loop
      vertex -5.30524 5.64951 8
      vertex -2.75 2.75 8
      vertex -4.94004 5.97148 8
    endloop
  endfacet
  facet normal 0 0 1
    outer loop
      vertex -2.75 -2.75 8
      vertex -4.55534 -6.26988 8
      vertex -4.15266 -6.54354 8
    endloop
  endfacet
  facet normal -0 0 1
    outer loop
      vertex -5.64951 5.30524 8
      vertex -2.75 2.75 8
      vertex -5.30524 5.64951 8
    endloop
  endfacet
  facet normal 0 0 1
    outer loop
      vertex -2.75 -2.75 8
      vertex -4.94004 -5.97148 8
      vertex -4.55534 -6.26988 8
    endloop
  endfacet
  facet normal -0 0 1
    outer loop
      vertex -5.97148 4.94004 8
      vertex -2.75 2.75 8
      vertex -5.64951 5.30524 8
    endloop
  endfacet
  facet normal 0 0 1
    outer loop
      vertex -2.75 -2.75 8
      vertex -5.30524 -5.64951 8
      vertex -4.94004 -5.97148 8
    endloop
  endfacet
  facet normal -0 0 1
    outer loop
      vertex -6.26988 4.55534 8
      vertex -2.75 2.75 8
      vertex -5.97148 4.94004 8
    endloop
  endfacet
  facet normal 0 0 1
    outer loop
      vertex -2.75 -2.75 8
      vertex -5.64951 -5.30524 8
      vertex -5.30524 -5.64951 8
    endloop
  endfacet
  facet normal -0 0 1
    outer loop
      vertex -6.54354 4.15266 8
      vertex -2.75 2.75 8
      vertex -6.26988 4.55534 8
    endloop
  endfacet
  facet normal 0 0 1
    outer loop
      vertex -2.75 -2.75 8
      vertex -5.97148 -4.94004 8
      vertex -5.64951 -5.30524 8
    endloop
  endfacet
  facet normal -0 0 1
    outer loop
      vertex -6.79138 3.73359 8
      vertex -2.75 2.75 8
      vertex -6.54354 4.15266 8
    endloop
  endfacet
  facet normal 0 0 1
    outer loop
      vertex -2.75 -2.75 8
      vertex -6.26988 -4.55534 8
      vertex -5.97148 -4.94004 8
    endloop
  endfacet
  facet normal -0 0 1
    outer loop
      vertex -7.01241 3.29979 8
      vertex -2.75 2.75 8
      vertex -6.79138 3.73359 8
    endloop
  endfacet
  facet normal 0 0 1
    outer loop
      vertex -2.75 -2.75 8
      vertex -6.54354 -4.15266 8
      vertex -6.26988 -4.55534 8
    endloop
  endfacet
  facet normal -0 0 1
    outer loop
      vertex -7.20577 2.85296 8
      vertex -2.75 2.75 8
      vertex -7.01241 3.29979 8
    endloop
  endfacet
  facet normal 0 0 1
    outer loop
      vertex -2.75 -2.75 8
      vertex -6.79138 -3.73359 8
      vertex -6.54354 -4.15266 8
    endloop
  endfacet
  facet normal 0 0 1
    outer loop
      vertex -7.37069 2.39488 8
      vertex -2.75 2.75 8
      vertex -7.20577 2.85296 8
    endloop
  endfacet
  facet normal 0 0 1
    outer loop
      vertex -2.75 -2.75 8
      vertex -7.01241 -3.29979 8
      vertex -6.79138 -3.73359 8
    endloop
  endfacet
  facet normal 0 0 1
    outer loop
      vertex -7.50652 1.92735 8
      vertex -2.75 2.75 8
      vertex -7.37069 2.39488 8
    endloop
  endfacet
  facet normal 0 0 1
    outer loop
      vertex -2.75 -2.75 8
      vertex -7.20577 -2.85296 8
      vertex -7.01241 -3.29979 8
    endloop
  endfacet
  facet normal 0 0 1
    outer loop
      vertex -7.61273 1.4522 8
      vertex -2.75 2.75 8
      vertex -7.50652 1.92735 8
    endloop
  endfacet
  facet normal 0 0 1
    outer loop
      vertex -2.75 -2.75 8
      vertex -7.37069 -2.39488 8
      vertex -7.20577 -2.85296 8
    endloop
  endfacet
  facet normal 0 0 1
    outer loop
      vertex -7.68889 0.971333 8
      vertex -2.75 2.75 8
      vertex -7.61273 1.4522 8
    endloop
  endfacet
  facet normal 0 0 1
    outer loop
      vertex -2.75 -2.75 8
      vertex -7.50652 -1.92735 8
      vertex -7.37069 -2.39488 8
    endloop
  endfacet
  facet normal 0 0 1
    outer loop
      vertex -7.73471 0.486626 8
      vertex -2.75 2.75 8
      vertex -7.68889 0.971333 8
    endloop
  endfacet
  facet normal 0 0 1
    outer loop
      vertex -2.75 -2.75 8
      vertex -7.61273 -1.4522 8
      vertex -7.50652 -1.92735 8
    endloop
  endfacet
  facet normal 0 0 1
    outer loop
      vertex -7.75 0 8
      vertex -2.75 2.75 8
      vertex -7.73471 0.486626 8
    endloop
  endfacet
  facet normal 0 0 1
    outer loop
      vertex -2.75 -2.75 8
      vertex -7.68889 -0.971333 8
      vertex -7.61273 -1.4522 8
    endloop
  endfacet
  facet normal 0 0 1
    outer loop
      vertex -2.75 2.75 8
      vertex -7.75 0 8
      vertex -2.75 -2.75 8
    endloop
  endfacet
  facet normal 0 0 1
    outer loop
      vertex -2.75 -2.75 8
      vertex -7.73471 -0.486626 8
      vertex -7.68889 -0.971333 8
    endloop
  endfacet
  facet normal 0 0 1
    outer loop
      vertex -2.75 -2.75 8
      vertex -7.75 0 8
      vertex -7.73471 -0.486626 8
    endloop
  endfacet
  facet normal -0.987688 -0.156436 0
    outer loop
      vertex 7.68889 0.971333 8
      vertex 7.61273 1.4522 15
      vertex 7.61273 1.4522 8
    endloop
  endfacet
  facet normal -0.987688 -0.156436 0
    outer loop
      vertex 7.61273 1.4522 15
      vertex 7.68889 0.971333 8
      vertex 7.68889 0.971333 15
    endloop
  endfacet
  facet normal -0.940881 -0.338738 0
    outer loop
      vertex 7.37069 2.39488 8
      vertex 7.20577 2.85296 15
      vertex 7.20577 2.85296 8
    endloop
  endfacet
  facet normal -0.940881 -0.338738 0
    outer loop
      vertex 7.20577 2.85296 15
      vertex 7.37069 2.39488 8
      vertex 7.37069 2.39488 15
    endloop
  endfacet
  facet normal -0.960293 -0.278992 0
    outer loop
      vertex 7.50652 1.92735 8
      vertex 7.37069 2.39488 15
      vertex 7.37069 2.39488 8
    endloop
  endfacet
  facet normal -0.960293 -0.278992 0
    outer loop
      vertex 7.37069 2.39488 15
      vertex 7.50652 1.92735 8
      vertex 7.50652 1.92735 15
    endloop
  endfacet
  facet normal -0.750111 -0.661312 0
    outer loop
      vertex 5.97148 4.94004 8
      vertex 5.64951 5.30524 15
      vertex 5.64951 5.30524 8
    endloop
  endfacet
  facet normal -0.750111 -0.661312 0
    outer loop
      vertex 5.64951 5.30524 15
      vertex 5.97148 4.94004 8
      vertex 5.97148 4.94004 15
    endloop
  endfacet
  facet normal -0.891006 -0.453991 0
    outer loop
      vertex 7.01241 3.29979 8
      vertex 6.79138 3.73359 15
      vertex 6.79138 3.73359 8
    endloop
  endfacet
  facet normal -0.891006 -0.453991 0
    outer loop
      vertex 6.79138 3.73359 15
      vertex 7.01241 3.29979 8
      vertex 7.01241 3.29979 15
    endloop
  endfacet
  facet normal -0.278992 -0.960293 0
    outer loop
      vertex 1.92735 7.50652 8
      vertex 2.39488 7.37069 15
      vertex 1.92735 7.50652 15
    endloop
  endfacet
  facet normal -0.278992 -0.960293 -0
    outer loop
      vertex 2.39488 7.37069 15
      vertex 1.92735 7.50652 8
      vertex 2.39488 7.37069 8
    endloop
  endfacet
  facet normal -0.338738 -0.940881 0
    outer loop
      vertex 2.39488 7.37069 8
      vertex 2.85296 7.20577 15
      vertex 2.39488 7.37069 15
    endloop
  endfacet
  facet normal -0.338738 -0.940881 -0
    outer loop
      vertex 2.85296 7.20577 15
      vertex 2.39488 7.37069 8
      vertex 2.85296 7.20577 8
    endloop
  endfacet
  facet normal -0.0941084 -0.995562 0
    outer loop
      vertex 0.486626 7.73471 8
      vertex 0.971333 7.68889 15
      vertex 0.486626 7.73471 15
    endloop
  endfacet
  facet normal -0.0941084 -0.995562 -0
    outer loop
      vertex 0.971333 7.68889 15
      vertex 0.486626 7.73471 8
      vertex 0.971333 7.68889 8
    endloop
  endfacet
  facet normal -0.509041 -0.860743 0
    outer loop
      vertex 3.73359 6.79138 8
      vertex 4.15266 6.54354 15
      vertex 3.73359 6.79138 15
    endloop
  endfacet
  facet normal -0.509041 -0.860743 -0
    outer loop
      vertex 4.15266 6.54354 15
      vertex 3.73359 6.79138 8
      vertex 4.15266 6.54354 8
    endloop
  endfacet
  facet normal -0.453991 -0.891006 0
    outer loop
      vertex 3.29979 7.01241 8
      vertex 3.73359 6.79138 15
      vertex 3.29979 7.01241 15
    endloop
  endfacet
  facet normal -0.453991 -0.891006 -0
    outer loop
      vertex 3.73359 6.79138 15
      vertex 3.29979 7.01241 8
      vertex 3.73359 6.79138 8
    endloop
  endfacet
  facet normal -0.612906 -0.790156 0
    outer loop
      vertex 4.55534 6.26988 8
      vertex 4.94004 5.97148 15
      vertex 4.55534 6.26988 15
    endloop
  endfacet
  facet normal -0.612906 -0.790156 -0
    outer loop
      vertex 4.94004 5.97148 15
      vertex 4.55534 6.26988 8
      vertex 4.94004 5.97148 8
    endloop
  endfacet
  facet normal 0.987688 -0.156436 0
    outer loop
      vertex -7.68889 0.971333 15
      vertex -7.61273 1.4522 8
      vertex -7.61273 1.4522 15
    endloop
  endfacet
  facet normal 0.987688 -0.156436 0
    outer loop
      vertex -7.61273 1.4522 8
      vertex -7.68889 0.971333 15
      vertex -7.68889 0.971333 8
    endloop
  endfacet
  facet normal 0.750111 -0.661312 0
    outer loop
      vertex -5.97148 4.94004 15
      vertex -5.64951 5.30524 8
      vertex -5.64951 5.30524 15
    endloop
  endfacet
  facet normal 0.750111 -0.661312 0
    outer loop
      vertex -5.64951 5.30524 8
      vertex -5.97148 4.94004 15
      vertex -5.97148 4.94004 8
    endloop
  endfacet
  facet normal 0.707107 -0.707107 0
    outer loop
      vertex -5.64951 5.30524 15
      vertex -5.30524 5.64951 8
      vertex -5.30524 5.64951 15
    endloop
  endfacet
  facet normal 0.707107 -0.707107 0
    outer loop
      vertex -5.30524 5.64951 8
      vertex -5.64951 5.30524 15
      vertex -5.64951 5.30524 8
    endloop
  endfacet
  facet normal 0.860743 -0.509041 0
    outer loop
      vertex -6.79138 3.73359 15
      vertex -6.54354 4.15266 8
      vertex -6.54354 4.15266 15
    endloop
  endfacet
  facet normal 0.860743 -0.509041 0
    outer loop
      vertex -6.54354 4.15266 8
      vertex -6.79138 3.73359 15
      vertex -6.79138 3.73359 8
    endloop
  endfacet
  facet normal 0.940881 -0.338738 0
    outer loop
      vertex -7.37069 2.39488 15
      vertex -7.20577 2.85296 8
      vertex -7.20577 2.85296 15
    endloop
  endfacet
  facet normal 0.940881 -0.338738 0
    outer loop
      vertex -7.20577 2.85296 8
      vertex -7.37069 2.39488 15
      vertex -7.37069 2.39488 8
    endloop
  endfacet
  facet normal 0.975917 -0.218142 0
    outer loop
      vertex -7.61273 1.4522 15
      vertex -7.50652 1.92735 8
      vertex -7.50652 1.92735 15
    endloop
  endfacet
  facet normal 0.975917 -0.218142 0
    outer loop
      vertex -7.50652 1.92735 8
      vertex -7.61273 1.4522 15
      vertex -7.61273 1.4522 8
    endloop
  endfacet
  facet normal 0.995562 -0.0941084 0
    outer loop
      vertex -7.73471 0.486626 15
      vertex -7.68889 0.971333 8
      vertex -7.68889 0.971333 15
    endloop
  endfacet
  facet normal 0.995562 -0.0941084 0
    outer loop
      vertex -7.68889 0.971333 8
      vertex -7.73471 0.486626 15
      vertex -7.73471 0.486626 8
    endloop
  endfacet
  facet normal 0.453991 -0.891006 0
    outer loop
      vertex -3.73359 6.79138 8
      vertex -3.29979 7.01241 15
      vertex -3.73359 6.79138 15
    endloop
  endfacet
  facet normal 0.453991 -0.891006 0
    outer loop
      vertex -3.29979 7.01241 15
      vertex -3.73359 6.79138 8
      vertex -3.29979 7.01241 8
    endloop
  endfacet
  facet normal 0.562084 -0.82708 0
    outer loop
      vertex -4.55534 6.26988 8
      vertex -4.15266 6.54354 15
      vertex -4.55534 6.26988 15
    endloop
  endfacet
  facet normal 0.562084 -0.82708 0
    outer loop
      vertex -4.15266 6.54354 15
      vertex -4.55534 6.26988 8
      vertex -4.15266 6.54354 8
    endloop
  endfacet
  facet normal 0.612906 -0.790156 0
    outer loop
      vertex -4.94004 5.97148 8
      vertex -4.55534 6.26988 15
      vertex -4.94004 5.97148 15
    endloop
  endfacet
  facet normal 0.612906 -0.790156 0
    outer loop
      vertex -4.55534 6.26988 15
      vertex -4.94004 5.97148 8
      vertex -4.55534 6.26988 8
    endloop
  endfacet
  facet normal 0.278992 -0.960293 0
    outer loop
      vertex -2.39488 7.37069 8
      vertex -1.92735 7.50652 15
      vertex -2.39488 7.37069 15
    endloop
  endfacet
  facet normal 0.278992 -0.960293 0
    outer loop
      vertex -1.92735 7.50652 15
      vertex -2.39488 7.37069 8
      vertex -1.92735 7.50652 8
    endloop
  endfacet
  facet normal 0.0314114 -0.999507 0
    outer loop
      vertex -0.486626 7.73471 8
      vertex 0 7.75 15
      vertex -0.486626 7.73471 15
    endloop
  endfacet
  facet normal 0.0314114 -0.999507 0
    outer loop
      vertex 0 7.75 15
      vertex -0.486626 7.73471 8
      vertex 0 7.75 8
    endloop
  endfacet
  facet normal -0.0314114 0.999507 0
    outer loop
      vertex 0.486626 -7.73471 8
      vertex 0 -7.75 15
      vertex 0.486626 -7.73471 15
    endloop
  endfacet
  facet normal -0.0314114 0.999507 0
    outer loop
      vertex 0 -7.75 15
      vertex 0.486626 -7.73471 8
      vertex 0 -7.75 8
    endloop
  endfacet
  facet normal -0.156436 0.987688 0
    outer loop
      vertex 1.4522 -7.61273 8
      vertex 0.971333 -7.68889 15
      vertex 1.4522 -7.61273 15
    endloop
  endfacet
  facet normal -0.156436 0.987688 0
    outer loop
      vertex 0.971333 -7.68889 15
      vertex 1.4522 -7.61273 8
      vertex 0.971333 -7.68889 8
    endloop
  endfacet
  facet normal -0.397148 0.917755 0
    outer loop
      vertex 3.29979 -7.01241 8
      vertex 2.85296 -7.20577 15
      vertex 3.29979 -7.01241 15
    endloop
  endfacet
  facet normal -0.397148 0.917755 0
    outer loop
      vertex 2.85296 -7.20577 15
      vertex 3.29979 -7.01241 8
      vertex 2.85296 -7.20577 8
    endloop
  endfacet
  facet normal -0.278992 0.960293 0
    outer loop
      vertex 2.39488 -7.37069 8
      vertex 1.92735 -7.50652 15
      vertex 2.39488 -7.37069 15
    endloop
  endfacet
  facet normal -0.278992 0.960293 0
    outer loop
      vertex 1.92735 -7.50652 15
      vertex 2.39488 -7.37069 8
      vertex 1.92735 -7.50652 8
    endloop
  endfacet
  facet normal -0.661312 0.750111 0
    outer loop
      vertex 5.30524 -5.64951 8
      vertex 4.94004 -5.97148 15
      vertex 5.30524 -5.64951 15
    endloop
  endfacet
  facet normal -0.661312 0.750111 0
    outer loop
      vertex 4.94004 -5.97148 15
      vertex 5.30524 -5.64951 8
      vertex 4.94004 -5.97148 8
    endloop
  endfacet
  facet normal -0.562084 0.82708 0
    outer loop
      vertex 4.55534 -6.26988 8
      vertex 4.15266 -6.54354 15
      vertex 4.55534 -6.26988 15
    endloop
  endfacet
  facet normal -0.562084 0.82708 0
    outer loop
      vertex 4.15266 -6.54354 15
      vertex 4.55534 -6.26988 8
      vertex 4.15266 -6.54354 8
    endloop
  endfacet
  facet normal -0.453991 0.891006 0
    outer loop
      vertex 3.73359 -6.79138 8
      vertex 3.29979 -7.01241 15
      vertex 3.73359 -6.79138 15
    endloop
  endfacet
  facet normal -0.453991 0.891006 0
    outer loop
      vertex 3.29979 -7.01241 15
      vertex 3.73359 -6.79138 8
      vertex 3.29979 -7.01241 8
    endloop
  endfacet
  facet normal -0.790156 0.612906 0
    outer loop
      vertex 5.97148 -4.94004 8
      vertex 6.26988 -4.55534 15
      vertex 6.26988 -4.55534 8
    endloop
  endfacet
  facet normal -0.790156 0.612906 0
    outer loop
      vertex 6.26988 -4.55534 15
      vertex 5.97148 -4.94004 8
      vertex 5.97148 -4.94004 15
    endloop
  endfacet
  facet normal -0.917755 0.397148 0
    outer loop
      vertex 7.01241 -3.29979 8
      vertex 7.20577 -2.85296 15
      vertex 7.20577 -2.85296 8
    endloop
  endfacet
  facet normal -0.917755 0.397148 0
    outer loop
      vertex 7.20577 -2.85296 15
      vertex 7.01241 -3.29979 8
      vertex 7.01241 -3.29979 15
    endloop
  endfacet
  facet normal -0.860743 0.509041 0
    outer loop
      vertex 6.54354 -4.15266 8
      vertex 6.79138 -3.73359 15
      vertex 6.79138 -3.73359 8
    endloop
  endfacet
  facet normal -0.860743 0.509041 0
    outer loop
      vertex 6.79138 -3.73359 15
      vertex 6.54354 -4.15266 8
      vertex 6.54354 -4.15266 15
    endloop
  endfacet
  facet normal -0.987688 0.156436 0
    outer loop
      vertex 7.61273 -1.4522 8
      vertex 7.68889 -0.971333 15
      vertex 7.68889 -0.971333 8
    endloop
  endfacet
  facet normal -0.987688 0.156436 0
    outer loop
      vertex 7.68889 -0.971333 15
      vertex 7.61273 -1.4522 8
      vertex 7.61273 -1.4522 15
    endloop
  endfacet
  facet normal -0.960293 0.278992 0
    outer loop
      vertex 7.37069 -2.39488 8
      vertex 7.50652 -1.92735 15
      vertex 7.50652 -1.92735 8
    endloop
  endfacet
  facet normal -0.960293 0.278992 0
    outer loop
      vertex 7.50652 -1.92735 15
      vertex 7.37069 -2.39488 8
      vertex 7.37069 -2.39488 15
    endloop
  endfacet
  facet normal -0.940881 0.338738 0
    outer loop
      vertex 7.20577 -2.85296 8
      vertex 7.37069 -2.39488 15
      vertex 7.37069 -2.39488 8
    endloop
  endfacet
  facet normal -0.940881 0.338738 0
    outer loop
      vertex 7.37069 -2.39488 15
      vertex 7.20577 -2.85296 8
      vertex 7.20577 -2.85296 15
    endloop
  endfacet
  facet normal 0.707107 0.707107 0
    outer loop
      vertex -5.30524 -5.64951 15
      vertex -5.64951 -5.30524 8
      vertex -5.64951 -5.30524 15
    endloop
  endfacet
  facet normal 0.707107 0.707107 0
    outer loop
      vertex -5.64951 -5.30524 8
      vertex -5.30524 -5.64951 15
      vertex -5.30524 -5.64951 8
    endloop
  endfacet
  facet normal 0.612906 0.790156 -0
    outer loop
      vertex -4.55534 -6.26988 8
      vertex -4.94004 -5.97148 15
      vertex -4.55534 -6.26988 15
    endloop
  endfacet
  facet normal 0.612906 0.790156 0
    outer loop
      vertex -4.94004 -5.97148 15
      vertex -4.55534 -6.26988 8
      vertex -4.94004 -5.97148 8
    endloop
  endfacet
  facet normal 0.509041 0.860743 -0
    outer loop
      vertex -3.73359 -6.79138 8
      vertex -4.15266 -6.54354 15
      vertex -3.73359 -6.79138 15
    endloop
  endfacet
  facet normal 0.509041 0.860743 0
    outer loop
      vertex -4.15266 -6.54354 15
      vertex -3.73359 -6.79138 8
      vertex -4.15266 -6.54354 8
    endloop
  endfacet
  facet normal 0.338738 0.940881 -0
    outer loop
      vertex -2.39488 -7.37069 8
      vertex -2.85296 -7.20577 15
      vertex -2.39488 -7.37069 15
    endloop
  endfacet
  facet normal 0.338738 0.940881 0
    outer loop
      vertex -2.85296 -7.20577 15
      vertex -2.39488 -7.37069 8
      vertex -2.85296 -7.20577 8
    endloop
  endfacet
  facet normal 0.156436 0.987688 -0
    outer loop
      vertex -0.971333 -7.68889 8
      vertex -1.4522 -7.61273 15
      vertex -0.971333 -7.68889 15
    endloop
  endfacet
  facet normal 0.156436 0.987688 0
    outer loop
      vertex -1.4522 -7.61273 15
      vertex -0.971333 -7.68889 8
      vertex -1.4522 -7.61273 8
    endloop
  endfacet
  facet normal 0.218142 0.975917 -0
    outer loop
      vertex -1.4522 -7.61273 8
      vertex -1.92735 -7.50652 15
      vertex -1.4522 -7.61273 15
    endloop
  endfacet
  facet normal 0.218142 0.975917 0
    outer loop
      vertex -1.92735 -7.50652 15
      vertex -1.4522 -7.61273 8
      vertex -1.92735 -7.50652 8
    endloop
  endfacet
  facet normal 0.0941084 0.995562 -0
    outer loop
      vertex -0.486626 -7.73471 8
      vertex -0.971333 -7.68889 15
      vertex -0.486626 -7.73471 15
    endloop
  endfacet
  facet normal 0.0941084 0.995562 0
    outer loop
      vertex -0.971333 -7.68889 15
      vertex -0.486626 -7.73471 8
      vertex -0.971333 -7.68889 8
    endloop
  endfacet
  facet normal 0.750111 0.661312 0
    outer loop
      vertex -5.64951 -5.30524 15
      vertex -5.97148 -4.94004 8
      vertex -5.97148 -4.94004 15
    endloop
  endfacet
  facet normal 0.750111 0.661312 0
    outer loop
      vertex -5.97148 -4.94004 8
      vertex -5.64951 -5.30524 15
      vertex -5.64951 -5.30524 8
    endloop
  endfacet
  facet normal 0.82708 0.562084 0
    outer loop
      vertex -6.26988 -4.55534 15
      vertex -6.54354 -4.15266 8
      vertex -6.54354 -4.15266 15
    endloop
  endfacet
  facet normal 0.82708 0.562084 0
    outer loop
      vertex -6.54354 -4.15266 8
      vertex -6.26988 -4.55534 15
      vertex -6.26988 -4.55534 8
    endloop
  endfacet
  facet normal 0.790156 0.612906 0
    outer loop
      vertex -5.97148 -4.94004 15
      vertex -6.26988 -4.55534 8
      vertex -6.26988 -4.55534 15
    endloop
  endfacet
  facet normal 0.790156 0.612906 0
    outer loop
      vertex -6.26988 -4.55534 8
      vertex -5.97148 -4.94004 15
      vertex -5.97148 -4.94004 8
    endloop
  endfacet
  facet normal 0.960293 0.278992 0
    outer loop
      vertex -7.37069 -2.39488 15
      vertex -7.50652 -1.92735 8
      vertex -7.50652 -1.92735 15
    endloop
  endfacet
  facet normal 0.960293 0.278992 0
    outer loop
      vertex -7.50652 -1.92735 8
      vertex -7.37069 -2.39488 15
      vertex -7.37069 -2.39488 8
    endloop
  endfacet
  facet normal 0.987688 0.156436 0
    outer loop
      vertex -7.61273 -1.4522 15
      vertex -7.68889 -0.971333 8
      vertex -7.68889 -0.971333 15
    endloop
  endfacet
  facet normal 0.987688 0.156436 0
    outer loop
      vertex -7.68889 -0.971333 8
      vertex -7.61273 -1.4522 15
      vertex -7.61273 -1.4522 8
    endloop
  endfacet
  facet normal 0.999507 0.0314114 0
    outer loop
      vertex -7.73471 -0.486626 15
      vertex -7.75 0 8
      vertex -7.75 0 15
    endloop
  endfacet
  facet normal 0.999507 0.0314114 0
    outer loop
      vertex -7.75 0 8
      vertex -7.73471 -0.486626 15
      vertex -7.73471 -0.486626 8
    endloop
  endfacet
  facet normal -0.0941084 0.995562 0
    outer loop
      vertex 0.971333 -7.68889 8
      vertex 0.486626 -7.73471 15
      vertex 0.971333 -7.68889 15
    endloop
  endfacet
  facet normal -0.0941084 0.995562 0
    outer loop
      vertex 0.486626 -7.73471 15
      vertex 0.971333 -7.68889 8
      vertex 0.486626 -7.73471 8
    endloop
  endfacet
  facet normal -0.218142 0.975917 0
    outer loop
      vertex 1.92735 -7.50652 8
      vertex 1.4522 -7.61273 15
      vertex 1.92735 -7.50652 15
    endloop
  endfacet
  facet normal -0.218142 0.975917 0
    outer loop
      vertex 1.4522 -7.61273 15
      vertex 1.92735 -7.50652 8
      vertex 1.4522 -7.61273 8
    endloop
  endfacet
  facet normal -0.338738 0.940881 0
    outer loop
      vertex 2.85296 -7.20577 8
      vertex 2.39488 -7.37069 15
      vertex 2.85296 -7.20577 15
    endloop
  endfacet
  facet normal -0.338738 0.940881 0
    outer loop
      vertex 2.39488 -7.37069 15
      vertex 2.85296 -7.20577 8
      vertex 2.39488 -7.37069 8
    endloop
  endfacet
  facet normal -0.509041 0.860743 0
    outer loop
      vertex 4.15266 -6.54354 8
      vertex 3.73359 -6.79138 15
      vertex 4.15266 -6.54354 15
    endloop
  endfacet
  facet normal -0.509041 0.860743 0
    outer loop
      vertex 3.73359 -6.79138 15
      vertex 4.15266 -6.54354 8
      vertex 3.73359 -6.79138 8
    endloop
  endfacet
  facet normal -0.82708 0.562084 0
    outer loop
      vertex 6.26988 -4.55534 8
      vertex 6.54354 -4.15266 15
      vertex 6.54354 -4.15266 8
    endloop
  endfacet
  facet normal -0.82708 0.562084 0
    outer loop
      vertex 6.54354 -4.15266 15
      vertex 6.26988 -4.55534 8
      vertex 6.26988 -4.55534 15
    endloop
  endfacet
  facet normal -0.891006 0.453991 0
    outer loop
      vertex 6.79138 -3.73359 8
      vertex 7.01241 -3.29979 15
      vertex 7.01241 -3.29979 8
    endloop
  endfacet
  facet normal -0.891006 0.453991 0
    outer loop
      vertex 7.01241 -3.29979 15
      vertex 6.79138 -3.73359 8
      vertex 6.79138 -3.73359 15
    endloop
  endfacet
  facet normal -0.975917 0.218142 0
    outer loop
      vertex 7.50652 -1.92735 8
      vertex 7.61273 -1.4522 15
      vertex 7.61273 -1.4522 8
    endloop
  endfacet
  facet normal -0.975917 0.218142 0
    outer loop
      vertex 7.61273 -1.4522 15
      vertex 7.50652 -1.92735 8
      vertex 7.50652 -1.92735 15
    endloop
  endfacet
  facet normal -0.995562 0.0941084 0
    outer loop
      vertex 7.68889 -0.971333 8
      vertex 7.73471 -0.486626 15
      vertex 7.73471 -0.486626 8
    endloop
  endfacet
  facet normal -0.995562 0.0941084 0
    outer loop
      vertex 7.73471 -0.486626 15
      vertex 7.68889 -0.971333 8
      vertex 7.68889 -0.971333 15
    endloop
  endfacet
  facet normal 0.661312 0.750111 -0
    outer loop
      vertex -4.94004 -5.97148 8
      vertex -5.30524 -5.64951 15
      vertex -4.94004 -5.97148 15
    endloop
  endfacet
  facet normal 0.661312 0.750111 0
    outer loop
      vertex -5.30524 -5.64951 15
      vertex -4.94004 -5.97148 8
      vertex -5.30524 -5.64951 8
    endloop
  endfacet
  facet normal 0.278992 0.960293 -0
    outer loop
      vertex -1.92735 -7.50652 8
      vertex -2.39488 -7.37069 15
      vertex -1.92735 -7.50652 15
    endloop
  endfacet
  facet normal 0.278992 0.960293 0
    outer loop
      vertex -2.39488 -7.37069 15
      vertex -1.92735 -7.50652 8
      vertex -2.39488 -7.37069 8
    endloop
  endfacet
  facet normal 0.0314114 0.999507 -0
    outer loop
      vertex 0 -7.75 8
      vertex -0.486626 -7.73471 15
      vertex 0 -7.75 15
    endloop
  endfacet
  facet normal 0.0314114 0.999507 0
    outer loop
      vertex -0.486626 -7.73471 15
      vertex 0 -7.75 8
      vertex -0.486626 -7.73471 8
    endloop
  endfacet
  facet normal 0.860743 0.509041 0
    outer loop
      vertex -6.54354 -4.15266 15
      vertex -6.79138 -3.73359 8
      vertex -6.79138 -3.73359 15
    endloop
  endfacet
  facet normal 0.860743 0.509041 0
    outer loop
      vertex -6.79138 -3.73359 8
      vertex -6.54354 -4.15266 15
      vertex -6.54354 -4.15266 8
    endloop
  endfacet
  facet normal 0.995562 0.0941084 0
    outer loop
      vertex -7.68889 -0.971333 15
      vertex -7.73471 -0.486626 8
      vertex -7.73471 -0.486626 15
    endloop
  endfacet
  facet normal 0.995562 0.0941084 0
    outer loop
      vertex -7.73471 -0.486626 8
      vertex -7.68889 -0.971333 15
      vertex -7.68889 -0.971333 8
    endloop
  endfacet
  facet normal -0.999507 0.0314114 0
    outer loop
      vertex 7.73471 -0.486626 8
      vertex 7.75 0 15
      vertex 7.75 0 8
    endloop
  endfacet
  facet normal -0.999507 0.0314114 0
    outer loop
      vertex 7.75 0 15
      vertex 7.73471 -0.486626 8
      vertex 7.73471 -0.486626 15
    endloop
  endfacet
endsolid OpenSCAD_Model
