(module 6p4c (layer F.Cu)
  (descr "6p4c socket")
  (fp_text reference J*** (at 0 -11.99896) (layer F.SilkS)
    (effects (font (thickness 0.3048)))
  )
  (fp_text value 6p4c (at 0 12.49934) (layer F.SilkS)
    (effects (font (thickness 0.3048)))
  )
  (fp_line (start 4.0005 0) (end 4.0005 10.50036) (layer F.SilkS) (width 0.381))
  (fp_line (start -4.0005 10.50036) (end -4.0005 0) (layer F.SilkS) (width 0.381))
  (fp_line (start 1.99898 10.50036) (end 1.99898 0) (layer F.SilkS) (width 0.381))
  (fp_line (start -5.00126 0) (end -5.00126 10.50036) (layer F.SilkS) (width 0.381))
  (fp_line (start -5.00126 0) (end 5.00126 0) (layer F.SilkS) (width 0.381))
  (fp_line (start 5.00126 0) (end 5.00126 10.50036) (layer F.SilkS) (width 0.381))
  (fp_line (start -1.99898 10.50036) (end -1.99898 0) (layer F.SilkS) (width 0.381))
  (fp_line (start 7.69874 10.50036) (end -7.69874 10.50036) (layer F.SilkS) (width 0.381))
  (fp_line (start -7.69874 10.50036) (end -7.69874 -10.20064) (layer F.SilkS) (width 0.381))
  (fp_line (start -7.69874 -10.20064) (end 7.69874 -10.20064) (layer F.SilkS) (width 0.381))
  (fp_line (start 7.69874 -10.20064) (end 7.69874 10.50036) (layer F.SilkS) (width 0.381))
  (pad "" np_thru_hole circle (at -5.08 0) (size 3.2004 3.2004) (drill 3.2004) (layers *.Cu *.Mask F.SilkS))
  (pad "" np_thru_hole circle (at 5.08 0) (size 3.2004 3.2004) (drill 3.2004) (layers *.Cu *.Mask F.SilkS))
  (pad 4 thru_hole circle (at 1.905 -8.89) (size 1.50114 1.50114) (drill 0.89916) (layers *.Cu *.Mask F.SilkS))
  (pad 3 thru_hole circle (at 0.635 -6.35) (size 1.50114 1.50114) (drill 0.89916) (layers *.Cu *.Mask F.SilkS))
  (pad 2 thru_hole circle (at -0.635 -8.89) (size 1.50114 1.50114) (drill 0.89916) (layers *.Cu *.Mask F.SilkS))
  (pad 1 thru_hole circle (at -1.905 -6.35) (size 1.50114 1.50114) (drill 0.89916) (layers *.Cu *.Mask F.SilkS))
  (model walter/conn_misc/6p4c.wrl
    (at (xyz 0 0 0))
    (scale (xyz 1 1 1))
    (rotate (xyz 0 0 0))
  )
)
