(module arduino_mega_header_LampCustom (layer F.Cu) (tedit 5C65D599)
  (descr "Arduino Mega/Due Header")
  (tags Arduino)
  (fp_text reference J1 (at 0 1.27) (layer F.SilkS)
    (effects (font (size 1.016 1.016) (thickness 0.2032)))
  )
  (fp_text value Arduino_Mega_Header (at 0 -1.27) (layer F.SilkS) hide
    (effects (font (size 1.016 0.889) (thickness 0.2032)))
  )
  (fp_arc (start -48.26 -25.4) (end -49.53 -25.4) (angle 90) (layer F.SilkS) (width 0.381))
  (fp_line (start -48.26 -26.67) (end 48.26 -26.67) (layer F.SilkS) (width 0.381))
  (fp_line (start -49.53 25.4) (end -49.53 -25.4) (layer F.SilkS) (width 0.381))
  (fp_arc (start -48.26 25.4) (end -48.26 26.67) (angle 90) (layer F.SilkS) (width 0.381))
  (fp_line (start -48.26 26.67) (end 48.26 26.67) (layer F.SilkS) (width 0.381))
  (fp_arc (start 48.26 25.4) (end 49.53 25.4) (angle 90) (layer F.SilkS) (width 0.381))
  (fp_line (start 48.26 -26.67) (end 49.53 -25.4) (layer F.SilkS) (width 0.381))
  (fp_line (start 49.53 -25.4) (end 49.53 -13.97) (layer F.SilkS) (width 0.381))
  (fp_line (start 49.53 -13.97) (end 50.8 -12.7) (layer F.SilkS) (width 0.381))
  (fp_line (start 50.8 -12.7) (end 50.8 22.86) (layer F.SilkS) (width 0.381))
  (fp_line (start 50.8 22.86) (end 49.53 24.13) (layer F.SilkS) (width 0.381))
  (fp_line (start 49.53 24.13) (end 49.53 25.4) (layer F.SilkS) (width 0.381))
  (fp_line (start -26.924 -25.4) (end -32.004 -25.4) (layer F.SilkS) (width 0.381))
  (fp_line (start -32.004 -25.4) (end -32.004 -22.86) (layer F.SilkS) (width 0.381))
  (fp_line (start -32.004 -22.86) (end -26.924 -22.86) (layer F.SilkS) (width 0.381))
  (fp_line (start -6.604 -22.86) (end -26.924 -22.86) (layer F.SilkS) (width 0.381))
  (fp_line (start -26.924 -22.86) (end -26.924 -25.4) (layer F.SilkS) (width 0.381))
  (fp_line (start -6.604 -22.86) (end -6.604 -25.4) (layer F.SilkS) (width 0.381))
  (fp_line (start -6.604 -25.4) (end -26.924 -25.4) (layer F.SilkS) (width 0.381))
  (fp_line (start 15.24 -25.4) (end 15.24 -22.86) (layer F.SilkS) (width 0.381))
  (fp_line (start 15.24 -22.86) (end -5.08 -22.86) (layer F.SilkS) (width 0.381))
  (fp_line (start -5.08 -22.86) (end -5.08 -25.4) (layer F.SilkS) (width 0.381))
  (fp_line (start -5.08 -25.4) (end 15.24 -25.4) (layer F.SilkS) (width 0.381))
  (fp_line (start 38.1 -25.4) (end 17.78 -25.4) (layer F.SilkS) (width 0.381))
  (fp_line (start 17.78 -25.4) (end 17.78 -22.86) (layer F.SilkS) (width 0.381))
  (fp_line (start 17.78 -22.86) (end 38.1 -22.86) (layer F.SilkS) (width 0.381))
  (fp_line (start 38.1 -22.86) (end 38.1 -25.4) (layer F.SilkS) (width 0.381))
  (fp_line (start 43.18 20.32) (end 48.26 20.32) (layer F.SilkS) (width 0.381))
  (fp_line (start 48.26 20.32) (end 48.26 -25.4) (layer F.SilkS) (width 0.381))
  (fp_line (start 48.26 -25.4) (end 43.18 -25.4) (layer F.SilkS) (width 0.381))
  (fp_line (start 43.18 -25.4) (end 43.18 20.32) (layer F.SilkS) (width 0.381))
  (fp_line (start 43.18 25.4) (end 22.86 25.4) (layer F.SilkS) (width 0.381))
  (fp_line (start 22.86 22.86) (end 43.18 22.86) (layer F.SilkS) (width 0.381))
  (fp_line (start 20.32 22.86) (end 0 22.86) (layer F.SilkS) (width 0.381))
  (fp_line (start 0 25.4) (end 20.32 25.4) (layer F.SilkS) (width 0.381))
  (fp_line (start -22.86 25.4) (end -2.54 25.4) (layer F.SilkS) (width 0.381))
  (fp_line (start -2.54 22.86) (end -22.86 22.86) (layer F.SilkS) (width 0.381))
  (fp_line (start 20.32 25.4) (end 20.32 22.86) (layer F.SilkS) (width 0.381))
  (fp_line (start 22.86 25.4) (end 22.86 22.86) (layer F.SilkS) (width 0.381))
  (fp_line (start 0 22.86) (end 0 25.4) (layer F.SilkS) (width 0.381))
  (fp_line (start -2.54 22.86) (end -2.54 25.4) (layer F.SilkS) (width 0.381))
  (fp_line (start 43.18 22.86) (end 43.18 25.4) (layer F.SilkS) (width 0.381))
  (fp_line (start -22.86 25.4) (end -22.86 22.86) (layer F.SilkS) (width 0.381))
  (pad 1 thru_hole oval (at -21.59 24.13) (size 1.524 2.19964) (drill 1.00076) (layers *.Cu *.Mask F.SilkS))
  (pad 2 thru_hole oval (at -19.05 24.13) (size 1.524 2.19964) (drill 1.00076) (layers *.Cu *.Mask F.SilkS))
  (pad 3 thru_hole oval (at -16.51 24.13) (size 1.524 2.19964) (drill 1.00076) (layers *.Cu *.Mask F.SilkS))
  (pad 4 thru_hole oval (at -13.97 24.13) (size 1.524 2.19964) (drill 1.00076) (layers *.Cu *.Mask F.SilkS))
  (pad 5 thru_hole oval (at -11.43 24.13) (size 1.524 2.19964) (drill 1.00076) (layers *.Cu *.Mask F.SilkS))
  (pad 6 thru_hole oval (at -8.89 24.13) (size 1.524 2.19964) (drill 1.00076) (layers *.Cu *.Mask F.SilkS))
  (pad 7 thru_hole oval (at -6.35 24.13) (size 1.524 2.19964) (drill 1.00076) (layers *.Cu *.Mask F.SilkS))
  (pad 8 thru_hole oval (at -3.81 24.13) (size 1.524 2.19964) (drill 1.00076) (layers *.Cu *.Mask F.SilkS))
  (pad 9 thru_hole oval (at 1.27 24.13) (size 1.524 2.19964) (drill 1.00076) (layers *.Cu *.Mask F.SilkS))
  (pad 10 thru_hole oval (at 3.81 24.13) (size 1.524 2.19964) (drill 1.00076) (layers *.Cu *.Mask F.SilkS))
  (pad 11 thru_hole oval (at 6.35 24.13) (size 1.524 2.19964) (drill 1.00076) (layers *.Cu *.Mask F.SilkS))
  (pad 12 thru_hole oval (at 8.89 24.13) (size 1.524 2.19964) (drill 1.00076) (layers *.Cu *.Mask F.SilkS))
  (pad 13 thru_hole oval (at 11.43 24.13) (size 1.524 2.19964) (drill 1.00076) (layers *.Cu *.Mask F.SilkS))
  (pad 14 thru_hole oval (at 13.97 24.13) (size 1.524 2.19964) (drill 1.00076) (layers *.Cu *.Mask F.SilkS))
  (pad 15 thru_hole oval (at 16.51 24.13) (size 1.524 2.19964) (drill 1.00076) (layers *.Cu *.Mask F.SilkS))
  (pad 16 thru_hole oval (at 19.05 24.13) (size 1.524 2.19964) (drill 1.00076) (layers *.Cu *.Mask F.SilkS))
  (pad 17 thru_hole oval (at 24.13 24.13) (size 1.524 2.19964) (drill 1.00076) (layers *.Cu *.Mask F.SilkS))
  (pad 18 thru_hole oval (at 26.67 24.13) (size 1.524 2.19964) (drill 1.00076) (layers *.Cu *.Mask F.SilkS))
  (pad 19 thru_hole oval (at 29.21 24.13) (size 1.524 2.19964) (drill 1.00076) (layers *.Cu *.Mask F.SilkS))
  (pad 20 thru_hole oval (at 31.75 24.13) (size 1.524 2.1971) (drill 1.00076) (layers *.Cu *.Mask F.SilkS))
  (pad 21 thru_hole oval (at 34.29 24.13) (size 1.524 2.1971) (drill 1.00076) (layers *.Cu *.Mask F.SilkS))
  (pad 22 thru_hole oval (at 36.83 24.13) (size 1.524 2.1971) (drill 1.00076) (layers *.Cu *.Mask F.SilkS))
  (pad 23 thru_hole oval (at 39.37 24.13) (size 1.524 2.1971) (drill 1.00076) (layers *.Cu *.Mask F.SilkS))
  (pad 24 thru_hole oval (at 41.91 24.13) (size 1.524 2.1971) (drill 1.00076) (layers *.Cu *.Mask F.SilkS))
  (pad 25 thru_hole oval (at 44.45 19.05) (size 1.99898 1.53924) (drill 1.00076 (offset -0.24892 0)) (layers *.Cu *.Mask F.SilkS))
  (pad 26 thru_hole oval (at 44.45 16.51) (size 1.99898 1.53924) (drill 1.00076 (offset -0.24892 0)) (layers *.Cu *.Mask F.SilkS))
  (pad 27 thru_hole oval (at 44.45 13.97) (size 1.99898 1.53924) (drill 1.00076 (offset -0.24892 0)) (layers *.Cu *.Mask F.SilkS))
  (pad 38 thru_hole oval (at 44.45 -13.97) (size 1.99898 1.53924) (drill 1.00076 (offset -0.24892 0)) (layers *.Cu *.Mask F.SilkS))
  (pad 39 thru_hole oval (at 44.45 -16.51) (size 1.99898 1.53924) (drill 1.00076 (offset -0.24892 0)) (layers *.Cu *.Mask F.SilkS))
  (pad 40 thru_hole oval (at 44.45 -19.05) (size 1.99898 1.53924) (drill 1.00076 (offset -0.24892 0)) (layers *.Cu *.Mask F.SilkS))
  (pad 41 thru_hole oval (at 44.45 -21.59) (size 1.99898 1.53924) (drill 1.00076 (offset -0.24892 0)) (layers *.Cu *.Mask F.SilkS))
  (pad 42 thru_hole oval (at 44.45 -24.13) (size 1.99898 1.53924) (drill 1.00076 (offset -0.24892 0)) (layers *.Cu *.Mask F.SilkS))
  (pad 43 thru_hole oval (at 46.99 19.05) (size 1.99898 1.5367) (drill 1.00076 (offset 0.24638 0)) (layers *.Cu *.Mask F.SilkS))
  (pad 44 thru_hole oval (at 46.99 16.51) (size 1.99898 1.5367) (drill 1.00076 (offset 0.24638 0)) (layers *.Cu *.Mask F.SilkS))
  (pad 45 thru_hole oval (at 46.99 13.97) (size 1.99898 1.5367) (drill 1.00076 (offset 0.24638 0)) (layers *.Cu *.Mask F.SilkS))
  (pad 60 thru_hole oval (at 46.99 -24.13) (size 1.99898 1.5367) (drill 1.00076 (offset 0.24638 0)) (layers *.Cu *.Mask F.SilkS))
  (pad 61 thru_hole oval (at 36.83 -24.13) (size 1.524 2.1971) (drill 1.00076) (layers *.Cu *.Mask F.SilkS))
  (pad 62 thru_hole oval (at 34.29 -24.13) (size 1.524 2.1971) (drill 1.00076) (layers *.Cu *.Mask F.SilkS))
  (pad 63 thru_hole oval (at 31.75 -24.13) (size 1.524 2.1971) (drill 1.00076) (layers *.Cu *.Mask F.SilkS))
  (pad 64 thru_hole oval (at 29.21 -24.13) (size 1.524 2.1971) (drill 1.00076) (layers *.Cu *.Mask F.SilkS))
  (pad 65 thru_hole oval (at 26.67 -24.13) (size 1.524 2.1971) (drill 1.00076) (layers *.Cu *.Mask F.SilkS))
  (pad 66 thru_hole oval (at 24.13 -24.13) (size 1.524 2.1971) (drill 1.00076) (layers *.Cu *.Mask F.SilkS))
  (pad 67 thru_hole oval (at 21.59 -24.13) (size 1.524 2.1971) (drill 1.00076) (layers *.Cu *.Mask F.SilkS))
  (pad 68 thru_hole oval (at 19.05 -24.13) (size 1.524 2.1971) (drill 1.00076) (layers *.Cu *.Mask F.SilkS))
  (pad 69 thru_hole oval (at 13.97 -24.13) (size 1.524 2.1971) (drill 1.00076) (layers *.Cu *.Mask F.SilkS))
  (pad 70 thru_hole oval (at 11.43 -24.13) (size 1.524 2.1971) (drill 1.00076) (layers *.Cu *.Mask F.SilkS))
  (pad 71 thru_hole oval (at 8.89 -24.13) (size 1.524 2.1971) (drill 1.00076) (layers *.Cu *.Mask F.SilkS))
  (pad 72 thru_hole oval (at 6.35 -24.13) (size 1.524 2.1971) (drill 1.00076) (layers *.Cu *.Mask F.SilkS))
  (pad 73 thru_hole oval (at 3.81 -24.13) (size 1.524 2.1971) (drill 1.00076) (layers *.Cu *.Mask F.SilkS))
  (pad 74 thru_hole oval (at 1.27 -24.13) (size 1.524 2.1971) (drill 1.00076) (layers *.Cu *.Mask F.SilkS))
  (pad 75 thru_hole oval (at -1.27 -24.13) (size 1.524 2.1971) (drill 1.00076) (layers *.Cu *.Mask F.SilkS))
  (pad 76 thru_hole oval (at -3.81 -24.13) (size 1.524 2.1971) (drill 1.00076) (layers *.Cu *.Mask F.SilkS))
  (pad 77 thru_hole oval (at -7.874 -24.13) (size 1.524 2.1971) (drill 1.00076) (layers *.Cu *.Mask F.SilkS))
  (pad 78 thru_hole oval (at -10.414 -24.13) (size 1.524 2.1971) (drill 1.00076) (layers *.Cu *.Mask F.SilkS))
  (pad 79 thru_hole oval (at -12.954 -24.13) (size 1.524 2.1971) (drill 1.00076) (layers *.Cu *.Mask F.SilkS))
  (pad 80 thru_hole oval (at -15.494 -24.13) (size 1.524 2.1971) (drill 1.00076) (layers *.Cu *.Mask F.SilkS))
  (pad 81 thru_hole oval (at -18.034 -24.13) (size 1.524 2.1971) (drill 1.00076) (layers *.Cu *.Mask F.SilkS))
  (pad 82 thru_hole oval (at -20.574 -24.13) (size 1.524 2.1971) (drill 1.00076) (layers *.Cu *.Mask F.SilkS))
  (pad 83 thru_hole oval (at -23.114 -24.13) (size 1.524 2.1971) (drill 1.00076) (layers *.Cu *.Mask F.SilkS))
  (pad 84 thru_hole oval (at -25.654 -24.13) (size 1.524 2.1971) (drill 1.00076) (layers *.Cu *.Mask F.SilkS))
  (pad 85 thru_hole oval (at -28.194 -24.13) (size 1.524 2.1971) (drill 1.00076) (layers *.Cu *.Mask F.SilkS))
  (pad 86 thru_hole oval (at -30.734 -24.13) (size 1.524 2.1971) (drill 1.00076) (layers *.Cu *.Mask F.SilkS))
  (model walter/conn_misc/arduino_mega_header.wrl
    (at (xyz 0 0 0))
    (scale (xyz 1 1 1))
    (rotate (xyz 0 0 0))
  )
)
