(module arduino_pin_socket_8 (layer F.Cu)
  (descr "Pin socket 8pin for Arduino exp. boards")
  (tags "CONN DEV")
  (fp_text reference ARDUINO_PIN_SOCKET_8 (at 0 -2.159) (layer F.SilkS)
    (effects (font (size 1.016 1.016) (thickness 0.2032)))
  )
  (fp_text value Val** (at 0.254 -3.556) (layer F.SilkS) hide
    (effects (font (size 1.016 0.889) (thickness 0.2032)))
  )
  (fp_line (start -7.62 -1.27) (end -7.62 1.27) (layer F.SilkS) (width 0.3048))
  (fp_line (start -10.16 -1.27) (end 10.16 -1.27) (layer F.SilkS) (width 0.3048))
  (fp_line (start 10.16 -1.27) (end 10.16 1.27) (layer F.SilkS) (width 0.3048))
  (fp_line (start 10.16 1.27) (end -10.16 1.27) (layer F.SilkS) (width 0.3048))
  (fp_line (start -10.16 1.27) (end -10.16 -1.27) (layer F.SilkS) (width 0.3048))
  (pad 1 thru_hole rect (at -8.89 0) (size 1.524 2.19964) (drill 1.00076) (layers *.Cu *.Mask F.SilkS))
  (pad 2 thru_hole oval (at -6.35 0) (size 1.524 2.19964) (drill 1.00076) (layers *.Cu *.Mask F.SilkS))
  (pad 3 thru_hole oval (at -3.81 0) (size 1.524 2.19964) (drill 1.00076) (layers *.Cu *.Mask F.SilkS))
  (pad 4 thru_hole oval (at -1.27 0) (size 1.524 2.19964) (drill 1.00076) (layers *.Cu *.Mask F.SilkS))
  (pad 5 thru_hole oval (at 1.27 0) (size 1.524 2.19964) (drill 1.00076) (layers *.Cu *.Mask F.SilkS))
  (pad 6 thru_hole oval (at 3.81 0) (size 1.524 2.19964) (drill 1.00076) (layers *.Cu *.Mask F.SilkS))
  (pad 7 thru_hole oval (at 6.35 0) (size 1.524 2.19964) (drill 1.00076) (layers *.Cu *.Mask F.SilkS))
  (pad 8 thru_hole oval (at 8.89 0) (size 1.524 2.19964) (drill 1.00076) (layers *.Cu *.Mask F.SilkS))
  (model walter/conn_misc/arduino_pin_socket_8.wrl
    (at (xyz 0 0 0))
    (scale (xyz 1 1 1))
    (rotate (xyz 0 0 0))
  )
)
