(module sd_socket (layer F.Cu)
  (descr "SD Card socket, 4UCON P/N 19607")
  (fp_text reference sd_socket (at 0 17.00022) (layer F.SilkS)
    (effects (font (thickness 0.3048)))
  )
  (fp_text value J** (at 0 -17.00022) (layer F.SilkS)
    (effects (font (thickness 0.3048)))
  )
  (fp_line (start -9.90092 15.40002) (end -14.3002 15.40002) (layer F.SilkS) (width 0.381))
  (fp_line (start 14.3002 15.40002) (end 9.90092 15.40002) (layer F.SilkS) (width 0.381))
  (fp_arc (start 0 15.40002) (end 0 5.4991) (angle 90) (layer F.SilkS) (width 0.381))
  (fp_arc (start 0 15.40002) (end -9.90092 15.40002) (angle 90) (layer F.SilkS) (width 0.381))
  (fp_line (start 6.4008 -3.40106) (end -6.20014 -3.40106) (layer F.SilkS) (width 0.381))
  (fp_line (start 8.30072 -1.89992) (end 9.99998 15.40002) (layer F.SilkS) (width 0.381))
  (fp_arc (start 6.59892 -1.69926) (end 6.4008 -3.40106) (angle 90) (layer F.SilkS) (width 0.381))
  (fp_line (start -8.30072 -1.69926) (end -9.99998 15.40002) (layer F.SilkS) (width 0.381))
  (fp_arc (start -6.4008 -1.50114) (end -8.30072 -1.69926) (angle 90) (layer F.SilkS) (width 0.381))
  (fp_line (start -14.3002 15.40002) (end -14.3002 -13.40104) (layer F.SilkS) (width 0.381))
  (fp_line (start -14.3002 -13.40104) (end 14.3002 -13.40104) (layer F.SilkS) (width 0.381))
  (fp_line (start 14.3002 -13.40104) (end 14.3002 15.40002) (layer F.SilkS) (width 0.381))
  (pad 9 smd rect (at 9.271 -14.54404) (size 1.04902 1.55956) (layers F.Cu F.Paste F.Mask))
  (pad 1 smd rect (at 6.77164 -14.54404) (size 1.04902 1.55956) (layers F.Cu F.Paste F.Mask))
  (pad 2 smd rect (at 4.26974 -14.54404) (size 1.04902 1.55956) (layers F.Cu F.Paste F.Mask))
  (pad 3 smd rect (at 1.77038 -14.54404) (size 1.04902 1.55956) (layers F.Cu F.Paste F.Mask))
  (pad 4 smd rect (at -0.72898 -14.54404) (size 1.04902 1.55956) (layers F.Cu F.Paste F.Mask))
  (pad 5 smd rect (at -3.22834 -14.54404) (size 1.04902 1.55956) (layers F.Cu F.Paste F.Mask))
  (pad 6 smd rect (at -5.73024 -14.54404) (size 1.04902 1.55956) (layers F.Cu F.Paste F.Mask))
  (pad 7 smd rect (at -8.14832 -14.54404) (size 1.04902 1.55956) (layers F.Cu F.Paste F.Mask))
  (pad 8 smd rect (at -9.85012 -14.54404) (size 1.04902 1.55956) (layers F.Cu F.Paste F.Mask))
  (pad CD smd rect (at -12.1285 -14.31544) (size 1.34874 1.09982) (layers F.Cu F.Paste F.Mask))
  (pad "" smd rect (at 14.74978 -9.5758) (size 1.89992 1.89992) (layers F.Cu F.Paste F.Mask))
  (pad "" smd rect (at 14.74978 5.87502) (size 1.89992 1.89992) (layers F.Cu F.Paste F.Mask))
  (pad "" smd rect (at -14.86916 -9.5758) (size 1.89992 1.89992) (layers F.Cu F.Paste F.Mask))
  (pad COM smd rect (at -14.54912 -4.17576) (size 1.6002 1.09982) (layers F.Cu F.Paste F.Mask))
  (pad WP smd rect (at -14.59992 5.49402) (size 1.6002 1.6002) (layers F.Cu F.Paste F.Mask))
  (pad "" thru_hole circle (at 12.10056 9.82472) (size 1.30048 1.30048) (drill 1.30048) (layers *.Cu *.Mask F.SilkS))
  (pad "" thru_hole circle (at -12.10056 9.82472) (size 1.80086 1.80086) (drill 1.80086) (layers *.Cu *.Mask F.SilkS))
  (model walter/conn_misc/sd_socket.wrl
    (at (xyz 0 0 0))
    (scale (xyz 1 1 1))
    (rotate (xyz 0 0 0))
  )
)
