(module stm32f0_discovery_header (layer F.Cu)
  (descr "STM32 F0 Discovery Header")
  (tags "STM32F0 Discovery")
  (fp_text reference STM32F0_Discovery_Header (at 0 1.27) (layer F.SilkS)
    (effects (font (size 1.016 1.016) (thickness 0.2032)))
  )
  (fp_text value Val** (at 0 -1.27) (layer F.SilkS) hide
    (effects (font (size 1.016 0.889) (thickness 0.2032)))
  )
  (fp_line (start 40.7 -22) (end 40.7 -25.2) (layer F.SilkS) (width 0.381))
  (fp_line (start 40.7 -25.2) (end 39.8 -24.4) (layer F.SilkS) (width 0.381))
  (fp_line (start 39.8 -22) (end 41.5 -22) (layer F.SilkS) (width 0.381))
  (fp_line (start 39.37 -20.32) (end 39.37 -17.78) (layer F.SilkS) (width 0.381))
  (fp_line (start -41.91 17.78) (end 41.91 17.78) (layer F.SilkS) (width 0.381))
  (fp_line (start 41.91 17.78) (end 41.91 20.32) (layer F.SilkS) (width 0.381))
  (fp_line (start -41.91 20.32) (end 41.91 20.32) (layer F.SilkS) (width 0.381))
  (fp_line (start -41.91 17.78) (end -41.91 20.32) (layer F.SilkS) (width 0.381))
  (fp_line (start 44.5 -26.7) (end -44.5 -26.7) (layer F.SilkS) (width 0.381))
  (fp_line (start -44.5 26.7) (end 44.5 26.7) (layer F.SilkS) (width 0.381))
  (fp_line (start 44.5 26.7) (end 44.5 -26.7) (layer F.SilkS) (width 0.381))
  (fp_line (start -44.5 26.7) (end -44.5 -26.7) (layer F.SilkS) (width 0.381))
  (fp_line (start -41.91 -20.32) (end -41.91 -17.78) (layer F.SilkS) (width 0.381))
  (fp_line (start -41.91 -17.78) (end 41.91 -17.78) (layer F.SilkS) (width 0.381))
  (fp_line (start 41.91 -20.32) (end 41.91 -17.78) (layer F.SilkS) (width 0.381))
  (fp_line (start -41.91 -20.32) (end 41.91 -20.32) (layer F.SilkS) (width 0.381))
  (pad 34 thru_hole oval (at -40.64 19.05) (size 1.5 2.2) (drill 0.99822) (layers *.Cu *.Mask F.SilkS))
  (pad 35 thru_hole oval (at -38.1 19.05) (size 1.5 2.2) (drill 0.99822) (layers *.Cu *.Mask F.SilkS))
  (pad 36 thru_hole oval (at -35.56 19.05) (size 1.5 2.2) (drill 0.99822) (layers *.Cu *.Mask F.SilkS))
  (pad 37 thru_hole oval (at -33.02 19.05) (size 1.5 2.2) (drill 0.99822) (layers *.Cu *.Mask F.SilkS))
  (pad 38 thru_hole oval (at -30.48 19.05) (size 1.5 2.2) (drill 0.99822) (layers *.Cu *.Mask F.SilkS))
  (pad 39 thru_hole oval (at -27.94 19.05) (size 1.5 2.2) (drill 0.99822) (layers *.Cu *.Mask F.SilkS))
  (pad 40 thru_hole oval (at -25.4 19.05) (size 1.5 2.2) (drill 0.99822) (layers *.Cu *.Mask F.SilkS))
  (pad 41 thru_hole oval (at -22.86 19.05) (size 1.5 2.2) (drill 0.99822) (layers *.Cu *.Mask F.SilkS))
  (pad 42 thru_hole oval (at -20.32 19.05) (size 1.5 2.2) (drill 0.99822) (layers *.Cu *.Mask F.SilkS))
  (pad 43 thru_hole oval (at -17.78 19.05) (size 1.5 2.2) (drill 0.99822) (layers *.Cu *.Mask F.SilkS))
  (pad 44 thru_hole oval (at -15.24 19.05) (size 1.5 2.2) (drill 0.99822) (layers *.Cu *.Mask F.SilkS))
  (pad 45 thru_hole oval (at -12.7 19.05) (size 1.5 2.2) (drill 0.99822) (layers *.Cu *.Mask F.SilkS))
  (pad 46 thru_hole oval (at -10.16 19.05) (size 1.5 2.2) (drill 0.99822) (layers *.Cu *.Mask F.SilkS))
  (pad 47 thru_hole oval (at -7.62 19.05) (size 1.5 2.2) (drill 0.99822) (layers *.Cu *.Mask F.SilkS))
  (pad 48 thru_hole oval (at -5.08 19.05) (size 1.5 2.2) (drill 0.99822) (layers *.Cu *.Mask F.SilkS))
  (pad 49 thru_hole oval (at -2.54 19.05) (size 1.5 2.2) (drill 0.99822) (layers *.Cu *.Mask F.SilkS))
  (pad 50 thru_hole oval (at 0 19.05) (size 1.5 2.2) (drill 0.99822) (layers *.Cu *.Mask F.SilkS))
  (pad 51 thru_hole oval (at 2.54 19.05) (size 1.5 2.2) (drill 0.99822) (layers *.Cu *.Mask F.SilkS))
  (pad 52 thru_hole oval (at 5.08 19.05) (size 1.5 2.2) (drill 0.99822) (layers *.Cu *.Mask F.SilkS))
  (pad 53 thru_hole oval (at 7.62 19.05) (size 1.5 2.2) (drill 0.99822) (layers *.Cu *.Mask F.SilkS))
  (pad 54 thru_hole oval (at 10.16 19.05) (size 1.5 2.2) (drill 0.99822) (layers *.Cu *.Mask F.SilkS))
  (pad 55 thru_hole oval (at 12.7 19.05) (size 1.5 2.2) (drill 0.99822) (layers *.Cu *.Mask F.SilkS))
  (pad 56 thru_hole oval (at 15.24 19.05) (size 1.5 2.2) (drill 0.99822) (layers *.Cu *.Mask F.SilkS))
  (pad 57 thru_hole oval (at 17.78 19.05) (size 1.5 2.2) (drill 0.99822) (layers *.Cu *.Mask F.SilkS))
  (pad 58 thru_hole oval (at 20.32 19.05) (size 1.5 2.2) (drill 0.99822) (layers *.Cu *.Mask F.SilkS))
  (pad 59 thru_hole oval (at 22.86 19.05) (size 1.5 2.2) (drill 0.99822) (layers *.Cu *.Mask F.SilkS))
  (pad 60 thru_hole oval (at 25.4 19.05) (size 1.5 2.2) (drill 0.99822) (layers *.Cu *.Mask F.SilkS))
  (pad 61 thru_hole oval (at 27.94 19.05) (size 1.5 2.2) (drill 0.99822) (layers *.Cu *.Mask F.SilkS))
  (pad 62 thru_hole oval (at 30.48 19.05) (size 1.5 2.2) (drill 0.99822) (layers *.Cu *.Mask F.SilkS))
  (pad 63 thru_hole oval (at 33.02 19.05) (size 1.5 2.2) (drill 0.99822) (layers *.Cu *.Mask F.SilkS))
  (pad 64 thru_hole oval (at 35.56 19.05) (size 1.5 2.2) (drill 0.99822) (layers *.Cu *.Mask F.SilkS))
  (pad 65 thru_hole oval (at 38.1 19.05) (size 1.5 2.2) (drill 0.99822) (layers *.Cu *.Mask F.SilkS))
  (pad 66 thru_hole oval (at 40.64 19.05) (size 1.5 2.2) (drill 1.00076) (layers *.Cu *.Mask F.SilkS))
  (pad 1 thru_hole rect (at 40.64 -19.05) (size 1.5 2.2) (drill 1.00076) (layers *.Cu *.Mask F.SilkS))
  (pad 2 thru_hole oval (at 38.1 -19.05) (size 1.5 2.2) (drill 0.99822) (layers *.Cu *.Mask F.SilkS))
  (pad 3 thru_hole oval (at 35.56 -19.05) (size 1.5 2.2) (drill 0.99822) (layers *.Cu *.Mask F.SilkS))
  (pad 4 thru_hole oval (at 33.02 -19.05) (size 1.5 2.2) (drill 0.99822) (layers *.Cu *.Mask F.SilkS))
  (pad 5 thru_hole oval (at 30.48 -19.05) (size 1.5 2.2) (drill 0.99822) (layers *.Cu *.Mask F.SilkS))
  (pad 6 thru_hole oval (at 27.94 -19.05) (size 1.5 2.2) (drill 0.99822) (layers *.Cu *.Mask F.SilkS))
  (pad 7 thru_hole oval (at 25.4 -19.05) (size 1.5 2.2) (drill 0.99822) (layers *.Cu *.Mask F.SilkS))
  (pad 8 thru_hole oval (at 22.86 -19.05) (size 1.5 2.2) (drill 0.99822) (layers *.Cu *.Mask F.SilkS))
  (pad 9 thru_hole oval (at 20.32 -19.05) (size 1.5 2.2) (drill 0.99822) (layers *.Cu *.Mask F.SilkS))
  (pad 10 thru_hole oval (at 17.78 -19.05) (size 1.5 2.2) (drill 0.99822) (layers *.Cu *.Mask F.SilkS))
  (pad 11 thru_hole oval (at 15.24 -19.05) (size 1.5 2.2) (drill 0.99822) (layers *.Cu *.Mask F.SilkS))
  (pad 12 thru_hole oval (at 12.7 -19.05) (size 1.5 2.2) (drill 0.99822) (layers *.Cu *.Mask F.SilkS))
  (pad 13 thru_hole oval (at 10.16 -19.05) (size 1.5 2.2) (drill 0.99822) (layers *.Cu *.Mask F.SilkS))
  (pad 14 thru_hole oval (at 7.62 -19.05) (size 1.5 2.2) (drill 0.99822) (layers *.Cu *.Mask F.SilkS))
  (pad 15 thru_hole oval (at 5.08 -19.05) (size 1.5 2.2) (drill 0.99822) (layers *.Cu *.Mask F.SilkS))
  (pad 16 thru_hole oval (at 2.54 -19.05) (size 1.5 2.2) (drill 0.99822) (layers *.Cu *.Mask F.SilkS))
  (pad 17 thru_hole oval (at 0 -19.05) (size 1.5 2.2) (drill 0.99822) (layers *.Cu *.Mask F.SilkS))
  (pad 18 thru_hole oval (at -2.54 -19.05) (size 1.5 2.2) (drill 0.99822) (layers *.Cu *.Mask F.SilkS))
  (pad 19 thru_hole oval (at -5.08 -19.05) (size 1.5 2.2) (drill 0.99822) (layers *.Cu *.Mask F.SilkS))
  (pad 20 thru_hole oval (at -7.62 -19.05) (size 1.5 2.2) (drill 0.99822) (layers *.Cu *.Mask F.SilkS))
  (pad 21 thru_hole oval (at -10.16 -19.05) (size 1.5 2.2) (drill 0.99822) (layers *.Cu *.Mask F.SilkS))
  (pad 22 thru_hole oval (at -12.7 -19.05) (size 1.5 2.2) (drill 0.99822) (layers *.Cu *.Mask F.SilkS))
  (pad 23 thru_hole oval (at -15.24 -19.05) (size 1.5 2.2) (drill 0.99822) (layers *.Cu *.Mask F.SilkS))
  (pad 24 thru_hole oval (at -17.78 -19.05) (size 1.5 2.2) (drill 0.99822) (layers *.Cu *.Mask F.SilkS))
  (pad 25 thru_hole oval (at -20.32 -19.05) (size 1.5 2.2) (drill 0.99822) (layers *.Cu *.Mask F.SilkS))
  (pad 26 thru_hole oval (at -22.86 -19.05) (size 1.5 2.2) (drill 0.99822) (layers *.Cu *.Mask F.SilkS))
  (pad 27 thru_hole oval (at -25.4 -19.05) (size 1.5 2.2) (drill 0.99822) (layers *.Cu *.Mask F.SilkS))
  (pad 28 thru_hole oval (at -27.94 -19.05) (size 1.5 2.2) (drill 0.99822) (layers *.Cu *.Mask F.SilkS))
  (pad 29 thru_hole oval (at -30.48 -19.05) (size 1.5 2.2) (drill 0.99822) (layers *.Cu *.Mask F.SilkS))
  (pad 30 thru_hole oval (at -33.02 -19.05) (size 1.5 2.2) (drill 0.99822) (layers *.Cu *.Mask F.SilkS))
  (pad 31 thru_hole oval (at -35.56 -19.05) (size 1.5 2.2) (drill 0.99822) (layers *.Cu *.Mask F.SilkS))
  (pad 32 thru_hole oval (at -38.1 -19.05) (size 1.5 2.2) (drill 0.99822) (layers *.Cu *.Mask F.SilkS))
  (pad 33 thru_hole oval (at -40.64 -19.05) (size 1.5 2.2) (drill 0.99822) (layers *.Cu *.Mask F.SilkS))
  (model walter/conn_misc/stm32f0_discovery_header.wrl
    (at (xyz 0 0 0))
    (scale (xyz 1 1 1))
    (rotate (xyz 0 0 0))
  )
)
