(export (version D)
  (design
    (source "J:\\Mi unidad\\Axel_OSF\\Proyecto Arduino LAMP\\KiCAD\\LAMP Shield V2.5\\Sensors\\SensoresPCB.sch")
    (date "30-01-2019 19:14:01")
    (tool "Eeschema (5.0.1)-3")
    (sheet (number 1) (name /) (tstamps /)
      (title_block
        (title)
        (company)
        (rev)
        (date)
        (source SensoresPCB.sch)
        (comment (number 1) (value ""))
        (comment (number 2) (value ""))
        (comment (number 3) (value ""))
        (comment (number 4) (value "")))))
  (components
    (comp (ref J3)
      (value Conn_01x07)
      (footprint Pin_Headers:Pin_Header_Straight_1x07_Pitch2.54mm)
      (libsource (lib conn) (part Conn_01x07) (description "Generic connector, single row, 01x07"))
      (sheetpath (names /) (tstamps /))
      (tstamp 5BE49349))
    (comp (ref Therm1)
      (value Conn_01x02)
      (footprint Pin_Headers:Pin_Header_Straight_1x02_Pitch2.54mm)
      (libsource (lib conn) (part Conn_01x02) (description "Generic connector, single row, 01x02"))
      (sheetpath (names /) (tstamps /))
      (tstamp 5BE4967B))
    (comp (ref Heater1)
      (value Conn_01x02)
      (footprint Pin_Headers:Pin_Header_Straight_1x02_Pitch2.54mm)
      (libsource (lib conn) (part Conn_01x02) (description "Generic connector, single row, 01x02"))
      (sheetpath (names /) (tstamps /))
      (tstamp 5BE49721))
    (comp (ref Led1)
      (value Conn_01x02)
      (footprint Pin_Headers:Pin_Header_Straight_1x02_Pitch2.54mm)
      (libsource (lib conn) (part Conn_01x02) (description "Generic connector, single row, 01x02"))
      (sheetpath (names /) (tstamps /))
      (tstamp 5BE498DC))
    (comp (ref Q1)
      (value IRF540N)
      (footprint TO_SOT_Packages_THT:TO-220-3_Vertical)
      (libsource (lib transistors) (part IRF540N) (description "100V Vds, 33A Id, HEXFET N-Channel MOSFET, TO-220"))
      (sheetpath (names /) (tstamps /))
      (tstamp 5BE4A98D))
    (comp (ref R1)
      (value 10)
      (footprint Resistors_THT:R_Axial_DIN0204_L3.6mm_D1.6mm_P7.62mm_Horizontal)
      (libsource (lib Device) (part R) (description Resistor))
      (sheetpath (names /) (tstamps /))
      (tstamp 5BE4AB8C))
    (comp (ref R3)
      (value 100k)
      (footprint Resistors_THT:R_Axial_DIN0204_L3.6mm_D1.6mm_P7.62mm_Horizontal)
      (libsource (lib Device) (part R) (description Resistor))
      (sheetpath (names /) (tstamps /))
      (tstamp 5BE4D45D))
    (comp (ref R2)
      (value 560)
      (footprint Resistors_THT:R_Axial_DIN0204_L3.6mm_D1.6mm_P7.62mm_Horizontal)
      (libsource (lib Device) (part R) (description Resistor))
      (sheetpath (names /) (tstamps /))
      (tstamp 5BE4D7B2))
    (comp (ref R4)
      (value 10k)
      (footprint Resistors_THT:R_Axial_DIN0204_L3.6mm_D1.6mm_P7.62mm_Horizontal)
      (libsource (lib Device) (part R) (description Resistor))
      (sheetpath (names /) (tstamps /))
      (tstamp 5C30FE8A))
    (comp (ref J4)
      (value Conn_01x02)
      (footprint Pin_Headers:Pin_Header_Straight_1x02_Pitch2.54mm)
      (libsource (lib conn) (part Conn_01x02) (description "Generic connector, single row, 01x02"))
      (sheetpath (names /) (tstamps /))
      (tstamp 5C36E2C1))
    (comp (ref C1)
      (value CP)
      (footprint Capacitors_THT:CP_Radial_D8.0mm_P3.80mm)
      (datasheet ~)
      (libsource (lib Device) (part CP) (description "Polarized capacitor"))
      (sheetpath (names /) (tstamps /))
      (tstamp 5C3740C4))
    (comp (ref C2)
      (value CP)
      (footprint Capacitors_THT:CP_Radial_D8.0mm_P3.80mm)
      (datasheet ~)
      (libsource (lib Device) (part CP) (description "Polarized capacitor"))
      (sheetpath (names /) (tstamps /))
      (tstamp 5C37439A))
    (comp (ref J6)
      (value Conn_01x02)
      (footprint Pin_Headers:Pin_Header_Straight_1x02_Pitch2.54mm)
      (libsource (lib conn) (part Conn_01x02) (description "Generic connector, single row, 01x02"))
      (sheetpath (names /) (tstamps /))
      (tstamp 5C37D39D))
    (comp (ref J2)
      (value Conn_01x02)
      (footprint Pin_Headers:Pin_Header_Straight_1x02_Pitch2.54mm)
      (libsource (lib conn) (part Conn_01x02) (description "Generic connector, single row, 01x02"))
      (sheetpath (names /) (tstamps /))
      (tstamp 5C383C5C))
    (comp (ref J8)
      (value Conn_01x02)
      (footprint Pin_Headers:Pin_Header_Straight_1x02_Pitch2.54mm)
      (libsource (lib conn) (part Conn_01x02) (description "Generic connector, single row, 01x02"))
      (sheetpath (names /) (tstamps /))
      (tstamp 5C4C3C94))
    (comp (ref J7)
      (value Conn_01x02)
      (footprint Pin_Headers:Pin_Header_Straight_1x02_Pitch2.54mm)
      (libsource (lib conn) (part Conn_01x02) (description "Generic connector, single row, 01x02"))
      (sheetpath (names /) (tstamps /))
      (tstamp 5C4C6976))
    (comp (ref J5)
      (value Conn_01x07)
      (footprint Pin_Headers:Pin_Header_Straight_1x07_Pitch2.54mm)
      (libsource (lib conn) (part Conn_01x07) (description "Generic connector, single row, 01x07"))
      (sheetpath (names /) (tstamps /))
      (tstamp 5C4C78DA)))
  (libparts
    (libpart (lib Device) (part CP)
      (description "Polarized capacitor")
      (docs ~)
      (footprints
        (fp CP_*))
      (fields
        (field (name Reference) C)
        (field (name Value) CP))
      (pins
        (pin (num 1) (name ~) (type passive))
        (pin (num 2) (name ~) (type passive))))
    (libpart (lib Device) (part R)
      (description Resistor)
      (docs ~)
      (footprints
        (fp R_*))
      (fields
        (field (name Reference) R)
        (field (name Value) R))
      (pins
        (pin (num 1) (name ~) (type passive))
        (pin (num 2) (name ~) (type passive))))
    (libpart (lib conn) (part Conn_01x02)
      (description "Generic connector, single row, 01x02")
      (docs ~)
      (footprints
        (fp Connector*:*_??x*mm*)
        (fp Connector*:*1x??x*mm*)
        (fp Pin?Header?Straight?1X*)
        (fp Pin?Header?Angled?1X*)
        (fp Socket?Strip?Straight?1X*)
        (fp Socket?Strip?Angled?1X*))
      (fields
        (field (name Reference) J)
        (field (name Value) Conn_01x02))
      (pins
        (pin (num 1) (name Pin_1) (type passive))
        (pin (num 2) (name Pin_2) (type passive))))
    (libpart (lib conn) (part Conn_01x07)
      (description "Generic connector, single row, 01x07")
      (docs ~)
      (footprints
        (fp Connector*:*_??x*mm*)
        (fp Connector*:*1x??x*mm*)
        (fp Pin?Header?Straight?1X*)
        (fp Pin?Header?Angled?1X*)
        (fp Socket?Strip?Straight?1X*)
        (fp Socket?Strip?Angled?1X*))
      (fields
        (field (name Reference) J)
        (field (name Value) Conn_01x07))
      (pins
        (pin (num 1) (name Pin_1) (type passive))
        (pin (num 2) (name Pin_2) (type passive))
        (pin (num 3) (name Pin_3) (type passive))
        (pin (num 4) (name Pin_4) (type passive))
        (pin (num 5) (name Pin_5) (type passive))
        (pin (num 6) (name Pin_6) (type passive))
        (pin (num 7) (name Pin_7) (type passive))))
    (libpart (lib transistors) (part BUZ11)
      (aliases
        (alias IRLZ44N)
        (alias IRLIZ44N)
        (alias IRLZ34N)
        (alias IRF3205)
        (alias IRF540N))
      (description "50V Vds, 30A Id, N-Channel Power MOSFET, TO-220")
      (docs http://www.fairchildsemi.com/ds/BU/BUZ11.pdf)
      (footprints
        (fp TO?220*))
      (fields
        (field (name Reference) Q)
        (field (name Value) BUZ11)
        (field (name Footprint) TO_SOT_Packages_THT:TO-220_Vertical))
      (pins
        (pin (num 1) (name G) (type input))
        (pin (num 2) (name D) (type passive))
        (pin (num 3) (name S) (type passive)))))
  (libraries
    (library (logical Device)
      (uri "C:\\Program Files\\KiCad\\share\\kicad\\library/Device.lib"))
    (library (logical conn)
      (uri "C:\\Program Files\\KiCad\\share\\kicad\\library/conn.lib"))
    (library (logical transistors)
      (uri "C:\\Program Files\\KiCad\\share\\kicad\\library/transistors.lib")))
  (nets
    (net (code 1) (name T0b)
      (node (ref J5) (pin 1))
      (node (ref J3) (pin 3))
      (node (ref Therm1) (pin 2))
      (node (ref Led1) (pin 2))
      (node (ref Q1) (pin 3))
      (node (ref R4) (pin 1))
      (node (ref J4) (pin 1))
      (node (ref J6) (pin 1))
      (node (ref C2) (pin 2))
      (node (ref C1) (pin 2))
      (node (ref J2) (pin 1)))
    (net (code 2) (name "Net-(J8-Pad2)")
      (node (ref R2) (pin 2))
      (node (ref J8) (pin 2)))
    (net (code 3) (name 5v)
      (node (ref J3) (pin 1))
      (node (ref R3) (pin 1))
      (node (ref J6) (pin 2))
      (node (ref C2) (pin 1)))
    (net (code 4) (name int)
      (node (ref J3) (pin 7)))
    (net (code 5) (name 5vnc)
      (node (ref J5) (pin 3)))
    (net (code 6) (name Nc)
      (node (ref J5) (pin 2))
      (node (ref J5) (pin 6)))
    (net (code 7) (name Led)
      (node (ref J5) (pin 7)))
    (net (code 8) (name Rx)
      (node (ref J5) (pin 5)))
    (net (code 9) (name Tx)
      (node (ref J5) (pin 4)))
    (net (code 10) (name rst)
      (node (ref J3) (pin 6)))
    (net (code 11) (name sda)
      (node (ref J3) (pin 5))
      (node (ref J7) (pin 1)))
    (net (code 12) (name scl)
      (node (ref J3) (pin 4))
      (node (ref J7) (pin 2)))
    (net (code 13) (name 3v3)
      (node (ref J3) (pin 2)))
    (net (code 14) (name Hb)
      (node (ref Q1) (pin 2))
      (node (ref Heater1) (pin 2)))
    (net (code 15) (name T0a)
      (node (ref R3) (pin 2))
      (node (ref J4) (pin 2))
      (node (ref Therm1) (pin 1)))
    (net (code 16) (name 12v)
      (node (ref J2) (pin 2))
      (node (ref C1) (pin 1))
      (node (ref Heater1) (pin 1)))
    (net (code 17) (name UvLedA)
      (node (ref R2) (pin 1))
      (node (ref Led1) (pin 1)))
    (net (code 18) (name pwm0)
      (node (ref J8) (pin 1))
      (node (ref R1) (pin 2)))
    (net (code 19) (name "Net-(Q1-Pad1)")
      (node (ref R4) (pin 2))
      (node (ref Q1) (pin 1))
      (node (ref R1) (pin 1)))))