M48
;DRILL file {KiCad (5.0.1)-3} date 30-01-2019 19:57:00
;FORMAT={3:3/ absolute / metric / keep zeros}
FMAT,2
METRIC,TZ
T1C0.700
T2C0.800
T3C1.000
%
G90
G05
M71
T1
X081116Y-020404
X081116Y-028024
X081370Y-038590
X081370Y-046210
X072658Y-038768
X072658Y-046388
X077459Y-026754
X077459Y-034374
T2
X121121Y-046261
X121121Y-050061
X100124Y-048815
X103924Y-048815
T3
X113044Y-047379
X113044Y-049919
X122197Y-019960
X122197Y-022500
X122197Y-025040
X122197Y-027580
X122197Y-030120
X122197Y-032660
X122197Y-035200
X086806Y-039352
X086806Y-041892
X085079Y-030412
X085079Y-032952
X102133Y-020218
X102133Y-022758
X102133Y-025298
X102133Y-027838
X102133Y-030378
X102133Y-032918
X102133Y-035458
X073547Y-021217
X073547Y-023757
X076773Y-039987
X076773Y-042527
X076773Y-045067
X093904Y-047803
X093904Y-050343
X073496Y-029700
X073496Y-032240
X092685Y-027813
X092685Y-030353
X085079Y-022055
X085079Y-024595
T0
M30
